<?xml version="1.0" encoding="UTF-8"?>
<svg xmlns="http://www.w3.org/2000/svg" xmlns:xlink="http://www.w3.org/1999/xlink" width="504pt" height="504pt" viewBox="0 0 504 504" version="1.1">
<defs>
<g>
<symbol overflow="visible" id="glyph0-0">
<path style="stroke:none;" d=""/>
</symbol>
<symbol overflow="visible" id="glyph0-1">
<path style="stroke:none;" d="M 0 4.8125 L 5.234375 4.8125 L 5.234375 3.984375 L 2.265625 3.984375 C 1.203125 3.984375 0.5 3.4375 0.5 2.5625 C 0.5 1.90625 0.90625 1.484375 1.53125 1.484375 L 5.234375 1.484375 L 5.234375 0.65625 L 1.203125 0.65625 C 0.328125 0.65625 -0.234375 1.296875 -0.234375 2.3125 C -0.234375 3.09375 0.046875 3.578125 0.734375 4.0625 L 0 4.0625 Z M 0 4.8125 "/>
</symbol>
<symbol overflow="visible" id="glyph0-2">
<path style="stroke:none;" d="M -2.1875 0.546875 L -2.1875 1.375 L 0.546875 1.375 C 0.015625 1.8125 -0.234375 2.3125 -0.234375 2.984375 C -0.234375 4.34375 0.859375 5.234375 2.53125 5.234375 C 4.296875 5.234375 5.390625 4.375 5.390625 2.984375 C 5.390625 2.265625 5.0625 1.703125 4.453125 1.3125 L 5.234375 1.3125 L 5.234375 0.546875 Z M 4.609375 2.84375 C 4.609375 3.765625 3.796875 4.359375 2.546875 4.359375 C 1.359375 4.359375 0.546875 3.75 0.546875 2.84375 C 0.546875 1.953125 1.34375 1.375 2.578125 1.375 C 3.8125 1.375 4.609375 1.953125 4.609375 2.84375 Z M 4.609375 2.84375 "/>
</symbol>
<symbol overflow="visible" id="glyph0-3">
<path style="stroke:none;" d="M -1.265625 5.78125 L -1.265625 -0.21875 L -1.765625 -0.21875 L -1.765625 5.78125 Z M -1.265625 5.78125 "/>
</symbol>
<symbol overflow="visible" id="glyph0-4">
<path style="stroke:none;" d="M 7.09375 2.75 C 7.09375 2.09375 6.796875 1.484375 6.3125 1.125 C 5.6875 0.65625 4.734375 0.4375 3.4375 0.4375 C 1.046875 0.4375 -0.234375 1.234375 -0.234375 2.75 C -0.234375 4.25 1.046875 5.0625 3.375 5.0625 C 4.75 5.0625 5.671875 4.84375 6.3125 4.375 C 6.8125 4.015625 7.09375 3.421875 7.09375 2.75 Z M 6.3125 2.75 C 6.3125 3.703125 5.34375 4.171875 3.453125 4.171875 C 1.4375 4.171875 0.5 3.703125 0.5 2.734375 C 0.5 1.796875 1.484375 1.328125 3.421875 1.328125 C 5.359375 1.328125 6.3125 1.796875 6.3125 2.75 Z M 6.3125 2.75 "/>
</symbol>
<symbol overflow="visible" id="glyph0-5">
<path style="stroke:none;" d="M 7.09375 5.203125 L 7.09375 0.453125 L 6.21875 0.453125 L 6.21875 4.296875 C 3.8125 2.59375 2.328125 1.90625 0 1.375 L 0 2.3125 C 2.265625 2.703125 4.21875 3.59375 6.34375 5.203125 Z M 7.09375 5.203125 "/>
</symbol>
<symbol overflow="visible" id="glyph0-6">
<path style="stroke:none;" d="M 0.875 5.0625 L 0.875 1.328125 C 1.453125 1.421875 1.8125 1.734375 2.328125 2.609375 L 2.875 3.609375 C 3.40625 4.59375 4.140625 5.109375 5.015625 5.109375 C 5.59375 5.109375 6.15625 4.875 6.53125 4.453125 C 6.90625 4.03125 7.09375 3.515625 7.09375 2.84375 C 7.09375 1.9375 6.765625 1.265625 6.171875 0.875 C 5.796875 0.625 5.34375 0.515625 4.625 0.5 L 4.625 1.375 C 5.109375 1.40625 5.40625 1.46875 5.625 1.59375 C 6.0625 1.8125 6.3125 2.28125 6.3125 2.8125 C 6.3125 3.609375 5.75 4.203125 4.984375 4.203125 C 4.4375 4.203125 3.953125 3.875 3.59375 3.25 L 3.0625 2.328125 C 2.234375 0.84375 1.5625 0.421875 0 0.34375 L 0 5.0625 Z M 0.875 5.0625 "/>
</symbol>
<symbol overflow="visible" id="glyph0-7">
<path style="stroke:none;" d="M 5.234375 4.984375 C 6.40625 4.8125 7.09375 4.046875 7.09375 2.96875 C 7.09375 2.1875 6.703125 1.484375 6.078125 1.0625 C 5.390625 0.625 4.515625 0.4375 3.234375 0.4375 C 2.046875 0.4375 1.28125 0.609375 0.65625 1.03125 C 0.078125 1.40625 -0.234375 2.03125 -0.234375 2.8125 C -0.234375 4.15625 0.765625 5.125 2.15625 5.125 C 3.484375 5.125 4.40625 4.234375 4.40625 2.953125 C 4.40625 2.265625 4.140625 1.703125 3.625 1.328125 C 5.34375 1.34375 6.3125 1.90625 6.3125 2.90625 C 6.3125 3.53125 5.921875 3.953125 5.234375 4.09375 Z M 3.625 2.84375 C 3.625 3.703125 3.046875 4.234375 2.09375 4.234375 C 1.203125 4.234375 0.546875 3.625 0.546875 2.8125 C 0.546875 2 1.234375 1.375 2.140625 1.375 C 3.015625 1.375 3.625 1.984375 3.625 2.84375 Z M 3.625 2.84375 "/>
</symbol>
<symbol overflow="visible" id="glyph0-8">
<path style="stroke:none;" d="M 1.625 0.53125 C 0.453125 0.703125 -0.234375 1.453125 -0.234375 2.546875 C -0.234375 3.3125 0.15625 4.03125 0.78125 4.4375 C 1.46875 4.890625 2.34375 5.09375 3.625 5.09375 C 4.8125 5.09375 5.578125 4.90625 6.203125 4.484375 C 6.78125 4.09375 7.09375 3.484375 7.09375 2.703125 C 7.09375 1.34375 6.09375 0.375 4.703125 0.375 C 3.375 0.375 2.453125 1.28125 2.453125 2.5625 C 2.453125 3.234375 2.6875 3.71875 3.234375 4.1875 C 1.515625 4.171875 0.546875 3.609375 0.546875 2.59375 C 0.546875 1.984375 0.9375 1.546875 1.625 1.40625 Z M 6.3125 2.6875 C 6.3125 3.515625 5.640625 4.125 4.71875 4.125 C 3.84375 4.125 3.234375 3.515625 3.234375 2.65625 C 3.234375 1.8125 3.8125 1.28125 4.765625 1.28125 C 5.671875 1.28125 6.3125 1.875 6.3125 2.6875 Z M 6.3125 2.6875 "/>
</symbol>
<symbol overflow="visible" id="glyph0-9">
<path style="stroke:none;" d="M 3.734375 3.90625 C 4.171875 4.640625 4.53125 4.875 5.203125 4.875 C 6.3125 4.875 7.09375 4.015625 7.09375 2.75 C 7.09375 1.5 6.3125 0.625 5.203125 0.625 C 4.546875 0.625 4.1875 0.859375 3.734375 1.578125 C 3.34375 0.765625 2.75 0.375 1.96875 0.375 C 0.671875 0.375 -0.234375 1.34375 -0.234375 2.75 C -0.234375 4.15625 0.671875 5.125 1.953125 5.125 C 2.75 5.125 3.34375 4.734375 3.734375 3.90625 Z M 6.3125 2.75 C 6.3125 3.5 5.875 3.984375 5.1875 3.984375 C 4.515625 3.984375 4.078125 3.484375 4.078125 2.75 C 4.078125 2.015625 4.515625 1.515625 5.1875 1.515625 C 5.875 1.515625 6.3125 2.015625 6.3125 2.75 Z M 3.34375 2.75 C 3.34375 3.625 2.78125 4.234375 1.953125 4.234375 C 1.109375 4.234375 0.546875 3.625 0.546875 2.734375 C 0.546875 1.875 1.125 1.265625 1.953125 1.265625 C 2.78125 1.265625 3.34375 1.875 3.34375 2.75 Z M 3.34375 2.75 "/>
</symbol>
<symbol overflow="visible" id="glyph0-10">
<path style="stroke:none;" d="M 5.046875 2.59375 L 0 2.59375 L 0 3.46875 L 7.09375 3.46875 L 7.09375 2.890625 C 6 2.578125 5.84375 2.375 5.6875 1.015625 L 5.046875 1.015625 Z M 5.046875 2.59375 "/>
</symbol>
<symbol overflow="visible" id="glyph0-11">
<path style="stroke:none;" d="M 7.09375 4.765625 L 7.09375 1.09375 L 3.234375 0.5625 L 3.234375 1.375 C 3.71875 1.796875 3.890625 2.125 3.890625 2.6875 C 3.890625 3.625 3.234375 4.234375 2.1875 4.234375 C 1.171875 4.234375 0.546875 3.640625 0.546875 2.6875 C 0.546875 1.90625 0.9375 1.4375 1.734375 1.234375 L 1.734375 0.34375 C 1.15625 0.46875 0.875 0.5625 0.625 0.78125 C 0.078125 1.1875 -0.234375 1.90625 -0.234375 2.703125 C -0.234375 4.125 0.8125 5.125 2.3125 5.125 C 3.703125 5.125 4.671875 4.203125 4.671875 2.84375 C 4.671875 2.34375 4.546875 1.9375 4.234375 1.53125 L 6.21875 1.8125 L 6.21875 4.765625 Z M 7.09375 4.765625 "/>
</symbol>
<symbol overflow="visible" id="glyph0-12">
<path style="stroke:none;" d="M 3.25 2.203125 L 3.25 2.3125 L 3.265625 2.6875 C 3.265625 3.65625 2.8125 4.15625 1.96875 4.15625 C 1.078125 4.15625 0.546875 3.609375 0.546875 2.6875 C 0.546875 1.734375 1.03125 1.265625 2.0625 1.203125 L 2.0625 0.3125 C 1.484375 0.359375 1.125 0.453125 0.796875 0.625 C 0.125 0.984375 -0.234375 1.6875 -0.234375 2.65625 C -0.234375 4.125 0.640625 5.0625 1.984375 5.0625 C 2.875 5.0625 3.375 4.703125 3.671875 3.859375 C 3.9375 4.515625 4.4375 4.84375 5.140625 4.84375 C 6.359375 4.84375 7.09375 4.046875 7.09375 2.6875 C 7.09375 1.265625 6.3125 0.5 4.796875 0.46875 L 4.796875 1.34375 C 5.234375 1.359375 5.46875 1.40625 5.6875 1.515625 C 6.078125 1.703125 6.3125 2.15625 6.3125 2.703125 C 6.3125 3.484375 5.859375 3.953125 5.109375 3.953125 C 4.609375 3.953125 4.3125 3.765625 4.15625 3.375 C 4.046875 3.140625 4.015625 2.828125 4 2.203125 Z M 3.25 2.203125 "/>
</symbol>
<symbol overflow="visible" id="glyph0-13">
<path style="stroke:none;" d="M 1.703125 3.265625 L 0 3.265625 L 0 4.15625 L 1.703125 4.15625 L 1.703125 5.203125 L 2.484375 5.203125 L 2.484375 4.15625 L 7.09375 4.15625 L 7.09375 3.5 L 2.625 0.28125 L 1.703125 0.28125 Z M 2.484375 3.265625 L 2.484375 1.046875 L 5.59375 3.265625 Z M 2.484375 3.265625 "/>
</symbol>
<symbol overflow="visible" id="glyph1-0">
<path style="stroke:none;" d=""/>
</symbol>
<symbol overflow="visible" id="glyph1-1">
<path style="stroke:none;" d="M 4.8125 0 L 4.8125 -5.234375 L 3.984375 -5.234375 L 3.984375 -2.265625 C 3.984375 -1.203125 3.4375 -0.5 2.5625 -0.5 C 1.90625 -0.5 1.484375 -0.90625 1.484375 -1.53125 L 1.484375 -5.234375 L 0.65625 -5.234375 L 0.65625 -1.203125 C 0.65625 -0.328125 1.296875 0.234375 2.3125 0.234375 C 3.09375 0.234375 3.578125 -0.046875 4.0625 -0.734375 L 4.0625 0 Z M 4.8125 0 "/>
</symbol>
<symbol overflow="visible" id="glyph1-2">
<path style="stroke:none;" d="M 0.546875 2.1875 L 1.375 2.1875 L 1.375 -0.546875 C 1.8125 -0.015625 2.3125 0.234375 2.984375 0.234375 C 4.34375 0.234375 5.234375 -0.859375 5.234375 -2.53125 C 5.234375 -4.296875 4.375 -5.390625 2.984375 -5.390625 C 2.265625 -5.390625 1.703125 -5.0625 1.3125 -4.453125 L 1.3125 -5.234375 L 0.546875 -5.234375 Z M 2.84375 -4.609375 C 3.765625 -4.609375 4.359375 -3.796875 4.359375 -2.546875 C 4.359375 -1.359375 3.75 -0.546875 2.84375 -0.546875 C 1.953125 -0.546875 1.375 -1.34375 1.375 -2.578125 C 1.375 -3.8125 1.953125 -4.609375 2.84375 -4.609375 Z M 2.84375 -4.609375 "/>
</symbol>
<symbol overflow="visible" id="glyph1-3">
<path style="stroke:none;" d="M 5.78125 1.265625 L -0.21875 1.265625 L -0.21875 1.765625 L 5.78125 1.765625 Z M 5.78125 1.265625 "/>
</symbol>
<symbol overflow="visible" id="glyph1-4">
<path style="stroke:none;" d="M 2.75 -7.09375 C 2.09375 -7.09375 1.484375 -6.796875 1.125 -6.3125 C 0.65625 -5.6875 0.4375 -4.734375 0.4375 -3.4375 C 0.4375 -1.046875 1.234375 0.234375 2.75 0.234375 C 4.25 0.234375 5.0625 -1.046875 5.0625 -3.375 C 5.0625 -4.75 4.84375 -5.671875 4.375 -6.3125 C 4.015625 -6.8125 3.421875 -7.09375 2.75 -7.09375 Z M 2.75 -6.3125 C 3.703125 -6.3125 4.171875 -5.34375 4.171875 -3.453125 C 4.171875 -1.4375 3.703125 -0.5 2.734375 -0.5 C 1.796875 -0.5 1.328125 -1.484375 1.328125 -3.421875 C 1.328125 -5.359375 1.796875 -6.3125 2.75 -6.3125 Z M 2.75 -6.3125 "/>
</symbol>
<symbol overflow="visible" id="glyph1-5">
<path style="stroke:none;" d="M 5.203125 -7.09375 L 0.453125 -7.09375 L 0.453125 -6.21875 L 4.296875 -6.21875 C 2.59375 -3.8125 1.90625 -2.328125 1.375 0 L 2.3125 0 C 2.703125 -2.265625 3.59375 -4.21875 5.203125 -6.34375 Z M 5.203125 -7.09375 "/>
</symbol>
<symbol overflow="visible" id="glyph1-6">
<path style="stroke:none;" d="M 5.0625 -0.875 L 1.328125 -0.875 C 1.421875 -1.453125 1.734375 -1.8125 2.609375 -2.328125 L 3.609375 -2.875 C 4.59375 -3.40625 5.109375 -4.140625 5.109375 -5.015625 C 5.109375 -5.59375 4.875 -6.15625 4.453125 -6.53125 C 4.03125 -6.90625 3.515625 -7.09375 2.84375 -7.09375 C 1.9375 -7.09375 1.265625 -6.765625 0.875 -6.171875 C 0.625 -5.796875 0.515625 -5.34375 0.5 -4.625 L 1.375 -4.625 C 1.40625 -5.109375 1.46875 -5.40625 1.59375 -5.625 C 1.8125 -6.0625 2.28125 -6.3125 2.8125 -6.3125 C 3.609375 -6.3125 4.203125 -5.75 4.203125 -4.984375 C 4.203125 -4.4375 3.875 -3.953125 3.25 -3.59375 L 2.328125 -3.0625 C 0.84375 -2.234375 0.421875 -1.5625 0.34375 0 L 5.0625 0 Z M 5.0625 -0.875 "/>
</symbol>
<symbol overflow="visible" id="glyph1-7">
<path style="stroke:none;" d="M 4.984375 -5.234375 C 4.8125 -6.40625 4.046875 -7.09375 2.96875 -7.09375 C 2.1875 -7.09375 1.484375 -6.703125 1.0625 -6.078125 C 0.625 -5.390625 0.4375 -4.515625 0.4375 -3.234375 C 0.4375 -2.046875 0.609375 -1.28125 1.03125 -0.65625 C 1.40625 -0.078125 2.03125 0.234375 2.8125 0.234375 C 4.15625 0.234375 5.125 -0.765625 5.125 -2.15625 C 5.125 -3.484375 4.234375 -4.40625 2.953125 -4.40625 C 2.265625 -4.40625 1.703125 -4.140625 1.328125 -3.625 C 1.34375 -5.34375 1.90625 -6.3125 2.90625 -6.3125 C 3.53125 -6.3125 3.953125 -5.921875 4.09375 -5.234375 Z M 2.84375 -3.625 C 3.703125 -3.625 4.234375 -3.046875 4.234375 -2.09375 C 4.234375 -1.203125 3.625 -0.546875 2.8125 -0.546875 C 2 -0.546875 1.375 -1.234375 1.375 -2.140625 C 1.375 -3.015625 1.984375 -3.625 2.84375 -3.625 Z M 2.84375 -3.625 "/>
</symbol>
<symbol overflow="visible" id="glyph1-8">
<path style="stroke:none;" d="M 0.53125 -1.625 C 0.703125 -0.453125 1.453125 0.234375 2.546875 0.234375 C 3.3125 0.234375 4.03125 -0.15625 4.4375 -0.78125 C 4.890625 -1.46875 5.09375 -2.34375 5.09375 -3.625 C 5.09375 -4.8125 4.90625 -5.578125 4.484375 -6.203125 C 4.09375 -6.78125 3.484375 -7.09375 2.703125 -7.09375 C 1.34375 -7.09375 0.375 -6.09375 0.375 -4.703125 C 0.375 -3.375 1.28125 -2.453125 2.5625 -2.453125 C 3.234375 -2.453125 3.71875 -2.6875 4.1875 -3.234375 C 4.171875 -1.515625 3.609375 -0.546875 2.59375 -0.546875 C 1.984375 -0.546875 1.546875 -0.9375 1.40625 -1.625 Z M 2.6875 -6.3125 C 3.515625 -6.3125 4.125 -5.640625 4.125 -4.71875 C 4.125 -3.84375 3.515625 -3.234375 2.65625 -3.234375 C 1.8125 -3.234375 1.28125 -3.8125 1.28125 -4.765625 C 1.28125 -5.671875 1.875 -6.3125 2.6875 -6.3125 Z M 2.6875 -6.3125 "/>
</symbol>
<symbol overflow="visible" id="glyph1-9">
<path style="stroke:none;" d="M 3.90625 -3.734375 C 4.640625 -4.171875 4.875 -4.53125 4.875 -5.203125 C 4.875 -6.3125 4.015625 -7.09375 2.75 -7.09375 C 1.5 -7.09375 0.625 -6.3125 0.625 -5.203125 C 0.625 -4.546875 0.859375 -4.1875 1.578125 -3.734375 C 0.765625 -3.34375 0.375 -2.75 0.375 -1.96875 C 0.375 -0.671875 1.34375 0.234375 2.75 0.234375 C 4.15625 0.234375 5.125 -0.671875 5.125 -1.953125 C 5.125 -2.75 4.734375 -3.34375 3.90625 -3.734375 Z M 2.75 -6.3125 C 3.5 -6.3125 3.984375 -5.875 3.984375 -5.1875 C 3.984375 -4.515625 3.484375 -4.078125 2.75 -4.078125 C 2.015625 -4.078125 1.515625 -4.515625 1.515625 -5.1875 C 1.515625 -5.875 2.015625 -6.3125 2.75 -6.3125 Z M 2.75 -3.34375 C 3.625 -3.34375 4.234375 -2.78125 4.234375 -1.953125 C 4.234375 -1.109375 3.625 -0.546875 2.734375 -0.546875 C 1.875 -0.546875 1.265625 -1.125 1.265625 -1.953125 C 1.265625 -2.78125 1.875 -3.34375 2.75 -3.34375 Z M 2.75 -3.34375 "/>
</symbol>
<symbol overflow="visible" id="glyph1-10">
<path style="stroke:none;" d="M 2.59375 -5.046875 L 2.59375 0 L 3.46875 0 L 3.46875 -7.09375 L 2.890625 -7.09375 C 2.578125 -6 2.375 -5.84375 1.015625 -5.6875 L 1.015625 -5.046875 Z M 2.59375 -5.046875 "/>
</symbol>
<symbol overflow="visible" id="glyph1-11">
<path style="stroke:none;" d="M 4.765625 -7.09375 L 1.09375 -7.09375 L 0.5625 -3.234375 L 1.375 -3.234375 C 1.796875 -3.71875 2.125 -3.890625 2.6875 -3.890625 C 3.625 -3.890625 4.234375 -3.234375 4.234375 -2.1875 C 4.234375 -1.171875 3.640625 -0.546875 2.6875 -0.546875 C 1.90625 -0.546875 1.4375 -0.9375 1.234375 -1.734375 L 0.34375 -1.734375 C 0.46875 -1.15625 0.5625 -0.875 0.78125 -0.625 C 1.1875 -0.078125 1.90625 0.234375 2.703125 0.234375 C 4.125 0.234375 5.125 -0.8125 5.125 -2.3125 C 5.125 -3.703125 4.203125 -4.671875 2.84375 -4.671875 C 2.34375 -4.671875 1.9375 -4.546875 1.53125 -4.234375 L 1.8125 -6.21875 L 4.765625 -6.21875 Z M 4.765625 -7.09375 "/>
</symbol>
<symbol overflow="visible" id="glyph1-12">
<path style="stroke:none;" d="M 2.203125 -3.25 L 2.3125 -3.25 L 2.6875 -3.265625 C 3.65625 -3.265625 4.15625 -2.8125 4.15625 -1.96875 C 4.15625 -1.078125 3.609375 -0.546875 2.6875 -0.546875 C 1.734375 -0.546875 1.265625 -1.03125 1.203125 -2.0625 L 0.3125 -2.0625 C 0.359375 -1.484375 0.453125 -1.125 0.625 -0.796875 C 0.984375 -0.125 1.6875 0.234375 2.65625 0.234375 C 4.125 0.234375 5.0625 -0.640625 5.0625 -1.984375 C 5.0625 -2.875 4.703125 -3.375 3.859375 -3.671875 C 4.515625 -3.9375 4.84375 -4.4375 4.84375 -5.140625 C 4.84375 -6.359375 4.046875 -7.09375 2.6875 -7.09375 C 1.265625 -7.09375 0.5 -6.3125 0.46875 -4.796875 L 1.34375 -4.796875 C 1.359375 -5.234375 1.40625 -5.46875 1.515625 -5.6875 C 1.703125 -6.078125 2.15625 -6.3125 2.703125 -6.3125 C 3.484375 -6.3125 3.953125 -5.859375 3.953125 -5.109375 C 3.953125 -4.609375 3.765625 -4.3125 3.375 -4.15625 C 3.140625 -4.046875 2.828125 -4.015625 2.203125 -4 Z M 2.203125 -3.25 "/>
</symbol>
<symbol overflow="visible" id="glyph1-13">
<path style="stroke:none;" d="M 3.265625 -1.703125 L 3.265625 0 L 4.15625 0 L 4.15625 -1.703125 L 5.203125 -1.703125 L 5.203125 -2.484375 L 4.15625 -2.484375 L 4.15625 -7.09375 L 3.5 -7.09375 L 0.28125 -2.625 L 0.28125 -1.703125 Z M 3.265625 -2.484375 L 1.046875 -2.484375 L 3.265625 -5.59375 Z M 3.265625 -2.484375 "/>
</symbol>
</g>
</defs>
<g id="surface126">
<rect x="0" y="0" width="504" height="504" style="fill:rgb(100%,100%,100%);fill-opacity:1;stroke:none;"/>
<path style="fill:none;stroke-width:0.75;stroke-linecap:round;stroke-linejoin:round;stroke:rgb(0%,0%,0%);stroke-opacity:1;stroke-miterlimit:10;" d="M 108.746094 55 L 108.746094 32.53125 L 144.574219 32.53125 L 144.574219 55 "/>
<path style="fill:none;stroke-width:0.75;stroke-linecap:round;stroke-linejoin:round;stroke:rgb(0%,0%,0%);stroke-opacity:1;stroke-miterlimit:10;" d="M 72.914062 55 L 72.914062 31.464844 L 126.660156 31.464844 L 126.660156 32.53125 "/>
<path style="fill:none;stroke-width:0.75;stroke-linecap:round;stroke-linejoin:round;stroke:rgb(0%,0%,0%);stroke-opacity:1;stroke-miterlimit:10;" d="M 287.894531 55 L 287.894531 31.011719 L 323.726562 31.011719 L 323.726562 55 "/>
<path style="fill:none;stroke-width:0.75;stroke-linecap:round;stroke-linejoin:round;stroke:rgb(0%,0%,0%);stroke-opacity:1;stroke-miterlimit:10;" d="M 359.554688 55 L 359.554688 29.183594 L 395.386719 29.183594 L 395.386719 55 "/>
<path style="fill:none;stroke-width:0.75;stroke-linecap:round;stroke-linejoin:round;stroke:rgb(0%,0%,0%);stroke-opacity:1;stroke-miterlimit:10;" d="M 180.40625 55 L 180.40625 27.605469 L 216.234375 27.605469 L 216.234375 55 "/>
<path style="fill:none;stroke-width:0.75;stroke-linecap:round;stroke-linejoin:round;stroke:rgb(0%,0%,0%);stroke-opacity:1;stroke-miterlimit:10;" d="M 99.789062 31.464844 L 99.789062 24.628906 L 198.320312 24.628906 L 198.320312 27.605469 "/>
<path style="fill:none;stroke-width:0.75;stroke-linecap:round;stroke-linejoin:round;stroke:rgb(0%,0%,0%);stroke-opacity:1;stroke-miterlimit:10;" d="M 305.808594 31.011719 L 305.808594 22.097656 L 377.46875 22.097656 L 377.46875 29.183594 "/>
<path style="fill:none;stroke-width:0.75;stroke-linecap:round;stroke-linejoin:round;stroke:rgb(0%,0%,0%);stroke-opacity:1;stroke-miterlimit:10;" d="M 252.066406 55 L 252.066406 14.175781 L 341.640625 14.175781 L 341.640625 22.097656 "/>
<path style="fill:none;stroke-width:0.75;stroke-linecap:round;stroke-linejoin:round;stroke:rgb(0%,0%,0%);stroke-opacity:1;stroke-miterlimit:10;" d="M 149.054688 24.628906 L 149.054688 2.617188 L 296.851562 2.617188 L 296.851562 14.175781 "/>
<path style="fill:none;stroke-width:0.75;stroke-linecap:round;stroke-linejoin:round;stroke:rgb(0%,0%,0%);stroke-opacity:1;stroke-miterlimit:10;" d="M 55 113.199219 L 32.53125 113.199219 L 32.53125 152 L 55 152 "/>
<path style="fill:none;stroke-width:0.75;stroke-linecap:round;stroke-linejoin:round;stroke:rgb(0%,0%,0%);stroke-opacity:1;stroke-miterlimit:10;" d="M 55 74.398438 L 31.464844 74.398438 L 31.464844 132.601562 L 32.53125 132.601562 "/>
<path style="fill:none;stroke-width:0.75;stroke-linecap:round;stroke-linejoin:round;stroke:rgb(0%,0%,0%);stroke-opacity:1;stroke-miterlimit:10;" d="M 55 307.199219 L 31.011719 307.199219 L 31.011719 346 L 55 346 "/>
<path style="fill:none;stroke-width:0.75;stroke-linecap:round;stroke-linejoin:round;stroke:rgb(0%,0%,0%);stroke-opacity:1;stroke-miterlimit:10;" d="M 55 384.800781 L 29.183594 384.800781 L 29.183594 423.601562 L 55 423.601562 "/>
<path style="fill:none;stroke-width:0.75;stroke-linecap:round;stroke-linejoin:round;stroke:rgb(0%,0%,0%);stroke-opacity:1;stroke-miterlimit:10;" d="M 55 190.800781 L 27.605469 190.800781 L 27.605469 229.601562 L 55 229.601562 "/>
<path style="fill:none;stroke-width:0.75;stroke-linecap:round;stroke-linejoin:round;stroke:rgb(0%,0%,0%);stroke-opacity:1;stroke-miterlimit:10;" d="M 31.464844 103.5 L 24.628906 103.5 L 24.628906 210.199219 L 27.605469 210.199219 "/>
<path style="fill:none;stroke-width:0.75;stroke-linecap:round;stroke-linejoin:round;stroke:rgb(0%,0%,0%);stroke-opacity:1;stroke-miterlimit:10;" d="M 31.011719 326.601562 L 22.097656 326.601562 L 22.097656 404.199219 L 29.183594 404.199219 "/>
<path style="fill:none;stroke-width:0.75;stroke-linecap:round;stroke-linejoin:round;stroke:rgb(0%,0%,0%);stroke-opacity:1;stroke-miterlimit:10;" d="M 55 268.398438 L 14.175781 268.398438 L 14.175781 365.398438 L 22.097656 365.398438 "/>
<path style="fill:none;stroke-width:0.75;stroke-linecap:round;stroke-linejoin:round;stroke:rgb(0%,0%,0%);stroke-opacity:1;stroke-miterlimit:10;" d="M 24.628906 156.851562 L 2.617188 156.851562 L 2.617188 316.898438 L 14.175781 316.898438 "/>
<path style="fill-rule:nonzero;fill:rgb(27.058824%,45.882353%,70.588235%);fill-opacity:1;stroke-width:0.75;stroke-linecap:round;stroke-linejoin:round;stroke:rgb(60%,60%,60%);stroke-opacity:1;stroke-miterlimit:10;" d="M 55 93.800781 L 90.828125 93.800781 L 90.828125 55 L 55 55 Z M 55 93.800781 "/>
<path style="fill-rule:nonzero;fill:rgb(95.686275%,98.431373%,82.352941%);fill-opacity:1;stroke-width:0.75;stroke-linecap:round;stroke-linejoin:round;stroke:rgb(60%,60%,60%);stroke-opacity:1;stroke-miterlimit:10;" d="M 55 132.601562 L 90.828125 132.601562 L 90.828125 93.800781 L 55 93.800781 Z M 55 132.601562 "/>
<path style="fill-rule:nonzero;fill:rgb(95.686275%,98.431373%,82.352941%);fill-opacity:1;stroke-width:0.75;stroke-linecap:round;stroke-linejoin:round;stroke:rgb(60%,60%,60%);stroke-opacity:1;stroke-miterlimit:10;" d="M 55 171.398438 L 90.828125 171.398438 L 90.828125 132.597656 L 55 132.597656 Z M 55 171.398438 "/>
<path style="fill-rule:nonzero;fill:rgb(99.607843%,97.254902%,70.980392%);fill-opacity:1;stroke-width:0.75;stroke-linecap:round;stroke-linejoin:round;stroke:rgb(60%,60%,60%);stroke-opacity:1;stroke-miterlimit:10;" d="M 55 210.199219 L 90.828125 210.199219 L 90.828125 171.398438 L 55 171.398438 Z M 55 210.199219 "/>
<path style="fill-rule:nonzero;fill:rgb(97.254902%,98.823529%,79.607843%);fill-opacity:1;stroke-width:0.75;stroke-linecap:round;stroke-linejoin:round;stroke:rgb(60%,60%,60%);stroke-opacity:1;stroke-miterlimit:10;" d="M 55 249 L 90.828125 249 L 90.828125 210.199219 L 55 210.199219 Z M 55 249 "/>
<path style="fill-rule:nonzero;fill:rgb(98.823529%,65.882353%,41.960784%);fill-opacity:1;stroke-width:0.75;stroke-linecap:round;stroke-linejoin:round;stroke:rgb(60%,60%,60%);stroke-opacity:1;stroke-miterlimit:10;" d="M 55 287.800781 L 90.828125 287.800781 L 90.828125 249 L 55 249 Z M 55 287.800781 "/>
<path style="fill-rule:nonzero;fill:rgb(97.254902%,51.764706%,32.941176%);fill-opacity:1;stroke-width:0.75;stroke-linecap:round;stroke-linejoin:round;stroke:rgb(60%,60%,60%);stroke-opacity:1;stroke-miterlimit:10;" d="M 55 326.601562 L 90.828125 326.601562 L 90.828125 287.800781 L 55 287.800781 Z M 55 326.601562 "/>
<path style="fill-rule:nonzero;fill:rgb(98.823529%,67.843137%,43.137255%);fill-opacity:1;stroke-width:0.75;stroke-linecap:round;stroke-linejoin:round;stroke:rgb(60%,60%,60%);stroke-opacity:1;stroke-miterlimit:10;" d="M 55 365.398438 L 90.828125 365.398438 L 90.828125 326.597656 L 55 326.597656 Z M 55 365.398438 "/>
<path style="fill-rule:nonzero;fill:rgb(98.823529%,60%,38.039216%);fill-opacity:1;stroke-width:0.75;stroke-linecap:round;stroke-linejoin:round;stroke:rgb(60%,60%,60%);stroke-opacity:1;stroke-miterlimit:10;" d="M 55 404.199219 L 90.828125 404.199219 L 90.828125 365.398438 L 55 365.398438 Z M 55 404.199219 "/>
<path style="fill-rule:nonzero;fill:rgb(96.470588%,49.411765%,31.764706%);fill-opacity:1;stroke-width:0.75;stroke-linecap:round;stroke-linejoin:round;stroke:rgb(60%,60%,60%);stroke-opacity:1;stroke-miterlimit:10;" d="M 55 443 L 90.828125 443 L 90.828125 404.199219 L 55 404.199219 Z M 55 443 "/>
<path style="fill-rule:nonzero;fill:rgb(95.686275%,98.431373%,82.352941%);fill-opacity:1;stroke-width:0.75;stroke-linecap:round;stroke-linejoin:round;stroke:rgb(60%,60%,60%);stroke-opacity:1;stroke-miterlimit:10;" d="M 90.828125 93.800781 L 126.65625 93.800781 L 126.65625 55 L 90.828125 55 Z M 90.828125 93.800781 "/>
<path style="fill-rule:nonzero;fill:rgb(27.058824%,45.882353%,70.588235%);fill-opacity:1;stroke-width:0.75;stroke-linecap:round;stroke-linejoin:round;stroke:rgb(60%,60%,60%);stroke-opacity:1;stroke-miterlimit:10;" d="M 90.828125 132.601562 L 126.65625 132.601562 L 126.65625 93.800781 L 90.828125 93.800781 Z M 90.828125 132.601562 "/>
<path style="fill-rule:nonzero;fill:rgb(94.117647%,97.647059%,84.705882%);fill-opacity:1;stroke-width:0.75;stroke-linecap:round;stroke-linejoin:round;stroke:rgb(60%,60%,60%);stroke-opacity:1;stroke-miterlimit:10;" d="M 90.828125 171.398438 L 126.65625 171.398438 L 126.65625 132.597656 L 90.828125 132.597656 Z M 90.828125 171.398438 "/>
<path style="fill-rule:nonzero;fill:rgb(99.607843%,98.823529%,72.941176%);fill-opacity:1;stroke-width:0.75;stroke-linecap:round;stroke-linejoin:round;stroke:rgb(60%,60%,60%);stroke-opacity:1;stroke-miterlimit:10;" d="M 90.828125 210.199219 L 126.65625 210.199219 L 126.65625 171.398438 L 90.828125 171.398438 Z M 90.828125 210.199219 "/>
<path style="fill-rule:nonzero;fill:rgb(99.607843%,94.117647%,66.27451%);fill-opacity:1;stroke-width:0.75;stroke-linecap:round;stroke-linejoin:round;stroke:rgb(60%,60%,60%);stroke-opacity:1;stroke-miterlimit:10;" d="M 90.828125 249 L 126.65625 249 L 126.65625 210.199219 L 90.828125 210.199219 Z M 90.828125 249 "/>
<path style="fill-rule:nonzero;fill:rgb(95.686275%,47.45098%,30.588235%);fill-opacity:1;stroke-width:0.75;stroke-linecap:round;stroke-linejoin:round;stroke:rgb(60%,60%,60%);stroke-opacity:1;stroke-miterlimit:10;" d="M 90.828125 287.800781 L 126.65625 287.800781 L 126.65625 249 L 90.828125 249 Z M 90.828125 287.800781 "/>
<path style="fill-rule:nonzero;fill:rgb(85.882353%,23.137255%,17.647059%);fill-opacity:1;stroke-width:0.75;stroke-linecap:round;stroke-linejoin:round;stroke:rgb(60%,60%,60%);stroke-opacity:1;stroke-miterlimit:10;" d="M 90.828125 326.601562 L 126.65625 326.601562 L 126.65625 287.800781 L 90.828125 287.800781 Z M 90.828125 326.601562 "/>
<path style="fill-rule:nonzero;fill:rgb(95.686275%,47.45098%,30.588235%);fill-opacity:1;stroke-width:0.75;stroke-linecap:round;stroke-linejoin:round;stroke:rgb(60%,60%,60%);stroke-opacity:1;stroke-miterlimit:10;" d="M 90.828125 365.398438 L 126.65625 365.398438 L 126.65625 326.597656 L 90.828125 326.597656 Z M 90.828125 365.398438 "/>
<path style="fill-rule:nonzero;fill:rgb(94.509804%,45.098039%,29.411765%);fill-opacity:1;stroke-width:0.75;stroke-linecap:round;stroke-linejoin:round;stroke:rgb(60%,60%,60%);stroke-opacity:1;stroke-miterlimit:10;" d="M 90.828125 404.199219 L 126.65625 404.199219 L 126.65625 365.398438 L 90.828125 365.398438 Z M 90.828125 404.199219 "/>
<path style="fill-rule:nonzero;fill:rgb(87.45098%,27.45098%,20%);fill-opacity:1;stroke-width:0.75;stroke-linecap:round;stroke-linejoin:round;stroke:rgb(60%,60%,60%);stroke-opacity:1;stroke-miterlimit:10;" d="M 90.828125 443 L 126.65625 443 L 126.65625 404.199219 L 90.828125 404.199219 Z M 90.828125 443 "/>
<path style="fill-rule:nonzero;fill:rgb(95.686275%,98.431373%,82.352941%);fill-opacity:1;stroke-width:0.75;stroke-linecap:round;stroke-linejoin:round;stroke:rgb(60%,60%,60%);stroke-opacity:1;stroke-miterlimit:10;" d="M 126.660156 93.800781 L 162.488281 93.800781 L 162.488281 55 L 126.660156 55 Z M 126.660156 93.800781 "/>
<path style="fill-rule:nonzero;fill:rgb(94.117647%,97.647059%,84.705882%);fill-opacity:1;stroke-width:0.75;stroke-linecap:round;stroke-linejoin:round;stroke:rgb(60%,60%,60%);stroke-opacity:1;stroke-miterlimit:10;" d="M 126.660156 132.601562 L 162.488281 132.601562 L 162.488281 93.800781 L 126.660156 93.800781 Z M 126.660156 132.601562 "/>
<path style="fill-rule:nonzero;fill:rgb(27.058824%,45.882353%,70.588235%);fill-opacity:1;stroke-width:0.75;stroke-linecap:round;stroke-linejoin:round;stroke:rgb(60%,60%,60%);stroke-opacity:1;stroke-miterlimit:10;" d="M 126.660156 171.398438 L 162.488281 171.398438 L 162.488281 132.597656 L 126.660156 132.597656 Z M 126.660156 171.398438 "/>
<path style="fill-rule:nonzero;fill:rgb(96.470588%,98.431373%,80.784314%);fill-opacity:1;stroke-width:0.75;stroke-linecap:round;stroke-linejoin:round;stroke:rgb(60%,60%,60%);stroke-opacity:1;stroke-miterlimit:10;" d="M 126.660156 210.199219 L 162.488281 210.199219 L 162.488281 171.398438 L 126.660156 171.398438 Z M 126.660156 210.199219 "/>
<path style="fill-rule:nonzero;fill:rgb(99.607843%,99.607843%,74.117647%);fill-opacity:1;stroke-width:0.75;stroke-linecap:round;stroke-linejoin:round;stroke:rgb(60%,60%,60%);stroke-opacity:1;stroke-miterlimit:10;" d="M 126.660156 249 L 162.488281 249 L 162.488281 210.199219 L 126.660156 210.199219 Z M 126.660156 249 "/>
<path style="fill-rule:nonzero;fill:rgb(98.823529%,61.960784%,39.215686%);fill-opacity:1;stroke-width:0.75;stroke-linecap:round;stroke-linejoin:round;stroke:rgb(60%,60%,60%);stroke-opacity:1;stroke-miterlimit:10;" d="M 126.660156 287.800781 L 162.488281 287.800781 L 162.488281 249 L 126.660156 249 Z M 126.660156 287.800781 "/>
<path style="fill-rule:nonzero;fill:rgb(88.627451%,29.803922%,21.176471%);fill-opacity:1;stroke-width:0.75;stroke-linecap:round;stroke-linejoin:round;stroke:rgb(60%,60%,60%);stroke-opacity:1;stroke-miterlimit:10;" d="M 126.660156 326.601562 L 162.488281 326.601562 L 162.488281 287.800781 L 126.660156 287.800781 Z M 126.660156 326.601562 "/>
<path style="fill-rule:nonzero;fill:rgb(97.254902%,51.764706%,32.941176%);fill-opacity:1;stroke-width:0.75;stroke-linecap:round;stroke-linejoin:round;stroke:rgb(60%,60%,60%);stroke-opacity:1;stroke-miterlimit:10;" d="M 126.660156 365.398438 L 162.488281 365.398438 L 162.488281 326.597656 L 126.660156 326.597656 Z M 126.660156 365.398438 "/>
<path style="fill-rule:nonzero;fill:rgb(94.509804%,45.098039%,29.411765%);fill-opacity:1;stroke-width:0.75;stroke-linecap:round;stroke-linejoin:round;stroke:rgb(60%,60%,60%);stroke-opacity:1;stroke-miterlimit:10;" d="M 126.660156 404.199219 L 162.488281 404.199219 L 162.488281 365.398438 L 126.660156 365.398438 Z M 126.660156 404.199219 "/>
<path style="fill-rule:nonzero;fill:rgb(89.411765%,31.764706%,22.352941%);fill-opacity:1;stroke-width:0.75;stroke-linecap:round;stroke-linejoin:round;stroke:rgb(60%,60%,60%);stroke-opacity:1;stroke-miterlimit:10;" d="M 126.660156 443 L 162.488281 443 L 162.488281 404.199219 L 126.660156 404.199219 Z M 126.660156 443 "/>
<path style="fill-rule:nonzero;fill:rgb(99.607843%,97.254902%,70.980392%);fill-opacity:1;stroke-width:0.75;stroke-linecap:round;stroke-linejoin:round;stroke:rgb(60%,60%,60%);stroke-opacity:1;stroke-miterlimit:10;" d="M 162.488281 93.800781 L 198.316406 93.800781 L 198.316406 55 L 162.488281 55 Z M 162.488281 93.800781 "/>
<path style="fill-rule:nonzero;fill:rgb(99.607843%,98.823529%,72.941176%);fill-opacity:1;stroke-width:0.75;stroke-linecap:round;stroke-linejoin:round;stroke:rgb(60%,60%,60%);stroke-opacity:1;stroke-miterlimit:10;" d="M 162.488281 132.601562 L 198.316406 132.601562 L 198.316406 93.800781 L 162.488281 93.800781 Z M 162.488281 132.601562 "/>
<path style="fill-rule:nonzero;fill:rgb(96.470588%,98.431373%,80.784314%);fill-opacity:1;stroke-width:0.75;stroke-linecap:round;stroke-linejoin:round;stroke:rgb(60%,60%,60%);stroke-opacity:1;stroke-miterlimit:10;" d="M 162.488281 171.398438 L 198.316406 171.398438 L 198.316406 132.597656 L 162.488281 132.597656 Z M 162.488281 171.398438 "/>
<path style="fill-rule:nonzero;fill:rgb(27.058824%,45.882353%,70.588235%);fill-opacity:1;stroke-width:0.75;stroke-linecap:round;stroke-linejoin:round;stroke:rgb(60%,60%,60%);stroke-opacity:1;stroke-miterlimit:10;" d="M 162.488281 210.199219 L 198.316406 210.199219 L 198.316406 171.398438 L 162.488281 171.398438 Z M 162.488281 210.199219 "/>
<path style="fill-rule:nonzero;fill:rgb(99.607843%,98.039216%,71.764706%);fill-opacity:1;stroke-width:0.75;stroke-linecap:round;stroke-linejoin:round;stroke:rgb(60%,60%,60%);stroke-opacity:1;stroke-miterlimit:10;" d="M 162.488281 249 L 198.316406 249 L 198.316406 210.199219 L 162.488281 210.199219 Z M 162.488281 249 "/>
<path style="fill-rule:nonzero;fill:rgb(98.823529%,63.921569%,40.392157%);fill-opacity:1;stroke-width:0.75;stroke-linecap:round;stroke-linejoin:round;stroke:rgb(60%,60%,60%);stroke-opacity:1;stroke-miterlimit:10;" d="M 162.488281 287.800781 L 198.316406 287.800781 L 198.316406 249 L 162.488281 249 Z M 162.488281 287.800781 "/>
<path style="fill-rule:nonzero;fill:rgb(84.313725%,18.823529%,15.294118%);fill-opacity:1;stroke-width:0.75;stroke-linecap:round;stroke-linejoin:round;stroke:rgb(60%,60%,60%);stroke-opacity:1;stroke-miterlimit:10;" d="M 162.488281 326.601562 L 198.316406 326.601562 L 198.316406 287.800781 L 162.488281 287.800781 Z M 162.488281 326.601562 "/>
<path style="fill-rule:nonzero;fill:rgb(90.980392%,36.470588%,24.705882%);fill-opacity:1;stroke-width:0.75;stroke-linecap:round;stroke-linejoin:round;stroke:rgb(60%,60%,60%);stroke-opacity:1;stroke-miterlimit:10;" d="M 162.488281 365.398438 L 198.316406 365.398438 L 198.316406 326.597656 L 162.488281 326.597656 Z M 162.488281 365.398438 "/>
<path style="fill-rule:nonzero;fill:rgb(88.627451%,29.803922%,21.176471%);fill-opacity:1;stroke-width:0.75;stroke-linecap:round;stroke-linejoin:round;stroke:rgb(60%,60%,60%);stroke-opacity:1;stroke-miterlimit:10;" d="M 162.488281 404.199219 L 198.316406 404.199219 L 198.316406 365.398438 L 162.488281 365.398438 Z M 162.488281 404.199219 "/>
<path style="fill-rule:nonzero;fill:rgb(84.313725%,18.823529%,15.294118%);fill-opacity:1;stroke-width:0.75;stroke-linecap:round;stroke-linejoin:round;stroke:rgb(60%,60%,60%);stroke-opacity:1;stroke-miterlimit:10;" d="M 162.488281 443 L 198.316406 443 L 198.316406 404.199219 L 162.488281 404.199219 Z M 162.488281 443 "/>
<path style="fill-rule:nonzero;fill:rgb(97.254902%,98.823529%,79.607843%);fill-opacity:1;stroke-width:0.75;stroke-linecap:round;stroke-linejoin:round;stroke:rgb(60%,60%,60%);stroke-opacity:1;stroke-miterlimit:10;" d="M 198.320312 93.800781 L 234.148438 93.800781 L 234.148438 55 L 198.320312 55 Z M 198.320312 93.800781 "/>
<path style="fill-rule:nonzero;fill:rgb(99.607843%,94.117647%,66.27451%);fill-opacity:1;stroke-width:0.75;stroke-linecap:round;stroke-linejoin:round;stroke:rgb(60%,60%,60%);stroke-opacity:1;stroke-miterlimit:10;" d="M 198.320312 132.601562 L 234.148438 132.601562 L 234.148438 93.800781 L 198.320312 93.800781 Z M 198.320312 132.601562 "/>
<path style="fill-rule:nonzero;fill:rgb(99.607843%,99.607843%,74.117647%);fill-opacity:1;stroke-width:0.75;stroke-linecap:round;stroke-linejoin:round;stroke:rgb(60%,60%,60%);stroke-opacity:1;stroke-miterlimit:10;" d="M 198.320312 171.398438 L 234.148438 171.398438 L 234.148438 132.597656 L 198.320312 132.597656 Z M 198.320312 171.398438 "/>
<path style="fill-rule:nonzero;fill:rgb(99.607843%,98.039216%,71.764706%);fill-opacity:1;stroke-width:0.75;stroke-linecap:round;stroke-linejoin:round;stroke:rgb(60%,60%,60%);stroke-opacity:1;stroke-miterlimit:10;" d="M 198.320312 210.199219 L 234.148438 210.199219 L 234.148438 171.398438 L 198.320312 171.398438 Z M 198.320312 210.199219 "/>
<path style="fill-rule:nonzero;fill:rgb(27.058824%,45.882353%,70.588235%);fill-opacity:1;stroke-width:0.75;stroke-linecap:round;stroke-linejoin:round;stroke:rgb(60%,60%,60%);stroke-opacity:1;stroke-miterlimit:10;" d="M 198.320312 249 L 234.148438 249 L 234.148438 210.199219 L 198.320312 210.199219 Z M 198.320312 249 "/>
<path style="fill-rule:nonzero;fill:rgb(98.823529%,61.960784%,39.215686%);fill-opacity:1;stroke-width:0.75;stroke-linecap:round;stroke-linejoin:round;stroke:rgb(60%,60%,60%);stroke-opacity:1;stroke-miterlimit:10;" d="M 198.320312 287.800781 L 234.148438 287.800781 L 234.148438 249 L 198.320312 249 Z M 198.320312 287.800781 "/>
<path style="fill-rule:nonzero;fill:rgb(93.72549%,42.745098%,28.235294%);fill-opacity:1;stroke-width:0.75;stroke-linecap:round;stroke-linejoin:round;stroke:rgb(60%,60%,60%);stroke-opacity:1;stroke-miterlimit:10;" d="M 198.320312 326.601562 L 234.148438 326.601562 L 234.148438 287.800781 L 198.320312 287.800781 Z M 198.320312 326.601562 "/>
<path style="fill-rule:nonzero;fill:rgb(98.039216%,54.117647%,34.117647%);fill-opacity:1;stroke-width:0.75;stroke-linecap:round;stroke-linejoin:round;stroke:rgb(60%,60%,60%);stroke-opacity:1;stroke-miterlimit:10;" d="M 198.320312 365.398438 L 234.148438 365.398438 L 234.148438 326.597656 L 198.320312 326.597656 Z M 198.320312 365.398438 "/>
<path style="fill-rule:nonzero;fill:rgb(92.941176%,40.784314%,27.058824%);fill-opacity:1;stroke-width:0.75;stroke-linecap:round;stroke-linejoin:round;stroke:rgb(60%,60%,60%);stroke-opacity:1;stroke-miterlimit:10;" d="M 198.320312 404.199219 L 234.148438 404.199219 L 234.148438 365.398438 L 198.320312 365.398438 Z M 198.320312 404.199219 "/>
<path style="fill-rule:nonzero;fill:rgb(90.196078%,34.117647%,23.529412%);fill-opacity:1;stroke-width:0.75;stroke-linecap:round;stroke-linejoin:round;stroke:rgb(60%,60%,60%);stroke-opacity:1;stroke-miterlimit:10;" d="M 198.320312 443 L 234.148438 443 L 234.148438 404.199219 L 198.320312 404.199219 Z M 198.320312 443 "/>
<path style="fill-rule:nonzero;fill:rgb(98.823529%,65.882353%,41.960784%);fill-opacity:1;stroke-width:0.75;stroke-linecap:round;stroke-linejoin:round;stroke:rgb(60%,60%,60%);stroke-opacity:1;stroke-miterlimit:10;" d="M 234.148438 93.800781 L 269.976562 93.800781 L 269.976562 55 L 234.148438 55 Z M 234.148438 93.800781 "/>
<path style="fill-rule:nonzero;fill:rgb(95.686275%,47.45098%,30.588235%);fill-opacity:1;stroke-width:0.75;stroke-linecap:round;stroke-linejoin:round;stroke:rgb(60%,60%,60%);stroke-opacity:1;stroke-miterlimit:10;" d="M 234.148438 132.601562 L 269.976562 132.601562 L 269.976562 93.800781 L 234.148438 93.800781 Z M 234.148438 132.601562 "/>
<path style="fill-rule:nonzero;fill:rgb(98.823529%,61.960784%,39.215686%);fill-opacity:1;stroke-width:0.75;stroke-linecap:round;stroke-linejoin:round;stroke:rgb(60%,60%,60%);stroke-opacity:1;stroke-miterlimit:10;" d="M 234.148438 171.398438 L 269.976562 171.398438 L 269.976562 132.597656 L 234.148438 132.597656 Z M 234.148438 171.398438 "/>
<path style="fill-rule:nonzero;fill:rgb(98.823529%,63.921569%,40.392157%);fill-opacity:1;stroke-width:0.75;stroke-linecap:round;stroke-linejoin:round;stroke:rgb(60%,60%,60%);stroke-opacity:1;stroke-miterlimit:10;" d="M 234.148438 210.199219 L 269.976562 210.199219 L 269.976562 171.398438 L 234.148438 171.398438 Z M 234.148438 210.199219 "/>
<path style="fill-rule:nonzero;fill:rgb(98.823529%,61.960784%,39.215686%);fill-opacity:1;stroke-width:0.75;stroke-linecap:round;stroke-linejoin:round;stroke:rgb(60%,60%,60%);stroke-opacity:1;stroke-miterlimit:10;" d="M 234.148438 249 L 269.976562 249 L 269.976562 210.199219 L 234.148438 210.199219 Z M 234.148438 249 "/>
<path style="fill-rule:nonzero;fill:rgb(27.058824%,45.882353%,70.588235%);fill-opacity:1;stroke-width:0.75;stroke-linecap:round;stroke-linejoin:round;stroke:rgb(60%,60%,60%);stroke-opacity:1;stroke-miterlimit:10;" d="M 234.148438 287.800781 L 269.976562 287.800781 L 269.976562 249 L 234.148438 249 Z M 234.148438 287.800781 "/>
<path style="fill-rule:nonzero;fill:rgb(99.215686%,83.529412%,53.72549%);fill-opacity:1;stroke-width:0.75;stroke-linecap:round;stroke-linejoin:round;stroke:rgb(60%,60%,60%);stroke-opacity:1;stroke-miterlimit:10;" d="M 234.148438 326.601562 L 269.976562 326.601562 L 269.976562 287.800781 L 234.148438 287.800781 Z M 234.148438 326.601562 "/>
<path style="fill-rule:nonzero;fill:rgb(99.607843%,88.235294%,57.254902%);fill-opacity:1;stroke-width:0.75;stroke-linecap:round;stroke-linejoin:round;stroke:rgb(60%,60%,60%);stroke-opacity:1;stroke-miterlimit:10;" d="M 234.148438 365.398438 L 269.976562 365.398438 L 269.976562 326.597656 L 234.148438 326.597656 Z M 234.148438 365.398438 "/>
<path style="fill-rule:nonzero;fill:rgb(98.823529%,69.803922%,44.313725%);fill-opacity:1;stroke-width:0.75;stroke-linecap:round;stroke-linejoin:round;stroke:rgb(60%,60%,60%);stroke-opacity:1;stroke-miterlimit:10;" d="M 234.148438 404.199219 L 269.976562 404.199219 L 269.976562 365.398438 L 234.148438 365.398438 Z M 234.148438 404.199219 "/>
<path style="fill-rule:nonzero;fill:rgb(98.823529%,65.882353%,41.960784%);fill-opacity:1;stroke-width:0.75;stroke-linecap:round;stroke-linejoin:round;stroke:rgb(60%,60%,60%);stroke-opacity:1;stroke-miterlimit:10;" d="M 234.148438 443 L 269.976562 443 L 269.976562 404.199219 L 234.148438 404.199219 Z M 234.148438 443 "/>
<path style="fill-rule:nonzero;fill:rgb(97.254902%,51.764706%,32.941176%);fill-opacity:1;stroke-width:0.75;stroke-linecap:round;stroke-linejoin:round;stroke:rgb(60%,60%,60%);stroke-opacity:1;stroke-miterlimit:10;" d="M 269.980469 93.800781 L 305.808594 93.800781 L 305.808594 55 L 269.980469 55 Z M 269.980469 93.800781 "/>
<path style="fill-rule:nonzero;fill:rgb(85.882353%,23.137255%,17.647059%);fill-opacity:1;stroke-width:0.75;stroke-linecap:round;stroke-linejoin:round;stroke:rgb(60%,60%,60%);stroke-opacity:1;stroke-miterlimit:10;" d="M 269.980469 132.601562 L 305.808594 132.601562 L 305.808594 93.800781 L 269.980469 93.800781 Z M 269.980469 132.601562 "/>
<path style="fill-rule:nonzero;fill:rgb(88.627451%,29.803922%,21.176471%);fill-opacity:1;stroke-width:0.75;stroke-linecap:round;stroke-linejoin:round;stroke:rgb(60%,60%,60%);stroke-opacity:1;stroke-miterlimit:10;" d="M 269.980469 171.398438 L 305.808594 171.398438 L 305.808594 132.597656 L 269.980469 132.597656 Z M 269.980469 171.398438 "/>
<path style="fill-rule:nonzero;fill:rgb(84.313725%,18.823529%,15.294118%);fill-opacity:1;stroke-width:0.75;stroke-linecap:round;stroke-linejoin:round;stroke:rgb(60%,60%,60%);stroke-opacity:1;stroke-miterlimit:10;" d="M 269.980469 210.199219 L 305.808594 210.199219 L 305.808594 171.398438 L 269.980469 171.398438 Z M 269.980469 210.199219 "/>
<path style="fill-rule:nonzero;fill:rgb(93.72549%,42.745098%,28.235294%);fill-opacity:1;stroke-width:0.75;stroke-linecap:round;stroke-linejoin:round;stroke:rgb(60%,60%,60%);stroke-opacity:1;stroke-miterlimit:10;" d="M 269.980469 249 L 305.808594 249 L 305.808594 210.199219 L 269.980469 210.199219 Z M 269.980469 249 "/>
<path style="fill-rule:nonzero;fill:rgb(99.215686%,83.529412%,53.72549%);fill-opacity:1;stroke-width:0.75;stroke-linecap:round;stroke-linejoin:round;stroke:rgb(60%,60%,60%);stroke-opacity:1;stroke-miterlimit:10;" d="M 269.980469 287.800781 L 305.808594 287.800781 L 305.808594 249 L 269.980469 249 Z M 269.980469 287.800781 "/>
<path style="fill-rule:nonzero;fill:rgb(27.058824%,45.882353%,70.588235%);fill-opacity:1;stroke-width:0.75;stroke-linecap:round;stroke-linejoin:round;stroke:rgb(60%,60%,60%);stroke-opacity:1;stroke-miterlimit:10;" d="M 269.980469 326.601562 L 305.808594 326.601562 L 305.808594 287.800781 L 269.980469 287.800781 Z M 269.980469 326.601562 "/>
<path style="fill-rule:nonzero;fill:rgb(96.470588%,98.431373%,80.784314%);fill-opacity:1;stroke-width:0.75;stroke-linecap:round;stroke-linejoin:round;stroke:rgb(60%,60%,60%);stroke-opacity:1;stroke-miterlimit:10;" d="M 269.980469 365.398438 L 305.808594 365.398438 L 305.808594 326.597656 L 269.980469 326.597656 Z M 269.980469 365.398438 "/>
<path style="fill-rule:nonzero;fill:rgb(99.607843%,91.372549%,61.960784%);fill-opacity:1;stroke-width:0.75;stroke-linecap:round;stroke-linejoin:round;stroke:rgb(60%,60%,60%);stroke-opacity:1;stroke-miterlimit:10;" d="M 269.980469 404.199219 L 305.808594 404.199219 L 305.808594 365.398438 L 269.980469 365.398438 Z M 269.980469 404.199219 "/>
<path style="fill-rule:nonzero;fill:rgb(99.607843%,90.588235%,60.784314%);fill-opacity:1;stroke-width:0.75;stroke-linecap:round;stroke-linejoin:round;stroke:rgb(60%,60%,60%);stroke-opacity:1;stroke-miterlimit:10;" d="M 269.980469 443 L 305.808594 443 L 305.808594 404.199219 L 269.980469 404.199219 Z M 269.980469 443 "/>
<path style="fill-rule:nonzero;fill:rgb(98.823529%,67.843137%,43.137255%);fill-opacity:1;stroke-width:0.75;stroke-linecap:round;stroke-linejoin:round;stroke:rgb(60%,60%,60%);stroke-opacity:1;stroke-miterlimit:10;" d="M 305.808594 93.800781 L 341.636719 93.800781 L 341.636719 55 L 305.808594 55 Z M 305.808594 93.800781 "/>
<path style="fill-rule:nonzero;fill:rgb(95.686275%,47.45098%,30.588235%);fill-opacity:1;stroke-width:0.75;stroke-linecap:round;stroke-linejoin:round;stroke:rgb(60%,60%,60%);stroke-opacity:1;stroke-miterlimit:10;" d="M 305.808594 132.601562 L 341.636719 132.601562 L 341.636719 93.800781 L 305.808594 93.800781 Z M 305.808594 132.601562 "/>
<path style="fill-rule:nonzero;fill:rgb(97.254902%,51.764706%,32.941176%);fill-opacity:1;stroke-width:0.75;stroke-linecap:round;stroke-linejoin:round;stroke:rgb(60%,60%,60%);stroke-opacity:1;stroke-miterlimit:10;" d="M 305.808594 171.398438 L 341.636719 171.398438 L 341.636719 132.597656 L 305.808594 132.597656 Z M 305.808594 171.398438 "/>
<path style="fill-rule:nonzero;fill:rgb(90.980392%,36.470588%,24.705882%);fill-opacity:1;stroke-width:0.75;stroke-linecap:round;stroke-linejoin:round;stroke:rgb(60%,60%,60%);stroke-opacity:1;stroke-miterlimit:10;" d="M 305.808594 210.199219 L 341.636719 210.199219 L 341.636719 171.398438 L 305.808594 171.398438 Z M 305.808594 210.199219 "/>
<path style="fill-rule:nonzero;fill:rgb(98.039216%,54.117647%,34.117647%);fill-opacity:1;stroke-width:0.75;stroke-linecap:round;stroke-linejoin:round;stroke:rgb(60%,60%,60%);stroke-opacity:1;stroke-miterlimit:10;" d="M 305.808594 249 L 341.636719 249 L 341.636719 210.199219 L 305.808594 210.199219 Z M 305.808594 249 "/>
<path style="fill-rule:nonzero;fill:rgb(99.607843%,88.235294%,57.254902%);fill-opacity:1;stroke-width:0.75;stroke-linecap:round;stroke-linejoin:round;stroke:rgb(60%,60%,60%);stroke-opacity:1;stroke-miterlimit:10;" d="M 305.808594 287.800781 L 341.636719 287.800781 L 341.636719 249 L 305.808594 249 Z M 305.808594 287.800781 "/>
<path style="fill-rule:nonzero;fill:rgb(96.470588%,98.431373%,80.784314%);fill-opacity:1;stroke-width:0.75;stroke-linecap:round;stroke-linejoin:round;stroke:rgb(60%,60%,60%);stroke-opacity:1;stroke-miterlimit:10;" d="M 305.808594 326.601562 L 341.636719 326.601562 L 341.636719 287.800781 L 305.808594 287.800781 Z M 305.808594 326.601562 "/>
<path style="fill-rule:nonzero;fill:rgb(27.058824%,45.882353%,70.588235%);fill-opacity:1;stroke-width:0.75;stroke-linecap:round;stroke-linejoin:round;stroke:rgb(60%,60%,60%);stroke-opacity:1;stroke-miterlimit:10;" d="M 305.808594 365.398438 L 341.636719 365.398438 L 341.636719 326.597656 L 305.808594 326.597656 Z M 305.808594 365.398438 "/>
<path style="fill-rule:nonzero;fill:rgb(99.607843%,99.607843%,75.294118%);fill-opacity:1;stroke-width:0.75;stroke-linecap:round;stroke-linejoin:round;stroke:rgb(60%,60%,60%);stroke-opacity:1;stroke-miterlimit:10;" d="M 305.808594 404.199219 L 341.636719 404.199219 L 341.636719 365.398438 L 305.808594 365.398438 Z M 305.808594 404.199219 "/>
<path style="fill-rule:nonzero;fill:rgb(99.607843%,95.686275%,68.627451%);fill-opacity:1;stroke-width:0.75;stroke-linecap:round;stroke-linejoin:round;stroke:rgb(60%,60%,60%);stroke-opacity:1;stroke-miterlimit:10;" d="M 305.808594 443 L 341.636719 443 L 341.636719 404.199219 L 305.808594 404.199219 Z M 305.808594 443 "/>
<path style="fill-rule:nonzero;fill:rgb(98.823529%,60%,38.039216%);fill-opacity:1;stroke-width:0.75;stroke-linecap:round;stroke-linejoin:round;stroke:rgb(60%,60%,60%);stroke-opacity:1;stroke-miterlimit:10;" d="M 341.640625 93.800781 L 377.46875 93.800781 L 377.46875 55 L 341.640625 55 Z M 341.640625 93.800781 "/>
<path style="fill-rule:nonzero;fill:rgb(94.509804%,45.098039%,29.411765%);fill-opacity:1;stroke-width:0.75;stroke-linecap:round;stroke-linejoin:round;stroke:rgb(60%,60%,60%);stroke-opacity:1;stroke-miterlimit:10;" d="M 341.640625 132.601562 L 377.46875 132.601562 L 377.46875 93.800781 L 341.640625 93.800781 Z M 341.640625 132.601562 "/>
<path style="fill-rule:nonzero;fill:rgb(94.509804%,45.098039%,29.411765%);fill-opacity:1;stroke-width:0.75;stroke-linecap:round;stroke-linejoin:round;stroke:rgb(60%,60%,60%);stroke-opacity:1;stroke-miterlimit:10;" d="M 341.640625 171.398438 L 377.46875 171.398438 L 377.46875 132.597656 L 341.640625 132.597656 Z M 341.640625 171.398438 "/>
<path style="fill-rule:nonzero;fill:rgb(88.627451%,29.803922%,21.176471%);fill-opacity:1;stroke-width:0.75;stroke-linecap:round;stroke-linejoin:round;stroke:rgb(60%,60%,60%);stroke-opacity:1;stroke-miterlimit:10;" d="M 341.640625 210.199219 L 377.46875 210.199219 L 377.46875 171.398438 L 341.640625 171.398438 Z M 341.640625 210.199219 "/>
<path style="fill-rule:nonzero;fill:rgb(92.941176%,40.784314%,27.058824%);fill-opacity:1;stroke-width:0.75;stroke-linecap:round;stroke-linejoin:round;stroke:rgb(60%,60%,60%);stroke-opacity:1;stroke-miterlimit:10;" d="M 341.640625 249 L 377.46875 249 L 377.46875 210.199219 L 341.640625 210.199219 Z M 341.640625 249 "/>
<path style="fill-rule:nonzero;fill:rgb(98.823529%,69.803922%,44.313725%);fill-opacity:1;stroke-width:0.75;stroke-linecap:round;stroke-linejoin:round;stroke:rgb(60%,60%,60%);stroke-opacity:1;stroke-miterlimit:10;" d="M 341.640625 287.800781 L 377.46875 287.800781 L 377.46875 249 L 341.640625 249 Z M 341.640625 287.800781 "/>
<path style="fill-rule:nonzero;fill:rgb(99.607843%,91.372549%,61.960784%);fill-opacity:1;stroke-width:0.75;stroke-linecap:round;stroke-linejoin:round;stroke:rgb(60%,60%,60%);stroke-opacity:1;stroke-miterlimit:10;" d="M 341.640625 326.601562 L 377.46875 326.601562 L 377.46875 287.800781 L 341.640625 287.800781 Z M 341.640625 326.601562 "/>
<path style="fill-rule:nonzero;fill:rgb(99.607843%,99.607843%,75.294118%);fill-opacity:1;stroke-width:0.75;stroke-linecap:round;stroke-linejoin:round;stroke:rgb(60%,60%,60%);stroke-opacity:1;stroke-miterlimit:10;" d="M 341.640625 365.398438 L 377.46875 365.398438 L 377.46875 326.597656 L 341.640625 326.597656 Z M 341.640625 365.398438 "/>
<path style="fill-rule:nonzero;fill:rgb(27.058824%,45.882353%,70.588235%);fill-opacity:1;stroke-width:0.75;stroke-linecap:round;stroke-linejoin:round;stroke:rgb(60%,60%,60%);stroke-opacity:1;stroke-miterlimit:10;" d="M 341.640625 404.199219 L 377.46875 404.199219 L 377.46875 365.398438 L 341.640625 365.398438 Z M 341.640625 404.199219 "/>
<path style="fill-rule:nonzero;fill:rgb(99.607843%,99.607843%,75.294118%);fill-opacity:1;stroke-width:0.75;stroke-linecap:round;stroke-linejoin:round;stroke:rgb(60%,60%,60%);stroke-opacity:1;stroke-miterlimit:10;" d="M 341.640625 443 L 377.46875 443 L 377.46875 404.199219 L 341.640625 404.199219 Z M 341.640625 443 "/>
<path style="fill-rule:nonzero;fill:rgb(96.470588%,49.411765%,31.764706%);fill-opacity:1;stroke-width:0.75;stroke-linecap:round;stroke-linejoin:round;stroke:rgb(60%,60%,60%);stroke-opacity:1;stroke-miterlimit:10;" d="M 377.46875 93.800781 L 413.296875 93.800781 L 413.296875 55 L 377.46875 55 Z M 377.46875 93.800781 "/>
<path style="fill-rule:nonzero;fill:rgb(87.45098%,27.45098%,20%);fill-opacity:1;stroke-width:0.75;stroke-linecap:round;stroke-linejoin:round;stroke:rgb(60%,60%,60%);stroke-opacity:1;stroke-miterlimit:10;" d="M 377.46875 132.601562 L 413.296875 132.601562 L 413.296875 93.800781 L 377.46875 93.800781 Z M 377.46875 132.601562 "/>
<path style="fill-rule:nonzero;fill:rgb(89.411765%,31.764706%,22.352941%);fill-opacity:1;stroke-width:0.75;stroke-linecap:round;stroke-linejoin:round;stroke:rgb(60%,60%,60%);stroke-opacity:1;stroke-miterlimit:10;" d="M 377.46875 171.398438 L 413.296875 171.398438 L 413.296875 132.597656 L 377.46875 132.597656 Z M 377.46875 171.398438 "/>
<path style="fill-rule:nonzero;fill:rgb(84.313725%,18.823529%,15.294118%);fill-opacity:1;stroke-width:0.75;stroke-linecap:round;stroke-linejoin:round;stroke:rgb(60%,60%,60%);stroke-opacity:1;stroke-miterlimit:10;" d="M 377.46875 210.199219 L 413.296875 210.199219 L 413.296875 171.398438 L 377.46875 171.398438 Z M 377.46875 210.199219 "/>
<path style="fill-rule:nonzero;fill:rgb(90.196078%,34.117647%,23.529412%);fill-opacity:1;stroke-width:0.75;stroke-linecap:round;stroke-linejoin:round;stroke:rgb(60%,60%,60%);stroke-opacity:1;stroke-miterlimit:10;" d="M 377.46875 249 L 413.296875 249 L 413.296875 210.199219 L 377.46875 210.199219 Z M 377.46875 249 "/>
<path style="fill-rule:nonzero;fill:rgb(98.823529%,65.882353%,41.960784%);fill-opacity:1;stroke-width:0.75;stroke-linecap:round;stroke-linejoin:round;stroke:rgb(60%,60%,60%);stroke-opacity:1;stroke-miterlimit:10;" d="M 377.46875 287.800781 L 413.296875 287.800781 L 413.296875 249 L 377.46875 249 Z M 377.46875 287.800781 "/>
<path style="fill-rule:nonzero;fill:rgb(99.607843%,90.588235%,60.784314%);fill-opacity:1;stroke-width:0.75;stroke-linecap:round;stroke-linejoin:round;stroke:rgb(60%,60%,60%);stroke-opacity:1;stroke-miterlimit:10;" d="M 377.46875 326.601562 L 413.296875 326.601562 L 413.296875 287.800781 L 377.46875 287.800781 Z M 377.46875 326.601562 "/>
<path style="fill-rule:nonzero;fill:rgb(99.607843%,95.686275%,68.627451%);fill-opacity:1;stroke-width:0.75;stroke-linecap:round;stroke-linejoin:round;stroke:rgb(60%,60%,60%);stroke-opacity:1;stroke-miterlimit:10;" d="M 377.46875 365.398438 L 413.296875 365.398438 L 413.296875 326.597656 L 377.46875 326.597656 Z M 377.46875 365.398438 "/>
<path style="fill-rule:nonzero;fill:rgb(99.607843%,99.607843%,75.294118%);fill-opacity:1;stroke-width:0.75;stroke-linecap:round;stroke-linejoin:round;stroke:rgb(60%,60%,60%);stroke-opacity:1;stroke-miterlimit:10;" d="M 377.46875 404.199219 L 413.296875 404.199219 L 413.296875 365.398438 L 377.46875 365.398438 Z M 377.46875 404.199219 "/>
<path style="fill-rule:nonzero;fill:rgb(27.058824%,45.882353%,70.588235%);fill-opacity:1;stroke-width:0.75;stroke-linecap:round;stroke-linejoin:round;stroke:rgb(60%,60%,60%);stroke-opacity:1;stroke-miterlimit:10;" d="M 377.46875 443 L 413.296875 443 L 413.296875 404.199219 L 377.46875 404.199219 Z M 377.46875 443 "/>
<g style="fill:rgb(0%,0%,0%);fill-opacity:1;">
  <use xlink:href="#glyph0-1" x="69.383789" y="446"/>
  <use xlink:href="#glyph0-2" x="69.383789" y="451.55957"/>
  <use xlink:href="#glyph0-3" x="69.383789" y="457.119141"/>
  <use xlink:href="#glyph0-4" x="69.383789" y="462.678711"/>
  <use xlink:href="#glyph0-5" x="69.383789" y="468.238281"/>
  <use xlink:href="#glyph0-6" x="69.383789" y="473.797852"/>
  <use xlink:href="#glyph0-3" x="69.383789" y="479.357422"/>
  <use xlink:href="#glyph0-5" x="69.383789" y="484.916992"/>
</g>
<g style="fill:rgb(0%,0%,0%);fill-opacity:1;">
  <use xlink:href="#glyph0-1" x="105.21582" y="446"/>
  <use xlink:href="#glyph0-2" x="105.21582" y="451.55957"/>
  <use xlink:href="#glyph0-3" x="105.21582" y="457.119141"/>
  <use xlink:href="#glyph0-4" x="105.21582" y="462.678711"/>
  <use xlink:href="#glyph0-5" x="105.21582" y="468.238281"/>
  <use xlink:href="#glyph0-6" x="105.21582" y="473.797852"/>
  <use xlink:href="#glyph0-3" x="105.21582" y="479.357422"/>
  <use xlink:href="#glyph0-7" x="105.21582" y="484.916992"/>
</g>
<g style="fill:rgb(0%,0%,0%);fill-opacity:1;">
  <use xlink:href="#glyph0-1" x="141.043945" y="446"/>
  <use xlink:href="#glyph0-2" x="141.043945" y="451.55957"/>
  <use xlink:href="#glyph0-3" x="141.043945" y="457.119141"/>
  <use xlink:href="#glyph0-4" x="141.043945" y="462.678711"/>
  <use xlink:href="#glyph0-5" x="141.043945" y="468.238281"/>
  <use xlink:href="#glyph0-6" x="141.043945" y="473.797852"/>
  <use xlink:href="#glyph0-3" x="141.043945" y="479.357422"/>
  <use xlink:href="#glyph0-8" x="141.043945" y="484.916992"/>
</g>
<g style="fill:rgb(0%,0%,0%);fill-opacity:1;">
  <use xlink:href="#glyph0-1" x="176.875977" y="446"/>
  <use xlink:href="#glyph0-2" x="176.875977" y="451.55957"/>
  <use xlink:href="#glyph0-3" x="176.875977" y="457.119141"/>
  <use xlink:href="#glyph0-4" x="176.875977" y="462.678711"/>
  <use xlink:href="#glyph0-5" x="176.875977" y="468.238281"/>
  <use xlink:href="#glyph0-6" x="176.875977" y="473.797852"/>
  <use xlink:href="#glyph0-3" x="176.875977" y="479.357422"/>
  <use xlink:href="#glyph0-9" x="176.875977" y="484.916992"/>
</g>
<g style="fill:rgb(0%,0%,0%);fill-opacity:1;">
  <use xlink:href="#glyph0-1" x="212.704102" y="446"/>
  <use xlink:href="#glyph0-2" x="212.704102" y="451.55957"/>
  <use xlink:href="#glyph0-3" x="212.704102" y="457.119141"/>
  <use xlink:href="#glyph0-4" x="212.704102" y="462.678711"/>
  <use xlink:href="#glyph0-5" x="212.704102" y="468.238281"/>
  <use xlink:href="#glyph0-6" x="212.704102" y="473.797852"/>
  <use xlink:href="#glyph0-3" x="212.704102" y="479.357422"/>
  <use xlink:href="#glyph0-10" x="212.704102" y="484.916992"/>
  <use xlink:href="#glyph0-4" x="212.704102" y="490.476562"/>
</g>
<g style="fill:rgb(0%,0%,0%);fill-opacity:1;">
  <use xlink:href="#glyph0-1" x="248.536133" y="446"/>
  <use xlink:href="#glyph0-2" x="248.536133" y="451.55957"/>
  <use xlink:href="#glyph0-3" x="248.536133" y="457.119141"/>
  <use xlink:href="#glyph0-4" x="248.536133" y="462.678711"/>
  <use xlink:href="#glyph0-5" x="248.536133" y="468.238281"/>
  <use xlink:href="#glyph0-6" x="248.536133" y="473.797852"/>
  <use xlink:href="#glyph0-3" x="248.536133" y="479.357422"/>
  <use xlink:href="#glyph0-11" x="248.536133" y="484.916992"/>
</g>
<g style="fill:rgb(0%,0%,0%);fill-opacity:1;">
  <use xlink:href="#glyph0-1" x="284.364258" y="446"/>
  <use xlink:href="#glyph0-2" x="284.364258" y="451.55957"/>
  <use xlink:href="#glyph0-3" x="284.364258" y="457.119141"/>
  <use xlink:href="#glyph0-4" x="284.364258" y="462.678711"/>
  <use xlink:href="#glyph0-5" x="284.364258" y="468.238281"/>
  <use xlink:href="#glyph0-6" x="284.364258" y="473.797852"/>
  <use xlink:href="#glyph0-3" x="284.364258" y="479.357422"/>
  <use xlink:href="#glyph0-10" x="284.364258" y="484.916992"/>
</g>
<g style="fill:rgb(0%,0%,0%);fill-opacity:1;">
  <use xlink:href="#glyph0-1" x="320.196289" y="446"/>
  <use xlink:href="#glyph0-2" x="320.196289" y="451.55957"/>
  <use xlink:href="#glyph0-3" x="320.196289" y="457.119141"/>
  <use xlink:href="#glyph0-4" x="320.196289" y="462.678711"/>
  <use xlink:href="#glyph0-5" x="320.196289" y="468.238281"/>
  <use xlink:href="#glyph0-6" x="320.196289" y="473.797852"/>
  <use xlink:href="#glyph0-3" x="320.196289" y="479.357422"/>
  <use xlink:href="#glyph0-6" x="320.196289" y="484.916992"/>
</g>
<g style="fill:rgb(0%,0%,0%);fill-opacity:1;">
  <use xlink:href="#glyph0-1" x="356.024414" y="446"/>
  <use xlink:href="#glyph0-2" x="356.024414" y="451.55957"/>
  <use xlink:href="#glyph0-3" x="356.024414" y="457.119141"/>
  <use xlink:href="#glyph0-4" x="356.024414" y="462.678711"/>
  <use xlink:href="#glyph0-5" x="356.024414" y="468.238281"/>
  <use xlink:href="#glyph0-6" x="356.024414" y="473.797852"/>
  <use xlink:href="#glyph0-3" x="356.024414" y="479.357422"/>
  <use xlink:href="#glyph0-12" x="356.024414" y="484.916992"/>
</g>
<g style="fill:rgb(0%,0%,0%);fill-opacity:1;">
  <use xlink:href="#glyph0-1" x="391.856445" y="446"/>
  <use xlink:href="#glyph0-2" x="391.856445" y="451.55957"/>
  <use xlink:href="#glyph0-3" x="391.856445" y="457.119141"/>
  <use xlink:href="#glyph0-4" x="391.856445" y="462.678711"/>
  <use xlink:href="#glyph0-5" x="391.856445" y="468.238281"/>
  <use xlink:href="#glyph0-6" x="391.856445" y="473.797852"/>
  <use xlink:href="#glyph0-3" x="391.856445" y="479.357422"/>
  <use xlink:href="#glyph0-13" x="391.856445" y="484.916992"/>
</g>
<g style="fill:rgb(0%,0%,0%);fill-opacity:1;">
  <use xlink:href="#glyph1-1" x="416.300781" y="77.928711"/>
  <use xlink:href="#glyph1-2" x="421.860352" y="77.928711"/>
  <use xlink:href="#glyph1-3" x="427.419922" y="77.928711"/>
  <use xlink:href="#glyph1-4" x="432.979492" y="77.928711"/>
  <use xlink:href="#glyph1-5" x="438.539062" y="77.928711"/>
  <use xlink:href="#glyph1-6" x="444.098633" y="77.928711"/>
  <use xlink:href="#glyph1-3" x="449.658203" y="77.928711"/>
  <use xlink:href="#glyph1-5" x="455.217773" y="77.928711"/>
</g>
<g style="fill:rgb(0%,0%,0%);fill-opacity:1;">
  <use xlink:href="#glyph1-1" x="416.300781" y="116.729492"/>
  <use xlink:href="#glyph1-2" x="421.860352" y="116.729492"/>
  <use xlink:href="#glyph1-3" x="427.419922" y="116.729492"/>
  <use xlink:href="#glyph1-4" x="432.979492" y="116.729492"/>
  <use xlink:href="#glyph1-5" x="438.539062" y="116.729492"/>
  <use xlink:href="#glyph1-6" x="444.098633" y="116.729492"/>
  <use xlink:href="#glyph1-3" x="449.658203" y="116.729492"/>
  <use xlink:href="#glyph1-7" x="455.217773" y="116.729492"/>
</g>
<g style="fill:rgb(0%,0%,0%);fill-opacity:1;">
  <use xlink:href="#glyph1-1" x="416.300781" y="155.530273"/>
  <use xlink:href="#glyph1-2" x="421.860352" y="155.530273"/>
  <use xlink:href="#glyph1-3" x="427.419922" y="155.530273"/>
  <use xlink:href="#glyph1-4" x="432.979492" y="155.530273"/>
  <use xlink:href="#glyph1-5" x="438.539062" y="155.530273"/>
  <use xlink:href="#glyph1-6" x="444.098633" y="155.530273"/>
  <use xlink:href="#glyph1-3" x="449.658203" y="155.530273"/>
  <use xlink:href="#glyph1-8" x="455.217773" y="155.530273"/>
</g>
<g style="fill:rgb(0%,0%,0%);fill-opacity:1;">
  <use xlink:href="#glyph1-1" x="416.300781" y="194.331055"/>
  <use xlink:href="#glyph1-2" x="421.860352" y="194.331055"/>
  <use xlink:href="#glyph1-3" x="427.419922" y="194.331055"/>
  <use xlink:href="#glyph1-4" x="432.979492" y="194.331055"/>
  <use xlink:href="#glyph1-5" x="438.539062" y="194.331055"/>
  <use xlink:href="#glyph1-6" x="444.098633" y="194.331055"/>
  <use xlink:href="#glyph1-3" x="449.658203" y="194.331055"/>
  <use xlink:href="#glyph1-9" x="455.217773" y="194.331055"/>
</g>
<g style="fill:rgb(0%,0%,0%);fill-opacity:1;">
  <use xlink:href="#glyph1-1" x="416.300781" y="233.131836"/>
  <use xlink:href="#glyph1-2" x="421.860352" y="233.131836"/>
  <use xlink:href="#glyph1-3" x="427.419922" y="233.131836"/>
  <use xlink:href="#glyph1-4" x="432.979492" y="233.131836"/>
  <use xlink:href="#glyph1-5" x="438.539062" y="233.131836"/>
  <use xlink:href="#glyph1-6" x="444.098633" y="233.131836"/>
  <use xlink:href="#glyph1-3" x="449.658203" y="233.131836"/>
  <use xlink:href="#glyph1-10" x="455.217773" y="233.131836"/>
  <use xlink:href="#glyph1-4" x="460.777344" y="233.131836"/>
</g>
<g style="fill:rgb(0%,0%,0%);fill-opacity:1;">
  <use xlink:href="#glyph1-1" x="416.300781" y="271.928711"/>
  <use xlink:href="#glyph1-2" x="421.860352" y="271.928711"/>
  <use xlink:href="#glyph1-3" x="427.419922" y="271.928711"/>
  <use xlink:href="#glyph1-4" x="432.979492" y="271.928711"/>
  <use xlink:href="#glyph1-5" x="438.539062" y="271.928711"/>
  <use xlink:href="#glyph1-6" x="444.098633" y="271.928711"/>
  <use xlink:href="#glyph1-3" x="449.658203" y="271.928711"/>
  <use xlink:href="#glyph1-11" x="455.217773" y="271.928711"/>
</g>
<g style="fill:rgb(0%,0%,0%);fill-opacity:1;">
  <use xlink:href="#glyph1-1" x="416.300781" y="310.729492"/>
  <use xlink:href="#glyph1-2" x="421.860352" y="310.729492"/>
  <use xlink:href="#glyph1-3" x="427.419922" y="310.729492"/>
  <use xlink:href="#glyph1-4" x="432.979492" y="310.729492"/>
  <use xlink:href="#glyph1-5" x="438.539062" y="310.729492"/>
  <use xlink:href="#glyph1-6" x="444.098633" y="310.729492"/>
  <use xlink:href="#glyph1-3" x="449.658203" y="310.729492"/>
  <use xlink:href="#glyph1-10" x="455.217773" y="310.729492"/>
</g>
<g style="fill:rgb(0%,0%,0%);fill-opacity:1;">
  <use xlink:href="#glyph1-1" x="416.300781" y="349.530273"/>
  <use xlink:href="#glyph1-2" x="421.860352" y="349.530273"/>
  <use xlink:href="#glyph1-3" x="427.419922" y="349.530273"/>
  <use xlink:href="#glyph1-4" x="432.979492" y="349.530273"/>
  <use xlink:href="#glyph1-5" x="438.539062" y="349.530273"/>
  <use xlink:href="#glyph1-6" x="444.098633" y="349.530273"/>
  <use xlink:href="#glyph1-3" x="449.658203" y="349.530273"/>
  <use xlink:href="#glyph1-6" x="455.217773" y="349.530273"/>
</g>
<g style="fill:rgb(0%,0%,0%);fill-opacity:1;">
  <use xlink:href="#glyph1-1" x="416.300781" y="388.331055"/>
  <use xlink:href="#glyph1-2" x="421.860352" y="388.331055"/>
  <use xlink:href="#glyph1-3" x="427.419922" y="388.331055"/>
  <use xlink:href="#glyph1-4" x="432.979492" y="388.331055"/>
  <use xlink:href="#glyph1-5" x="438.539062" y="388.331055"/>
  <use xlink:href="#glyph1-6" x="444.098633" y="388.331055"/>
  <use xlink:href="#glyph1-3" x="449.658203" y="388.331055"/>
  <use xlink:href="#glyph1-12" x="455.217773" y="388.331055"/>
</g>
<g style="fill:rgb(0%,0%,0%);fill-opacity:1;">
  <use xlink:href="#glyph1-1" x="416.300781" y="427.131836"/>
  <use xlink:href="#glyph1-2" x="421.860352" y="427.131836"/>
  <use xlink:href="#glyph1-3" x="427.419922" y="427.131836"/>
  <use xlink:href="#glyph1-4" x="432.979492" y="427.131836"/>
  <use xlink:href="#glyph1-5" x="438.539062" y="427.131836"/>
  <use xlink:href="#glyph1-6" x="444.098633" y="427.131836"/>
  <use xlink:href="#glyph1-3" x="449.658203" y="427.131836"/>
  <use xlink:href="#glyph1-13" x="455.217773" y="427.131836"/>
</g>
<path style=" stroke:none;fill-rule:nonzero;fill:rgb(27.058824%,45.882353%,70.588235%);fill-opacity:1;" d="M 474.300781 205 L 484.300781 205 L 484.300781 203.5 L 474.300781 203.5 Z M 474.300781 205 "/>
<path style=" stroke:none;fill-rule:nonzero;fill:rgb(28.627451%,47.45098%,71.372549%);fill-opacity:1;" d="M 474.300781 203.5 L 484.300781 203.5 L 484.300781 202 L 474.300781 202 Z M 474.300781 203.5 "/>
<path style=" stroke:none;fill-rule:nonzero;fill:rgb(30.588235%,49.019608%,72.156863%);fill-opacity:1;" d="M 474.300781 202 L 484.300781 202 L 484.300781 200.5 L 474.300781 200.5 Z M 474.300781 202 "/>
<path style=" stroke:none;fill-rule:nonzero;fill:rgb(32.156863%,50.980392%,73.333333%);fill-opacity:1;" d="M 474.300781 200.5 L 484.300781 200.5 L 484.300781 199 L 474.300781 199 Z M 474.300781 200.5 "/>
<path style=" stroke:none;fill-rule:nonzero;fill:rgb(34.117647%,52.54902%,74.117647%);fill-opacity:1;" d="M 474.300781 199 L 484.300781 199 L 484.300781 197.5 L 474.300781 197.5 Z M 474.300781 199 "/>
<path style=" stroke:none;fill-rule:nonzero;fill:rgb(36.078431%,54.509804%,74.901961%);fill-opacity:1;" d="M 474.300781 197.5 L 484.300781 197.5 L 484.300781 196 L 474.300781 196 Z M 474.300781 197.5 "/>
<path style=" stroke:none;fill-rule:nonzero;fill:rgb(37.647059%,56.078431%,76.078431%);fill-opacity:1;" d="M 474.300781 196 L 484.300781 196 L 484.300781 194.5 L 474.300781 194.5 Z M 474.300781 196 "/>
<path style=" stroke:none;fill-rule:nonzero;fill:rgb(39.607843%,58.039216%,76.862745%);fill-opacity:1;" d="M 474.300781 194.5 L 484.300781 194.5 L 484.300781 193 L 474.300781 193 Z M 474.300781 194.5 "/>
<path style=" stroke:none;fill-rule:nonzero;fill:rgb(41.176471%,59.607843%,77.647059%);fill-opacity:1;" d="M 474.300781 193 L 484.300781 193 L 484.300781 191.5 L 474.300781 191.5 Z M 474.300781 193 "/>
<path style=" stroke:none;fill-rule:nonzero;fill:rgb(43.137255%,61.568627%,78.823529%);fill-opacity:1;" d="M 474.300781 191.5 L 484.300781 191.5 L 484.300781 190 L 474.300781 190 Z M 474.300781 191.5 "/>
<path style=" stroke:none;fill-rule:nonzero;fill:rgb(45.098039%,63.137255%,79.607843%);fill-opacity:1;" d="M 474.300781 190 L 484.300781 190 L 484.300781 188.5 L 474.300781 188.5 Z M 474.300781 190 "/>
<path style=" stroke:none;fill-rule:nonzero;fill:rgb(46.666667%,65.098039%,80.784314%);fill-opacity:1;" d="M 474.300781 188.5 L 484.300781 188.5 L 484.300781 187 L 474.300781 187 Z M 474.300781 188.5 "/>
<path style=" stroke:none;fill-rule:nonzero;fill:rgb(48.627451%,66.666667%,81.568627%);fill-opacity:1;" d="M 474.300781 187 L 484.300781 187 L 484.300781 185.5 L 474.300781 185.5 Z M 474.300781 187 "/>
<path style=" stroke:none;fill-rule:nonzero;fill:rgb(50.196078%,68.627451%,82.352941%);fill-opacity:1;" d="M 474.300781 185.5 L 484.300781 185.5 L 484.300781 184 L 474.300781 184 Z M 474.300781 185.5 "/>
<path style=" stroke:none;fill-rule:nonzero;fill:rgb(52.156863%,70.196078%,83.529412%);fill-opacity:1;" d="M 474.300781 184 L 484.300781 184 L 484.300781 182.5 L 474.300781 182.5 Z M 474.300781 184 "/>
<path style=" stroke:none;fill-rule:nonzero;fill:rgb(54.117647%,72.156863%,84.313725%);fill-opacity:1;" d="M 474.300781 182.5 L 484.300781 182.5 L 484.300781 181 L 474.300781 181 Z M 474.300781 182.5 "/>
<path style=" stroke:none;fill-rule:nonzero;fill:rgb(55.686275%,73.72549%,85.098039%);fill-opacity:1;" d="M 474.300781 181 L 484.300781 181 L 484.300781 179.5 L 474.300781 179.5 Z M 474.300781 181 "/>
<path style=" stroke:none;fill-rule:nonzero;fill:rgb(57.647059%,75.294118%,85.882353%);fill-opacity:1;" d="M 474.300781 179.5 L 484.300781 179.5 L 484.300781 178 L 474.300781 178 Z M 474.300781 179.5 "/>
<path style=" stroke:none;fill-rule:nonzero;fill:rgb(59.607843%,76.470588%,86.666667%);fill-opacity:1;" d="M 474.300781 178 L 484.300781 178 L 484.300781 176.5 L 474.300781 176.5 Z M 474.300781 178 "/>
<path style=" stroke:none;fill-rule:nonzero;fill:rgb(61.176471%,77.647059%,87.45098%);fill-opacity:1;" d="M 474.300781 176.5 L 484.300781 176.5 L 484.300781 175 L 474.300781 175 Z M 474.300781 176.5 "/>
<path style=" stroke:none;fill-rule:nonzero;fill:rgb(63.137255%,79.215686%,88.235294%);fill-opacity:1;" d="M 474.300781 175 L 484.300781 175 L 484.300781 173.5 L 474.300781 173.5 Z M 474.300781 175 "/>
<path style=" stroke:none;fill-rule:nonzero;fill:rgb(65.098039%,80.392157%,88.627451%);fill-opacity:1;" d="M 474.300781 173.5 L 484.300781 173.5 L 484.300781 172 L 474.300781 172 Z M 474.300781 173.5 "/>
<path style=" stroke:none;fill-rule:nonzero;fill:rgb(67.058824%,81.568627%,89.411765%);fill-opacity:1;" d="M 474.300781 172 L 484.300781 172 L 484.300781 170.5 L 474.300781 170.5 Z M 474.300781 172 "/>
<path style=" stroke:none;fill-rule:nonzero;fill:rgb(69.019608%,82.745098%,90.196078%);fill-opacity:1;" d="M 474.300781 170.5 L 484.300781 170.5 L 484.300781 169 L 474.300781 169 Z M 474.300781 170.5 "/>
<path style=" stroke:none;fill-rule:nonzero;fill:rgb(70.588235%,83.921569%,90.980392%);fill-opacity:1;" d="M 474.300781 169 L 484.300781 169 L 484.300781 167.5 L 474.300781 167.5 Z M 474.300781 169 "/>
<path style=" stroke:none;fill-rule:nonzero;fill:rgb(72.54902%,85.098039%,91.372549%);fill-opacity:1;" d="M 474.300781 167.5 L 484.300781 167.5 L 484.300781 166 L 474.300781 166 Z M 474.300781 167.5 "/>
<path style=" stroke:none;fill-rule:nonzero;fill:rgb(74.509804%,86.27451%,92.156863%);fill-opacity:1;" d="M 474.300781 166 L 484.300781 166 L 484.300781 164.5 L 474.300781 164.5 Z M 474.300781 166 "/>
<path style=" stroke:none;fill-rule:nonzero;fill:rgb(76.470588%,87.843137%,92.941176%);fill-opacity:1;" d="M 474.300781 164.5 L 484.300781 164.5 L 484.300781 163 L 474.300781 163 Z M 474.300781 164.5 "/>
<path style=" stroke:none;fill-rule:nonzero;fill:rgb(78.431373%,89.019608%,93.72549%);fill-opacity:1;" d="M 474.300781 163 L 484.300781 163 L 484.300781 161.5 L 474.300781 161.5 Z M 474.300781 163 "/>
<path style=" stroke:none;fill-rule:nonzero;fill:rgb(80%,90.196078%,94.117647%);fill-opacity:1;" d="M 474.300781 161.5 L 484.300781 161.5 L 484.300781 160 L 474.300781 160 Z M 474.300781 161.5 "/>
<path style=" stroke:none;fill-rule:nonzero;fill:rgb(81.960784%,91.372549%,94.901961%);fill-opacity:1;" d="M 474.300781 160 L 484.300781 160 L 484.300781 158.5 L 474.300781 158.5 Z M 474.300781 160 "/>
<path style=" stroke:none;fill-rule:nonzero;fill:rgb(83.921569%,92.54902%,95.686275%);fill-opacity:1;" d="M 474.300781 158.5 L 484.300781 158.5 L 484.300781 157 L 474.300781 157 Z M 474.300781 158.5 "/>
<path style=" stroke:none;fill-rule:nonzero;fill:rgb(85.882353%,93.72549%,96.470588%);fill-opacity:1;" d="M 474.300781 157 L 484.300781 157 L 484.300781 155.5 L 474.300781 155.5 Z M 474.300781 157 "/>
<path style=" stroke:none;fill-rule:nonzero;fill:rgb(87.843137%,95.294118%,96.862745%);fill-opacity:1;" d="M 474.300781 155.5 L 484.300781 155.5 L 484.300781 154 L 474.300781 154 Z M 474.300781 155.5 "/>
<path style=" stroke:none;fill-rule:nonzero;fill:rgb(88.235294%,95.294118%,95.686275%);fill-opacity:1;" d="M 474.300781 154 L 484.300781 154 L 484.300781 152.5 L 474.300781 152.5 Z M 474.300781 154 "/>
<path style=" stroke:none;fill-rule:nonzero;fill:rgb(89.019608%,95.686275%,94.509804%);fill-opacity:1;" d="M 474.300781 152.5 L 484.300781 152.5 L 484.300781 151 L 474.300781 151 Z M 474.300781 152.5 "/>
<path style=" stroke:none;fill-rule:nonzero;fill:rgb(89.803922%,96.078431%,92.941176%);fill-opacity:1;" d="M 474.300781 151 L 484.300781 151 L 484.300781 149.5 L 474.300781 149.5 Z M 474.300781 151 "/>
<path style=" stroke:none;fill-rule:nonzero;fill:rgb(90.588235%,96.078431%,91.764706%);fill-opacity:1;" d="M 474.300781 149.5 L 484.300781 149.5 L 484.300781 148 L 474.300781 148 Z M 474.300781 149.5 "/>
<path style=" stroke:none;fill-rule:nonzero;fill:rgb(91.372549%,96.470588%,90.196078%);fill-opacity:1;" d="M 474.300781 148 L 484.300781 148 L 484.300781 146.5 L 474.300781 146.5 Z M 474.300781 148 "/>
<path style=" stroke:none;fill-rule:nonzero;fill:rgb(92.156863%,96.862745%,89.019608%);fill-opacity:1;" d="M 474.300781 146.5 L 484.300781 146.5 L 484.300781 145 L 474.300781 145 Z M 474.300781 146.5 "/>
<path style=" stroke:none;fill-rule:nonzero;fill:rgb(92.941176%,97.254902%,87.45098%);fill-opacity:1;" d="M 474.300781 145 L 484.300781 145 L 484.300781 143.5 L 474.300781 143.5 Z M 474.300781 145 "/>
<path style=" stroke:none;fill-rule:nonzero;fill:rgb(93.72549%,97.254902%,86.27451%);fill-opacity:1;" d="M 474.300781 143.5 L 484.300781 143.5 L 484.300781 142 L 474.300781 142 Z M 474.300781 143.5 "/>
<path style=" stroke:none;fill-rule:nonzero;fill:rgb(94.117647%,97.647059%,84.705882%);fill-opacity:1;" d="M 474.300781 142 L 484.300781 142 L 484.300781 140.5 L 474.300781 140.5 Z M 474.300781 142 "/>
<path style=" stroke:none;fill-rule:nonzero;fill:rgb(94.901961%,98.039216%,83.529412%);fill-opacity:1;" d="M 474.300781 140.5 L 484.300781 140.5 L 484.300781 139 L 474.300781 139 Z M 474.300781 140.5 "/>
<path style=" stroke:none;fill-rule:nonzero;fill:rgb(95.686275%,98.431373%,82.352941%);fill-opacity:1;" d="M 474.300781 139 L 484.300781 139 L 484.300781 137.5 L 474.300781 137.5 Z M 474.300781 139 "/>
<path style=" stroke:none;fill-rule:nonzero;fill:rgb(96.470588%,98.431373%,80.784314%);fill-opacity:1;" d="M 474.300781 137.5 L 484.300781 137.5 L 484.300781 136 L 474.300781 136 Z M 474.300781 137.5 "/>
<path style=" stroke:none;fill-rule:nonzero;fill:rgb(97.254902%,98.823529%,79.607843%);fill-opacity:1;" d="M 474.300781 136 L 484.300781 136 L 484.300781 134.5 L 474.300781 134.5 Z M 474.300781 136 "/>
<path style=" stroke:none;fill-rule:nonzero;fill:rgb(98.039216%,99.215686%,78.039216%);fill-opacity:1;" d="M 474.300781 134.5 L 484.300781 134.5 L 484.300781 133 L 474.300781 133 Z M 474.300781 134.5 "/>
<path style=" stroke:none;fill-rule:nonzero;fill:rgb(98.823529%,99.215686%,76.862745%);fill-opacity:1;" d="M 474.300781 133 L 484.300781 133 L 484.300781 131.5 L 474.300781 131.5 Z M 474.300781 133 "/>
<path style=" stroke:none;fill-rule:nonzero;fill:rgb(99.607843%,99.607843%,75.294118%);fill-opacity:1;" d="M 474.300781 131.5 L 484.300781 131.5 L 484.300781 130 L 474.300781 130 Z M 474.300781 131.5 "/>
<path style=" stroke:none;fill-rule:nonzero;fill:rgb(99.607843%,99.607843%,74.117647%);fill-opacity:1;" d="M 474.300781 130 L 484.300781 130 L 484.300781 128.5 L 474.300781 128.5 Z M 474.300781 130 "/>
<path style=" stroke:none;fill-rule:nonzero;fill:rgb(99.607843%,98.823529%,72.941176%);fill-opacity:1;" d="M 474.300781 128.5 L 484.300781 128.5 L 484.300781 127 L 474.300781 127 Z M 474.300781 128.5 "/>
<path style=" stroke:none;fill-rule:nonzero;fill:rgb(99.607843%,98.039216%,71.764706%);fill-opacity:1;" d="M 474.300781 127 L 484.300781 127 L 484.300781 125.5 L 474.300781 125.5 Z M 474.300781 127 "/>
<path style=" stroke:none;fill-rule:nonzero;fill:rgb(99.607843%,97.254902%,70.980392%);fill-opacity:1;" d="M 474.300781 125.5 L 484.300781 125.5 L 484.300781 124 L 474.300781 124 Z M 474.300781 125.5 "/>
<path style=" stroke:none;fill-rule:nonzero;fill:rgb(99.607843%,96.470588%,69.803922%);fill-opacity:1;" d="M 474.300781 124 L 484.300781 124 L 484.300781 122.5 L 474.300781 122.5 Z M 474.300781 124 "/>
<path style=" stroke:none;fill-rule:nonzero;fill:rgb(99.607843%,95.686275%,68.627451%);fill-opacity:1;" d="M 474.300781 122.5 L 484.300781 122.5 L 484.300781 121 L 474.300781 121 Z M 474.300781 122.5 "/>
<path style=" stroke:none;fill-rule:nonzero;fill:rgb(99.607843%,94.901961%,67.45098%);fill-opacity:1;" d="M 474.300781 121 L 484.300781 121 L 484.300781 119.5 L 474.300781 119.5 Z M 474.300781 121 "/>
<path style=" stroke:none;fill-rule:nonzero;fill:rgb(99.607843%,94.117647%,66.27451%);fill-opacity:1;" d="M 474.300781 119.5 L 484.300781 119.5 L 484.300781 118 L 474.300781 118 Z M 474.300781 119.5 "/>
<path style=" stroke:none;fill-rule:nonzero;fill:rgb(99.607843%,93.72549%,65.098039%);fill-opacity:1;" d="M 474.300781 118 L 484.300781 118 L 484.300781 116.5 L 474.300781 116.5 Z M 474.300781 118 "/>
<path style=" stroke:none;fill-rule:nonzero;fill:rgb(99.607843%,92.941176%,63.921569%);fill-opacity:1;" d="M 474.300781 116.5 L 484.300781 116.5 L 484.300781 115 L 474.300781 115 Z M 474.300781 116.5 "/>
<path style=" stroke:none;fill-rule:nonzero;fill:rgb(99.607843%,92.156863%,63.137255%);fill-opacity:1;" d="M 474.300781 115 L 484.300781 115 L 484.300781 113.5 L 474.300781 113.5 Z M 474.300781 115 "/>
<path style=" stroke:none;fill-rule:nonzero;fill:rgb(99.607843%,91.372549%,61.960784%);fill-opacity:1;" d="M 474.300781 113.5 L 484.300781 113.5 L 484.300781 112 L 474.300781 112 Z M 474.300781 113.5 "/>
<path style=" stroke:none;fill-rule:nonzero;fill:rgb(99.607843%,90.588235%,60.784314%);fill-opacity:1;" d="M 474.300781 112 L 484.300781 112 L 484.300781 110.5 L 474.300781 110.5 Z M 474.300781 112 "/>
<path style=" stroke:none;fill-rule:nonzero;fill:rgb(99.607843%,89.803922%,59.607843%);fill-opacity:1;" d="M 474.300781 110.5 L 484.300781 110.5 L 484.300781 109 L 474.300781 109 Z M 474.300781 110.5 "/>
<path style=" stroke:none;fill-rule:nonzero;fill:rgb(99.607843%,89.019608%,58.431373%);fill-opacity:1;" d="M 474.300781 109 L 484.300781 109 L 484.300781 107.5 L 474.300781 107.5 Z M 474.300781 109 "/>
<path style=" stroke:none;fill-rule:nonzero;fill:rgb(99.607843%,88.235294%,57.254902%);fill-opacity:1;" d="M 474.300781 107.5 L 484.300781 107.5 L 484.300781 106 L 474.300781 106 Z M 474.300781 107.5 "/>
<path style=" stroke:none;fill-rule:nonzero;fill:rgb(99.607843%,87.45098%,56.078431%);fill-opacity:1;" d="M 474.300781 106 L 484.300781 106 L 484.300781 104.5 L 474.300781 104.5 Z M 474.300781 106 "/>
<path style=" stroke:none;fill-rule:nonzero;fill:rgb(99.215686%,85.490196%,54.901961%);fill-opacity:1;" d="M 474.300781 104.5 L 484.300781 104.5 L 484.300781 103 L 474.300781 103 Z M 474.300781 104.5 "/>
<path style=" stroke:none;fill-rule:nonzero;fill:rgb(99.215686%,83.529412%,53.72549%);fill-opacity:1;" d="M 474.300781 103 L 484.300781 103 L 484.300781 101.5 L 474.300781 101.5 Z M 474.300781 103 "/>
<path style=" stroke:none;fill-rule:nonzero;fill:rgb(99.215686%,81.568627%,52.156863%);fill-opacity:1;" d="M 474.300781 101.5 L 484.300781 101.5 L 484.300781 100 L 474.300781 100 Z M 474.300781 101.5 "/>
<path style=" stroke:none;fill-rule:nonzero;fill:rgb(99.215686%,79.607843%,50.980392%);fill-opacity:1;" d="M 474.300781 100 L 484.300781 100 L 484.300781 98.5 L 474.300781 98.5 Z M 474.300781 100 "/>
<path style=" stroke:none;fill-rule:nonzero;fill:rgb(99.215686%,77.647059%,49.803922%);fill-opacity:1;" d="M 474.300781 98.5 L 484.300781 98.5 L 484.300781 97 L 474.300781 97 Z M 474.300781 98.5 "/>
<path style=" stroke:none;fill-rule:nonzero;fill:rgb(99.215686%,75.686275%,48.235294%);fill-opacity:1;" d="M 474.300781 97 L 484.300781 97 L 484.300781 95.5 L 474.300781 95.5 Z M 474.300781 97 "/>
<path style=" stroke:none;fill-rule:nonzero;fill:rgb(99.215686%,73.72549%,47.058824%);fill-opacity:1;" d="M 474.300781 95.5 L 484.300781 95.5 L 484.300781 94 L 474.300781 94 Z M 474.300781 95.5 "/>
<path style=" stroke:none;fill-rule:nonzero;fill:rgb(99.215686%,71.764706%,45.882353%);fill-opacity:1;" d="M 474.300781 94 L 484.300781 94 L 484.300781 92.5 L 474.300781 92.5 Z M 474.300781 94 "/>
<path style=" stroke:none;fill-rule:nonzero;fill:rgb(98.823529%,69.803922%,44.313725%);fill-opacity:1;" d="M 474.300781 92.5 L 484.300781 92.5 L 484.300781 91 L 474.300781 91 Z M 474.300781 92.5 "/>
<path style=" stroke:none;fill-rule:nonzero;fill:rgb(98.823529%,67.843137%,43.137255%);fill-opacity:1;" d="M 474.300781 91 L 484.300781 91 L 484.300781 89.5 L 474.300781 89.5 Z M 474.300781 91 "/>
<path style=" stroke:none;fill-rule:nonzero;fill:rgb(98.823529%,65.882353%,41.960784%);fill-opacity:1;" d="M 474.300781 89.5 L 484.300781 89.5 L 484.300781 88 L 474.300781 88 Z M 474.300781 89.5 "/>
<path style=" stroke:none;fill-rule:nonzero;fill:rgb(98.823529%,63.921569%,40.392157%);fill-opacity:1;" d="M 474.300781 88 L 484.300781 88 L 484.300781 86.5 L 474.300781 86.5 Z M 474.300781 88 "/>
<path style=" stroke:none;fill-rule:nonzero;fill:rgb(98.823529%,61.960784%,39.215686%);fill-opacity:1;" d="M 474.300781 86.5 L 484.300781 86.5 L 484.300781 85 L 474.300781 85 Z M 474.300781 86.5 "/>
<path style=" stroke:none;fill-rule:nonzero;fill:rgb(98.823529%,60%,38.039216%);fill-opacity:1;" d="M 474.300781 85 L 484.300781 85 L 484.300781 83.5 L 474.300781 83.5 Z M 474.300781 85 "/>
<path style=" stroke:none;fill-rule:nonzero;fill:rgb(98.823529%,58.039216%,36.470588%);fill-opacity:1;" d="M 474.300781 83.5 L 484.300781 83.5 L 484.300781 82 L 474.300781 82 Z M 474.300781 83.5 "/>
<path style=" stroke:none;fill-rule:nonzero;fill:rgb(98.823529%,56.078431%,35.294118%);fill-opacity:1;" d="M 474.300781 82 L 484.300781 82 L 484.300781 80.5 L 474.300781 80.5 Z M 474.300781 82 "/>
<path style=" stroke:none;fill-rule:nonzero;fill:rgb(98.039216%,54.117647%,34.117647%);fill-opacity:1;" d="M 474.300781 80.5 L 484.300781 80.5 L 484.300781 79 L 474.300781 79 Z M 474.300781 80.5 "/>
<path style=" stroke:none;fill-rule:nonzero;fill:rgb(97.254902%,51.764706%,32.941176%);fill-opacity:1;" d="M 474.300781 79 L 484.300781 79 L 484.300781 77.5 L 474.300781 77.5 Z M 474.300781 79 "/>
<path style=" stroke:none;fill-rule:nonzero;fill:rgb(96.470588%,49.411765%,31.764706%);fill-opacity:1;" d="M 474.300781 77.5 L 484.300781 77.5 L 484.300781 76 L 474.300781 76 Z M 474.300781 77.5 "/>
<path style=" stroke:none;fill-rule:nonzero;fill:rgb(95.686275%,47.45098%,30.588235%);fill-opacity:1;" d="M 474.300781 76 L 484.300781 76 L 484.300781 74.5 L 474.300781 74.5 Z M 474.300781 76 "/>
<path style=" stroke:none;fill-rule:nonzero;fill:rgb(94.509804%,45.098039%,29.411765%);fill-opacity:1;" d="M 474.300781 74.5 L 484.300781 74.5 L 484.300781 73 L 474.300781 73 Z M 474.300781 74.5 "/>
<path style=" stroke:none;fill-rule:nonzero;fill:rgb(93.72549%,42.745098%,28.235294%);fill-opacity:1;" d="M 474.300781 73 L 484.300781 73 L 484.300781 71.5 L 474.300781 71.5 Z M 474.300781 73 "/>
<path style=" stroke:none;fill-rule:nonzero;fill:rgb(92.941176%,40.784314%,27.058824%);fill-opacity:1;" d="M 474.300781 71.5 L 484.300781 71.5 L 484.300781 70 L 474.300781 70 Z M 474.300781 71.5 "/>
<path style=" stroke:none;fill-rule:nonzero;fill:rgb(92.156863%,38.431373%,25.882353%);fill-opacity:1;" d="M 474.300781 70 L 484.300781 70 L 484.300781 68.5 L 474.300781 68.5 Z M 474.300781 70 "/>
<path style=" stroke:none;fill-rule:nonzero;fill:rgb(90.980392%,36.470588%,24.705882%);fill-opacity:1;" d="M 474.300781 68.5 L 484.300781 68.5 L 484.300781 67 L 474.300781 67 Z M 474.300781 68.5 "/>
<path style=" stroke:none;fill-rule:nonzero;fill:rgb(90.196078%,34.117647%,23.529412%);fill-opacity:1;" d="M 474.300781 67 L 484.300781 67 L 484.300781 65.5 L 474.300781 65.5 Z M 474.300781 67 "/>
<path style=" stroke:none;fill-rule:nonzero;fill:rgb(89.411765%,31.764706%,22.352941%);fill-opacity:1;" d="M 474.300781 65.5 L 484.300781 65.5 L 484.300781 64 L 474.300781 64 Z M 474.300781 65.5 "/>
<path style=" stroke:none;fill-rule:nonzero;fill:rgb(88.627451%,29.803922%,21.176471%);fill-opacity:1;" d="M 474.300781 64 L 484.300781 64 L 484.300781 62.5 L 474.300781 62.5 Z M 474.300781 64 "/>
<path style=" stroke:none;fill-rule:nonzero;fill:rgb(87.45098%,27.45098%,20%);fill-opacity:1;" d="M 474.300781 62.5 L 484.300781 62.5 L 484.300781 61 L 474.300781 61 Z M 474.300781 62.5 "/>
<path style=" stroke:none;fill-rule:nonzero;fill:rgb(86.666667%,25.098039%,18.823529%);fill-opacity:1;" d="M 474.300781 61 L 484.300781 61 L 484.300781 59.5 L 474.300781 59.5 Z M 474.300781 61 "/>
<path style=" stroke:none;fill-rule:nonzero;fill:rgb(85.882353%,23.137255%,17.647059%);fill-opacity:1;" d="M 474.300781 59.5 L 484.300781 59.5 L 484.300781 58 L 474.300781 58 Z M 474.300781 59.5 "/>
<path style=" stroke:none;fill-rule:nonzero;fill:rgb(85.098039%,20.784314%,16.470588%);fill-opacity:1;" d="M 474.300781 58 L 484.300781 58 L 484.300781 56.5 L 474.300781 56.5 Z M 474.300781 58 "/>
<path style=" stroke:none;fill-rule:nonzero;fill:rgb(84.313725%,18.823529%,15.294118%);fill-opacity:1;" d="M 474.300781 56.5 L 484.300781 56.5 L 484.300781 55 L 474.300781 55 Z M 474.300781 56.5 "/>
<g style="fill:rgb(0%,0%,0%);fill-opacity:1;">
  <use xlink:href="#glyph1-4" x="488.300781" y="208.530273"/>
</g>
<g style="fill:rgb(0%,0%,0%);fill-opacity:1;">
  <use xlink:href="#glyph1-11" x="488.300781" y="163.456055"/>
</g>
<g style="fill:rgb(0%,0%,0%);fill-opacity:1;">
  <use xlink:href="#glyph1-10" x="488.300781" y="118.381836"/>
  <use xlink:href="#glyph1-4" x="493.860352" y="118.381836"/>
</g>
<g style="fill:rgb(0%,0%,0%);fill-opacity:1;">
  <use xlink:href="#glyph1-10" x="488.300781" y="73.307617"/>
  <use xlink:href="#glyph1-11" x="493.860352" y="73.307617"/>
</g>
</g>
</svg>
