A	Coef	t	p_value	p_value_adj	F	F_p_value	Genes_ID	Genes_Symbol	Genes_Name	Genes_Ensembl
7,7197	-0,73874	-5,9128	0,0006324	0,07408332	34,9615	0,0006324	1415698_at	Golm1	golgi membrane protein 1	ENSMUSG00000021556
7,0123	0,63597	5,2675	0,0012315	0,09238633	27,7469	0,0012315	1415728_at	Pabpn1	poly(A) binding protein, nuclear 1	ENSMUSG00000022194
8,4271	0,78059	6,3134	0,0004289	0,06464066	39,8593	0,0004289	1415820_x_at	Nono	non-POU-domain-containing, octamer binding protein	ENSMUSG00000031311
8,4491	-1,25408	-6,7866	0,0002774	0,05633803	46,0583	0,0002774	1415864_at	Bpgm	2,3-bisphosphoglycerate mutase	ENSMUSG00000038871
10,8078	-0,90933	-5,8851	0,0006501	0,07496685	34,6342	0,0006501	1415891_at	Suclg1	succinate-CoA ligase, GDP-forming, alpha subunit	ENSMUSG00000052738
10,4025	-0,79484	-6,5538	0,0003427	0,0597924	42,9519	0,0003427	1416041_at	Sgk1	serum/glucocorticoid regulated kinase 1	ENSMUSG00000019970
7,8442	-0,64951	-5,1601	0,0013831	0,09456304	26,627	0,0013831	1416106_at	Kti12	KTI12 homolog, chromatin associated (S. cerevisiae)	ENSMUSG00000073775
8,5604	0,92517	7,7466	0,0001227	0,04498241	60,0092	0,0001227	1416138_at	Anxa7	annexin A7	ENSMUSG00000021814
11,2783	-0,94757	-6,2295	0,0004645	0,06596037	38,8063	0,0004645	1416285_at	Ndufc1	NADH dehydrogenase (ubiquinone) 1, subcomplex unknown, 1	ENSMUSG00000037152
8,1407	-1,19253	-7,7158	0,0001258	0,04501243	59,5343	0,0001258	1416319_at	Adk	adenosine kinase	ENSMUSG00000039197
10,3959	-1,1323	-8,0639	9,54e-05	0,04192721	65,0258	9,54e-05	1416352_s_at	Tecr	trans-2,3-enoyl-CoA reductase	ENSMUSG00000031708
9,7146	-0,76247	-6,4621	0,0003731	0,06224958	41,7585	0,0003731	1416367_at	1110001J03Rik	RIKEN cDNA 1110001J03 gene	ENSMUSG00000019689
7,9384	-0,91442	-5,6875	0,0007934	0,07940605	32,3472	0,0007934	1416436_a_at	Uqcc1	ubiquinol-cytochrome c reductase complex assembly factor 1	ENSMUSG00000005882
11,3528	-0,62922	-5,7057	0,0007788	0,07871657	32,5545	0,0007788	1416494_at	Ndufs5	NADH dehydrogenase (ubiquinone) Fe-S protein 5	ENSMUSG00000028648
9,2823	-1,43366	-8,5984	6,36e-05	0,03624514	73,9316	6,36e-05	1416505_at	Nr4a1	nuclear receptor subfamily 4, group A, member 1	ENSMUSG00000023034
5,6986	0,504	5,0517	0,0015577	0,09906059	25,52	0,0015577	1416511_a_at	Cdc42ep4	CDC42 effector protein (Rho GTPase binding) 4	ENSMUSG00000041598
9,6579	-0,78863	-5,2357	0,0012744	0,09285073	27,4129	0,0012744	1416525_at	Spop	speckle-type POZ protein	ENSMUSG00000057522
6,957	-0,82531	-5,7347	0,0007562	0,07786159	32,8871	0,0007562	1416610_a_at	Clcn3	chloride channel 3	ENSMUSG00000004319
8,3257	0,76239	5,3546	0,0011221	0,08991798	28,6719	0,0011221	1416614_at	Eid1	EP300 interacting inhibitor of differentiation 1	ENSMUSG00000091337
7,4395	-1,36116	-6,3617	0,0004098	0,06420727	40,4709	0,0004098	1416658_at	Frzb	frizzled-related protein	ENSMUSG00000027004
9,3863	-0,57859	-5,5519	0,0009121	0,08370016	30,8234	0,0009121	1416665_at	Coq7	demethyl-Q 7	ENSMUSG00000030652
12,4154	-0,54616	-5,1483	0,0014011	0,09516806	26,5049	0,0014011	1416752_at	Ldb3	LIM domain binding 3	ENSMUSG00000021798
8,713	-1,70516	-7,7265	0,0001247	0,04498241	59,6992	0,0001247	1416794_at	Atl2	atlastin GTPase 2	ENSMUSG00000059811
10,293	-0,76213	-7,4228	0,00016	0,04831934	55,0978	0,00016	1416849_at	Cisd1	CDGSH iron sulfur domain 1	ENSMUSG00000037710
5,902	-1,05835	-6,3149	0,0004283	0,06464066	39,8776	0,0004283	1416930_at	Ly6d	lymphocyte antigen 6 complex, locus D	ENSMUSG00000034634
8,1734	0,78619	6,9481	0,0002403	0,05558512	48,2766	0,0002403	1417009_at			
9,3771	-1,92515	-10,9311	1,35e-05	0,0224951	119,4891	1,35e-05	1417042_at	Slc37a4	solute carrier family 37 (glucose-6-phosphate transporter), member 4	ENSMUSG00000032114
7,3724	-0,94764	-5,761	0,0007363	0,07732036	33,1888	0,0007363	1417182_at	Dnaja2	DnaJ (Hsp40) homolog, subfamily A, member 2	ENSMUSG00000031701
10,6069	-0,67508	-6,3514	0,0004138	0,06420727	40,34	0,0004138	1417193_at	Sod2	superoxide dismutase 2, mitochondrial	ENSMUSG00000006818
7,4171	0,66125	5,0437	0,0015715	0,09906059	25,4389	0,0015715	1417250_at	Rlim	ring finger protein, LIM domain interacting	ENSMUSG00000056537
10,0729	-0,70732	-5,767	0,0007319	0,07732036	33,258	0,0007319	1417316_at	Acot13	acyl-CoA thioesterase 13	ENSMUSG00000006717
8,9832	-1,44334	-6,0614	0,0005464	0,06917096	36,7409	0,0005464	1417434_at	Gpd2	glycerol phosphate dehydrogenase 2, mitochondrial	ENSMUSG00000026827
8,9634	-0,68501	-5,1368	0,0014187	0,09573654	26,387	0,0014187	1417438_at	Rdh14	retinol dehydrogenase 14 (all-trans and 9-cis)	ENSMUSG00000020621
4,8952	-2,1573	-6,3875	0,0004	0,06393645	40,8001	0,0004	1417597_at	Cd28	CD28 antigen	ENSMUSG00000026012
6,1646	0,59497	5,2275	0,0012858	0,09308073	27,3265	0,0012858	1417628_at	Supt6	suppressor of Ty 6	ENSMUSG00000002052
6,1418	-0,94194	-7,6249	0,0001354	0,04592696	58,1386	0,0001354	1417680_at	Kcna5	potassium voltage-gated channel, shaker-related subfamily, member 5	ENSMUSG00000045534
6,8129	0,75017	6,5775	0,0003353	0,05907714	43,263	0,0003353	1417691_at	Bin3	bridging integrator 3	ENSMUSG00000022089
9,3564	-0,68931	-5,8364	0,0006825	0,07581895	34,0635	0,0006825	1417701_at	Ppp1r14c	protein phosphatase 1, regulatory (inhibitor) subunit 14c	ENSMUSG00000040653
8,0752	-0,7444	-5,4862	0,0009767	0,08521466	30,0986	0,0009767	1417772_at	Grhpr	glyoxylate reductase/hydroxypyruvate reductase	ENSMUSG00000035637
8,0779	-0,54518	-5,1664	0,0013738	0,09453736	26,6913	0,0013738	1417806_at	Popdc2	popeye domain containing 2	ENSMUSG00000022803
3,4575	-0,52878	-5,2509	0,0012536	0,09238633	27,5724	0,0012536	1417814_at	Pla2g5	phospholipase A2, group V	ENSMUSG00000041193
5,9196	0,96829	5,1775	0,0013572	0,09440576	26,8068	0,0013572	1417848_at	Zfp704	zinc finger protein 704	ENSMUSG00000040209
9,229	-0,61842	-5,1299	0,0014296	0,09573654	26,3156	0,0014296	1417907_at			
8,8385	-1,4221	-5,8134	0,0006984	0,07682644	33,7959	0,0006984	1417956_at	Cidea	cell death-inducing DNA fragmentation factor, alpha subunit-like effector A	ENSMUSG00000024526
6,7875	-0,80429	-5,0243	0,0016056	0,09986454	25,2434	0,0016056	1417970_at	Atp5s	ATP synthase, H+ transporting, mitochondrial F0 complex, subunit S	ENSMUSG00000054894
8,0843	-0,90445	-5,493	0,0009698	0,08521466	30,1734	0,0009698	1417977_at	Eif4e3	eukaryotic translation initiation factor 4E member 3	ENSMUSG00000093661
10,6346	-0,59376	-5,4979	0,0009649	0,08521466	30,2268	0,0009649	1418002_at	Higd2a	HIG1 domain family, member 2A	ENSMUSG00000025868
7,1691	0,72519	6,6592	0,0003112	0,05738029	44,3448	0,0003112	1418031_at	Myo9b	myosin IXb	ENSMUSG00000004677
7,0749	-0,82331	-5,6277	0,0008434	0,08056539	31,6713	0,0008434	1418068_at	Ndufa10	NADH dehydrogenase (ubiquinone) 1 alpha subcomplex 10	ENSMUSG00000026260
3,5217	0,67171	5,9369	0,0006175	0,07335642	35,2462	0,0006175	1418157_at	Nr2f1	nuclear receptor subfamily 2, group F, member 1	ENSMUSG00000069171
7,3918	-4,30387	-7,0281	0,0002241	0,05414147	49,3935	0,0002241	1418197_at	Ucp1	uncoupling protein 1 (mitochondrial, proton carrier)	ENSMUSG00000031710
5,7425	0,87083	7,381	0,0001657	0,04884295	54,4795	0,0001657	1418326_at	Slc7a5	solute carrier family 7 (cationic amino acid transporter, y+ system), member 5	ENSMUSG00000040010
8,6844	-0,91774	-7,0404	0,0002217	0,05414147	49,5677	0,0002217	1418372_at	Adsl	adenylosuccinate lyase	ENSMUSG00000022407
8,0217	0,83283	7,9019	0,0001083	0,04291729	62,4394	0,0001083	1418393_a_at	Itga7	integrin alpha 7	ENSMUSG00000025348
11,5827	-0,91931	-5,1066	0,0014664	0,09640777	26,0777	0,0014664	1418439_at	Mrpl42	mitochondrial ribosomal protein L42	ENSMUSG00000062981
6,5471	0,94996	8,1759	8,74e-05	0,0408075	66,8458	8,74e-05	1418446_at	Slc16a2	solute carrier family 16 (monocarboxylic acid transporters), member 2	ENSMUSG00000033965
7,251	-1,1852	-5,725	0,0007636	0,07845143	32,7761	0,0007636	1418459_at	Ccdc91	coiled-coil domain containing 91	ENSMUSG00000030301
9,2502	-0,78483	-5,0499	0,0015608	0,09906059	25,5016	0,0015608	1418467_at	Smarcd3	SWI/SNF related, matrix associated, actin dependent regulator of chromatin, subfamily d, member 3	ENSMUSG00000028949
5,9725	-2,34474	-5,9198	0,000628	0,07395371	35,0444	0,000628	1418492_at	Grem2	gremlin 2 homolog, cysteine knot superfamily (Xenopus laevis)	ENSMUSG00000050069
11,1296	-0,9321	-9,2883	3,88e-05	0,03318715	86,2725	3,88e-05	1418589_a_at	Mlf1	myeloid leukemia factor 1	ENSMUSG00000048416
8,1338	-0,97679	-5,0741	0,0015196	0,09805107	25,747	0,0015196	1418658_at	Rmdn1	regulator of microtubule dynamics 1	ENSMUSG00000028229
11,4984	-0,74762	-7,5064	0,0001493	0,04740556	56,3466	0,0001493	1418709_at	Cox7a1	cytochrome c oxidase subunit VIIa 1	ENSMUSG00000074218
5,5454	0,93482	5,1736	0,001363	0,09440576	26,766	0,001363	1418713_at	Pcbd1	pterin 4 alpha carbinolamine dehydratase/dimerization cofactor of hepatocyte nuclear factor 1 alpha (TCF1) 1	ENSMUSG00000020098
7,3702	-1,32852	-5,4664	0,0009972	0,08582808	29,8815	0,0009972	1418782_at	Rxrg	retinoid X receptor gamma	ENSMUSG00000015843
11,007	-0,53361	-5,2529	0,001251	0,09238633	27,5927	0,001251	1418814_s_at	Ndufa12	NADH dehydrogenase (ubiquinone) 1 alpha subcomplex, 12	ENSMUSG00000020022
8,8221	0,917	7,407	0,0001621	0,04842467	54,8636	0,0001621	1418822_a_at	Arf6	ADP-ribosylation factor 6	ENSMUSG00000044147
6,4225	-0,78362	-5,8475	0,0006749	0,07571969	34,1938	0,0006749	1418860_a_at	Letmd1	LETM1 domain containing 1	ENSMUSG00000037353
7,8258	-1,17879	-6,4947	0,0003619	0,06159847	42,1808	0,0003619	1418915_at	Mmachc	methylmalonic aciduria cblC type, with homocystinuria	ENSMUSG00000028690
8,8975	-1,04662	-6,903	0,0002501	0,05620733	47,6508	0,0002501	1418952_at	Txlnb	taxilin beta	ENSMUSG00000039891
4,8416	-0,65744	-6,3584	0,0004111	0,06420727	40,4298	0,0004111	1418955_at	Zfp93	zinc finger protein 93	ENSMUSG00000055305
7,1725	0,6607	5,5631	0,0009016	0,08330284	30,9483	0,0009016	1419028_at	Arpp21	cyclic AMP-regulated phosphoprotein, 21	ENSMUSG00000032503
7,2339	-1,18714	-7,5996	0,0001382	0,04592696	57,7534	0,0001382	1419077_at	Mpp3	membrane protein, palmitoylated 3 (MAGUK p55 subfamily member 3)	ENSMUSG00000052373
4,8752	-1,99107	-5,6489	0,0008253	0,08056539	31,91	0,0008253	1419086_at	Fgfbp1	fibroblast growth factor binding protein 1	ENSMUSG00000048373
6,676	0,78234	5,5333	0,0009299	0,08409741	30,6171	0,0009299	1419184_a_at	Fhl2	four and a half LIM domains 2	ENSMUSG00000008136
7,4134	-0,84316	-5,4534	0,0010109	0,08630513	29,7396	0,0010109	1419289_a_at	Syngr1	synaptogyrin 1	ENSMUSG00000022415
7,0885	0,91911	7,5172	0,0001479	0,04732038	56,5076	0,0001479	1419376_at	Fibin	fin bud initiation factor homolog (zebrafish)	ENSMUSG00000074971
9,661	-1,35697	-6,301	0,000434	0,06464066	39,7029	0,000434	1419421_at	Ank1	ankyrin 1, erythroid	ENSMUSG00000031543
9,751	-1,14534	-10,0584	2,32e-05	0,02856769	101,1715	2,32e-05	1419518_at	Tuba8	tubulin, alpha 8	ENSMUSG00000030137
7,3214	0,94983	6,6281	0,0003201	0,05798718	43,9318	0,0003201	1420142_s_at	Pa2g4	proliferation-associated 2G4	ENSMUSG00000025364
6,646	0,8723	5,9588	0,0006043	0,07287059	35,507	0,0006043	1420635_a_at	Tcirg1	T cell, immune regulator 1, ATPase, H+ transporting, lysosomal V0 protein A3	ENSMUSG00000001750
7,1607	-1,11885	-6,1214	0,0005155	0,06878024	37,4713	0,0005155	1420644_a_at	Sec61a2	Sec61, alpha subunit 2 (S. cerevisiae)	ENSMUSG00000025816
9,8182	0,58905	5,0525	0,0015563	0,09906059	25,5277	0,0015563	1420815_at	Gdi2	guanosine diphosphate (GDP) dissociation inhibitor 2	ENSMUSG00000021218
6,5131	0,88434	6,6364	0,0003177	0,05778048	44,0422	0,0003177	1420843_at	Ptprf	protein tyrosine phosphatase, receptor type, F	ENSMUSG00000033295
10,5112	0,62934	5,8181	0,0006951	0,07665131	33,8506	0,0006951	1420880_a_at	Ywhab	tyrosine 3-monooxygenase/tryptophan 5-monooxygenase activation protein, beta polypeptide	ENSMUSG00000018326
8,1193	0,68737	5,2573	0,0012451	0,09238633	27,6392	0,0012451	1420895_at	Tgfbr1	transforming growth factor, beta receptor I	ENSMUSG00000007613
7,2954	-1,06186	-8,372	7,53e-05	0,03858099	70,0906	7,53e-05	1420909_at	Vegfa	vascular endothelial growth factor A	ENSMUSG00000023951
7,4403	-1,16531	-8,195	8,62e-05	0,0408075	67,1583	8,62e-05	1421022_x_at	Acyp1	acylphosphatase 1, erythrocyte (common) type	ENSMUSG00000008822
9,7998	-0,85759	-7,4176	0,0001607	0,04831934	55,0201	0,0001607	1421046_a_at	Pabpc4	poly(A) binding protein, cytoplasmic 4	ENSMUSG00000011257
6,7186	-1,7061	-5,3573	0,0011189	0,08991798	28,7007	0,0011189	1421063_s_at			
8,1058	-0,90721	-5,6526	0,0008222	0,08056539	31,9517	0,0008222	1421097_at	Endog	endonuclease G	ENSMUSG00000015337
4,7659	0,568	5,1696	0,001369	0,09440576	26,7249	0,001369	1421204_a_at	Nudt16	nudix (nucleoside diphosphate linked moiety X)-type motif 16	ENSMUSG00000032565
11,3964	-0,59067	-5,3455	0,0011329	0,09010072	28,5748	0,0011329	1421374_a_at	Fxyd1	FXYD domain-containing ion transport regulator 1	ENSMUSG00000036570
6,8807	-0,70407	-5,1142	0,0014543	0,09617631	26,1547	0,0014543	1421735_a_at	St8sia5	ST8 alpha-N-acetyl-neuraminide alpha-2,8-sialyltransferase 5	ENSMUSG00000025425
8,2414	-1,21438	-5,5994	0,0008684	0,08142329	31,3536	0,0008684	1421815_at	Epdr1	ependymin related protein 1 (zebrafish)	ENSMUSG00000002808
6,5952	-0,58946	-5,474	0,0009893	0,08547554	29,9644	0,0009893	1421863_at	Vamp1	vesicle-associated membrane protein 1	ENSMUSG00000030337
9,4383	-1,20097	-6,0494	0,0005528	0,06919637	36,595	0,0005528	1422315_x_at	Phkg1	phosphorylase kinase gamma 1	ENSMUSG00000025537
5,8778	-0,88734	-7,0308	0,0002235	0,05414147	49,4327	0,0002235	1422397_a_at	Il15ra	interleukin 15 receptor, alpha chain	ENSMUSG00000023206
9,8854	-0,73977	-5,7824	0,0007205	0,07718855	33,4367	0,0007205	1422451_at	Mrps21	mitochondrial ribosomal protein S21	ENSMUSG00000054312
8,8895	-1,24624	-9,6892	2,96e-05	0,02897997	93,8805	2,96e-05	1422500_at	Idh3a	isocitrate dehydrogenase 3 (NAD+) alpha	ENSMUSG00000032279
9,6395	-1,4393	-11,7439	8,4e-06	0,02177611	137,9188	8,4e-06	1422501_s_at	Idh3a	isocitrate dehydrogenase 3 (NAD+) alpha	ENSMUSG00000032279
7,1876	-0,74381	-5,7839	0,0007195	0,07718855	33,4535	0,0007195	1422544_at	Myo10	myosin X	ENSMUSG00000022272
7,0615	-0,96612	-7,2864	0,0001794	0,05040791	53,0923	0,0001794	1422589_at	Rab3a	RAB3A, member RAS oncogene family	ENSMUSG00000031840
9,8759	-0,56644	-5,3426	0,0011364	0,09010072	28,5438	0,0011364	1422654_at	Sgca	sarcoglycan, alpha (dystrophin-associated glycoprotein)	ENSMUSG00000001508
9,2311	-0,79855	-5,546	0,0009177	0,08370016	30,7583	0,0009177	1422754_at	Tmod1	tropomodulin 1	ENSMUSG00000028328
5,8026	-2,24282	-5,2841	0,0012098	0,09238633	27,9212	0,0012098	1422798_at	Cntnap2	contactin associated protein-like 2	ENSMUSG00000039419
8,9201	-2,10186	-9,0324	4,64e-05	0,03368589	81,5844	4,64e-05	1422852_at	Cib2	calcium and integrin binding family member 2	ENSMUSG00000037493
10,0628	-1,28035	-5,4999	0,0009629	0,08521466	30,2486	0,0009629	1422879_at	Sypl	synaptophysin-like protein	ENSMUSG00000020570
7,6979	-1,49121	-6,0837	0,0005347	0,06893485	37,0109	0,0005347	1422919_at	Hrasls	HRAS-like suppressor	ENSMUSG00000022525
9,2138	0,63144	5,626	0,0008449	0,08056539	31,6519	0,0008449	1423050_s_at	Hnrnpu	heterogeneous nuclear ribonucleoprotein U	ENSMUSG00000039630
10,1402	-1,02587	-7,146	0,0002023	0,05126355	51,0648	0,0002023	1423106_at	Ube2b	ubiquitin-conjugating enzyme E2B	ENSMUSG00000020390
9,2959	-0,92445	-7,1819	0,0001962	0,05115001	51,5802	0,0001962	1423242_at	Mrps36	mitochondrial ribosomal protein S36	ENSMUSG00000061474
4,9757	-1,81085	-11,6203	9e-06	0,02177611	135,0304	9e-06	1423328_at	Gdap1	ganglioside-induced differentiation-associated-protein 1	ENSMUSG00000025777
8,9413	-0,62872	-5,3957	0,0010743	0,0885879	29,1132	0,0010743	1423583_at	Fem1a	feminization 1 homolog a (C. elegans)	ENSMUSG00000043683
6,1545	-0,83299	-5,2687	0,00123	0,09238633	27,7588	0,00123	1423611_at	Alpl	alkaline phosphatase, liver/bone/kidney	ENSMUSG00000028766
10,3435	-0,78622	-5,2625	0,0012381	0,09238633	27,6939	0,0012381	1423670_a_at	Srpr	signal recognition particle receptor ('docking protein')	ENSMUSG00000032042
6,2973	0,70628	5,5367	0,0009266	0,08409741	30,655	0,0009266	1423682_a_at	Cdca4	cell division cycle associated 4	ENSMUSG00000047832
11,4359	-0,62285	-5,3207	0,0011633	0,09122692	28,3102	0,0011633	1423692_at	Ndufa8	NADH dehydrogenase (ubiquinone) 1 alpha subcomplex, 8	ENSMUSG00000026895
6,6744	-0,69406	-5,7938	0,0007123	0,07718855	33,5686	0,0007123	1423713_at	Abcb8	ATP-binding cassette, sub-family B (MDR/TAP), member 8	ENSMUSG00000028973
8,4611	0,6964	6,0964	0,0005281	0,06893485	37,1661	0,0005281	1423917_a_at	Cttn	cortactin	ENSMUSG00000031078
8,9963	-0,66043	-5,7559	0,0007401	0,07732036	33,1298	0,0007401	1423942_a_at	Camk2g	calcium/calmodulin-dependent protein kinase II gamma	ENSMUSG00000021820
6,3202	-0,9315	-5,7513	0,0007435	0,07732036	33,078	0,0007435	1423966_at	Cd99l2	CD99 antigen-like 2	ENSMUSG00000035776
9,0925	-0,9413	-6,8954	0,0002518	0,05620733	47,5469	0,0002518	1424126_at	Alas1	aminolevulinic acid synthase 1	ENSMUSG00000032786
10,7557	-1,80509	-6,7285	0,0002923	0,05706418	45,2726	0,0002923	1424151_at	Aimp2	aminoacyl tRNA synthetase complex-interacting multifunctional protein 2	ENSMUSG00000029610
10,0418	-1,18073	-5,1246	0,0014378	0,09573654	26,2617	0,0014378	1424178_at	Tmem38a	transmembrane protein 38A	ENSMUSG00000031791
8,1996	-1,0566	-9,151	4,27e-05	0,03318715	83,7411	4,27e-05	1424223_at	Mtfp1	mitochondrial fission process 1	ENSMUSG00000004748
5,8409	-1,39098	-6,1705	0,0004916	0,06780035	38,0752	0,0004916	1424226_at	9030617O03Rik	RIKEN cDNA 9030617O03 gene	ENSMUSG00000021185
5,2273	0,9165	5,8548	0,00067	0,07559444	34,2789	0,00067	1424248_at	Arpp21	cyclic AMP-regulated phosphoprotein, 21	ENSMUSG00000032503
8,255	-2,49857	-10,0016	2,41e-05	0,02856769	100,0325	2,41e-05	1424268_at	Smox	spermine oxidase	ENSMUSG00000027333
9,5644	-1,02891	-5,6165	0,0008532	0,08084133	31,5454	0,0008532	1424318_at	Lgalsl	lectin, galactoside binding-like	ENSMUSG00000042363
8,7348	-1,83044	-5,58	0,0008859	0,08255489	31,1368	0,0008859	1424362_at	Ppapdc3	phosphatidic acid phosphatase type 2 domain containing 3	ENSMUSG00000051373
6,461	-1,25149	-5,7912	0,0007142	0,07718855	33,5374	0,0007142	1424433_at	Msrb2	methionine sulfoxide reductase B2	ENSMUSG00000023094
5,9744	0,84284	5,1601	0,0013832	0,09456304	26,6263	0,0013832	1424474_a_at	Camkk2	calcium/calmodulin-dependent protein kinase kinase 2, beta	ENSMUSG00000029471
7,5631	0,78946	7,5874	0,0001396	0,04592696	57,5685	0,0001396	1424516_at	B230354K17Rik	RIKEN cDNA B230354K17 gene	
7,546	0,82952	5,6466	0,0008272	0,08056539	31,8843	0,0008272	1424524_at	Dram1	DNA-damage regulated autophagy modulator 1	ENSMUSG00000020057
9,4638	-0,83903	-6,3776	0,0004037	0,06411369	40,6734	0,0004037	1424531_a_at	Tcea3	transcription elongation factor A (SII), 3	ENSMUSG00000001604
10,5191	0,6535	5,4508	0,0010136	0,08630513	29,7115	0,0010136	1424596_s_at	Lmcd1	LIM and cysteine-rich domains 1	ENSMUSG00000057604
11,6011	-0,59415	-5,5001	0,0009627	0,08521466	30,2509	0,0009627	1424628_a_at	Ndufv3	NADH dehydrogenase (ubiquinone) flavoprotein 3	ENSMUSG00000024038
8,0202	-0,63724	-5,0425	0,0015735	0,09906059	25,4273	0,0015735	1424661_at	Pmpca	peptidase (mitochondrial processing) alpha	ENSMUSG00000026926
6,9543	-1,85605	-5,9366	0,0006177	0,07335642	35,2428	0,0006177	1424735_at	Slc25a25	solute carrier family 25 (mitochondrial carrier, phosphate carrier), member 25	ENSMUSG00000026819
9,6893	-1,36927	-8,1504	8,92e-05	0,04102091	66,4295	8,92e-05	1425164_a_at	Phkg1	phosphorylase kinase gamma 1	ENSMUSG00000025537
6,5361	-0,61707	-5,0418	0,0015748	0,09906059	25,4197	0,0015748	1425226_x_at			
7,2163	-1,55009	-6,1804	0,0004869	0,06757187	38,1973	0,0004869	1425344_at	Narf	nuclear prelamin A recognition factor	ENSMUSG00000000056
6,2385	-2,45548	-5,2825	0,0012119	0,09238633	27,9046	0,0012119	1425382_a_at	Aqp4	aquaporin 4	ENSMUSG00000024411
5,3563	-0,70649	-5,2017	0,0013221	0,09375407	27,0578	0,0013221	1425396_a_at	Lck	lymphocyte protein tyrosine kinase	ENSMUSG00000000409
8,75	-1,58068	-11,3372	1,06e-05	0,02177611	128,5311	1,06e-05	1425439_a_at	Slc41a3	solute carrier family 41, member 3	ENSMUSG00000030089
5,8751	-1,05477	-5,5043	0,0009584	0,08521466	30,2971	0,0009584	1425440_x_at	Slc41a3	solute carrier family 41, member 3	ENSMUSG00000030089
6,2091	0,90575	6,2419	0,0004591	0,06596037	38,9614	0,0004591	1425603_at	Tmem176a	transmembrane protein 176A	ENSMUSG00000023367
6,2544	0,56224	5,4926	0,0009702	0,08521466	30,1684	0,0009702	1426012_a_at	Ccar2	cell cycle activator and apoptosis regulator 2	ENSMUSG00000033712
9,1154	-1,04462	-7,7491	0,0001224	0,04498241	60,0483	0,0001224	1426043_a_at	Capn3	calpain 3	ENSMUSG00000079110
9,0238	-0,75356	-6,777	0,0002798	0,05633803	45,9272	0,0002798	1426108_s_at	Cacnb1	calcium channel, voltage-dependent, beta 1 subunit	ENSMUSG00000020882
8,6766	-0,84463	-6,0182	0,00057	0,07043088	36,2182	0,00057	1426258_at	Sorl1	sortilin-related receptor, LDLR class A repeats-containing	ENSMUSG00000049313
7,9513	-1,59019	-5,7638	0,0007342	0,07732036	33,2217	0,0007342	1426285_at	Lama2	laminin, alpha 2	ENSMUSG00000019899
5,8005	0,58181	5,3278	0,0011545	0,09087174	28,3858	0,0011545	1426293_at	Zfp790	zinc finger protein 790	ENSMUSG00000011427
7,0339	-0,69978	-5,9085	0,0006351	0,07409615	34,9109	0,0006351	1426474_at	Atpaf2	ATP synthase mitochondrial F1 complex assembly factor 2	ENSMUSG00000042709
10,0661	-0,68641	-5,4503	0,0010142	0,08630513	29,7054	0,0010142	1426586_at	Slc25a11	solute carrier family 25 (mitochondrial carrier oxoglutarate carrier), member 11	ENSMUSG00000014606
7,3055	-0,83427	-5,279	0,0012164	0,09238633	27,8682	0,0012164	1426590_at	Gfm2	G elongation factor, mitochondrial 2	ENSMUSG00000021666
7,4476	-0,6524	-5,8828	0,0006516	0,07496685	34,6071	0,0006516	1426651_at	Mrpl44	mitochondrial ribosomal protein L44	ENSMUSG00000026248
8,8129	-0,61174	-5,3177	0,0011671	0,09122692	28,2774	0,0011671	1426719_at	Apbb2	amyloid beta (A4) precursor protein-binding, family B, member 2	ENSMUSG00000029207
6,6122	-1,21823	-6,681	0,0003051	0,05738029	44,6364	0,0003051	1426729_at	Fam131a	family with sequence similarity 131, member A	ENSMUSG00000050821
6,9465	0,70745	5,2992	0,0011903	0,09190737	28,0819	0,0011903	1426784_at	Trim47	tripartite motif-containing 47	ENSMUSG00000020773
7,1397	-2,24922	-7,9253	0,0001063	0,04291729	62,8109	0,0001063	1426850_a_at	Map2k6	mitogen-activated protein kinase kinase 6	ENSMUSG00000020623
9,7348	0,67662	5,3955	0,0010744	0,0885879	29,1118	0,0010744	1426854_a_at	Set	SET nuclear oncogene	ENSMUSG00000054766
8,6588	-0,57878	-5,4356	0,00103	0,08693904	29,5454	0,00103	1426916_at	Scrn3	secernin 3	ENSMUSG00000008226
7,3468	0,71728	5,123	0,0014404	0,09573654	26,2448	0,0014404	1426956_a_at	Trp53bp1	transformation related protein 53 binding protein 1	ENSMUSG00000043909
6,704	-0,69869	-5,4808	0,0009822	0,08521466	30,0397	0,0009822	1427080_at	Tti1	TELO2 interacting protein 1	ENSMUSG00000027650
8,3775	-2,42645	-15,4489	1,4e-06	0,00844934	238,6684	1,4e-06	1427329_a_at	Ighm	immunoglobulin heavy constant mu	
4,9991	-1,34914	-7,7292	0,0001244	0,04498241	59,7412	0,0001244	1427482_a_at	Car8	carbonic anhydrase 8	ENSMUSG00000041261
5,8706	-0,80955	-5,1717	0,0013658	0,09440576	26,7466	0,0013658	1427736_a_at	Ccrl2	chemokine (C-C motif) receptor-like 2	ENSMUSG00000043953
10,3644	-0,69809	-6,5126	0,000356	0,0610759	42,4142	0,000356	1427878_at	Cystm1	cysteine-rich transmembrane module containing 1	ENSMUSG00000046727
6,335	0,9382	5,5327	0,0009305	0,08409741	30,6112	0,0009305	1427912_at	Cbr3	carbonyl reductase 3	ENSMUSG00000022947
5,2679	-0,84234	-7,1532	0,0002011	0,05126355	51,1686	0,0002011	1427922_at	Cmc2	COX assembly mitochondrial protein 2	ENSMUSG00000014633
10,4479	-1,06994	-5,1177	0,0014487	0,09594129	26,1912	0,0014487	1427943_at	Acyp2	acylphosphatase 2, muscle type	ENSMUSG00000060923
7,6511	0,92375	8,6235	6,24e-05	0,03624514	74,3656	6,24e-05	1427966_at	Fam105b	family with sequence similarity 105, member B	ENSMUSG00000046034
11,9311	-0,67126	-5,6011	0,0008669	0,08142329	31,372	0,0008669	1428159_s_at	Ndufab1	NADH dehydrogenase (ubiquinone) 1, alpha/beta subcomplex, 1	ENSMUSG00000030869
12,0521	-0,85718	-5,2522	0,001252	0,09238633	27,5854	0,001252	1428163_at	Sar1b	SAR1 gene homolog B (S. cerevisiae)	ENSMUSG00000020386
11,3922	-0,86919	-5,1296	0,0014299	0,09573654	26,3132	0,0014299	1428183_at	Ankrd23	ankyrin repeat domain 23	ENSMUSG00000067653
9,5816	-1,4411	-6,1496	0,0005016	0,068751	37,818	0,0005016	1428323_at	Gpd2	glycerol phosphate dehydrogenase 2, mitochondrial	ENSMUSG00000026827
5,9287	-1,29627	-8,5383	6,64e-05	0,03689001	72,9031	6,64e-05	1428357_at	Tdrp	testis development related protein	ENSMUSG00000050052
5,7665	-1,08643	-5,2129	0,0013062	0,09358413	27,1744	0,0013062	1428430_at	Rgmb	repulsive guidance molecule family member B	ENSMUSG00000048027
12,1512	-0,52926	-5,0813	0,0015078	0,09770678	25,8191	0,0015078	1428464_at	Ndufa3	NADH dehydrogenase (ubiquinone) 1 alpha subcomplex, 3	ENSMUSG00000035674
9,7302	-0,60473	-5,7637	0,0007343	0,07732036	33,2203	0,0007343	1428489_at	Zcrb1	zinc finger CCHC-type and RNA binding motif 1	ENSMUSG00000022635
7,1867	-0,67861	-5,2865	0,0012067	0,09238633	27,9466	0,0012067	1428515_at	Zswim7	zinc finger SWIM-type containing 7	ENSMUSG00000014243
7,7519	-1,31794	-8,0105	9,94e-05	0,04263702	64,1681	9,94e-05	1428519_at	Cmss1	cms small ribosomal subunit 1	ENSMUSG00000022748
6,0054	-2,40467	-7,882	0,0001101	0,04316548	62,1254	0,0001101	1428536_at	Kcng4	potassium voltage-gated channel, subfamily G, member 4	ENSMUSG00000045246
8,8206	-0,82979	-5,3852	0,0010862	0,08885191	29,0007	0,0010862	1428556_at	Pyurf	Pigy upstream reading frame	c(ENSMUSG00000098753, ENSMUSG00000043162)
8,6345	-1,04267	-6,6164	0,0003236	0,05809988	43,777	0,0003236	1428695_at	Sdr39u1	short chain dehydrogenase/reductase family 39U, member 1	ENSMUSG00000022223
5,7697	-0,83166	-5,9036	0,0006382	0,07418412	34,8529	0,0006382	1428699_at			
6,4839	0,83062	5,5584	0,000906	0,08339371	30,8954	0,000906	1428758_at	Tmem86a	transmembrane protein 86A	ENSMUSG00000010307
6,299	0,65895	5,0779	0,0015133	0,09779269	25,7853	0,0015133	1428774_at	Gpc6	glypican 6	ENSMUSG00000058571
5,4845	0,7845	6,1413	0,0005056	0,068751	37,715	0,0005056	1428902_at	Chst11	carbohydrate sulfotransferase 11	ENSMUSG00000034612
7,689	0,90112	5,8591	0,0006672	0,07559444	34,3292	0,0006672	1428937_at	Atp2b1	ATPase, Ca++ transporting, plasma membrane 1	ENSMUSG00000019943
6,9557	-1,95938	-8,2607	8,19e-05	0,04016	68,2394	8,19e-05	1428991_at	Hrasls	HRAS-like suppressor	ENSMUSG00000022525
6,2336	0,59481	5,4625	0,0010013	0,08585579	29,8384	0,0010013	1429022_at	Adcyap1r1	adenylate cyclase activating polypeptide 1 receptor 1	ENSMUSG00000029778
7,1569	0,60896	5,3446	0,001134	0,09010072	28,5653	0,001134	1429044_at	Camsap2	calmodulin regulated spectrin-associated protein family, member 2	ENSMUSG00000041570
7,9502	-0,8187	-5,6426	0,0008306	0,08056539	31,8392	0,0008306	1429141_at	Neurl2	neuralized-like 2 (Drosophila)	ENSMUSG00000039873
9,7746	-1,31598	-6,0604	0,0005469	0,06917096	36,7287	0,0005469	1429144_at	Gpcpd1	glycerophosphocholine phosphodiesterase GDE1 homolog (S. cerevisiae)	ENSMUSG00000027346
8,1287	-0,86181	-6,8939	0,0002521	0,05620733	47,5262	0,0002521	1429188_at	Cox11	cytochrome c oxidase assembly protein 11	ENSMUSG00000020544
7,7871	-1,18623	-8,415	7,29e-05	0,03858099	70,8117	7,29e-05	1429213_at	Ndufaf6	NADH dehydrogenase (ubiquinone) complex I, assembly factor 6	ENSMUSG00000050323
10,0587	-0,79234	-5,7047	0,0007796	0,07871657	32,5432	0,0007796	1429223_a_at	Hfe2	hemochromatosis type 2 (juvenile) (human homolog)	ENSMUSG00000038403
6,187	-0,79599	-6,4042	0,0003938	0,06365091	41,0142	0,0003938	1429260_at			
6,0947	0,52392	5,0836	0,0015039	0,09759446	25,8431	0,0015039	1429281_at	2610008E11Rik	RIKEN cDNA 2610008E11 gene	ENSMUSG00000060301
5,755	-0,72952	-5,2966	0,0011936	0,09190737	28,0543	0,0011936	1429317_at	Qrsl1	glutaminyl-tRNA synthase (glutamine-hydrolyzing)-like 1	ENSMUSG00000019863
6,7545	0,78163	5,3092	0,0011776	0,09157361	28,1881	0,0011776	1429383_at	Csnk1g3	casein kinase 1, gamma 3	ENSMUSG00000073563
3,4249	0,68204	5,6867	0,000794	0,07940605	32,3382	0,000794	1429663_at	Katnal2	katanin p60 subunit A-like 2	ENSMUSG00000025420
10,8057	-1,22753	-6,6904	0,0003025	0,05738029	44,7617	0,0003025	1429681_a_at	Tecr	trans-2,3-enoyl-CoA reductase	ENSMUSG00000031708
8,4262	-0,74489	-5,4704	0,000993	0,0856322	29,9253	0,000993	1429723_at	Spryd7	SPRY domain containing 7	ENSMUSG00000021930
6,1778	-1,02603	-5,877	0,0006553	0,07501668	34,5392	0,0006553	1429819_at	Nmnat1	nicotinamide nucleotide adenylyltransferase 1	ENSMUSG00000028992
8,4122	-0,86895	-5,1224	0,0014413	0,09573654	26,2388	0,0014413	1429830_a_at	Cd59a	CD59a antigen	ENSMUSG00000032679
3,8988	0,65879	5,2404	0,0012679	0,09268335	27,4619	0,0012679	1430163_at	Rab43	RAB43, member RAS oncogene family	ENSMUSG00000030055
6,6987	-1,26045	-5,2696	0,0012288	0,09238633	27,7684	0,0012288	1430176_at	Kbtbd13	kelch repeat and BTB (POZ) domain containing 13	ENSMUSG00000054978
4,5572	-1,09684	-5,754	0,0007416	0,07732036	33,108	0,0007416	1430177_at	Ube2b	ubiquitin-conjugating enzyme E2B	ENSMUSG00000020390
3,9191	0,70065	5,3772	0,0010954	0,08885733	28,9148	0,0010954	1430353_at	Glis3	GLIS family zinc finger 3	ENSMUSG00000052942
6,4387	0,59651	5,2742	0,0012226	0,09238633	27,8175	0,0012226	1430554_at	Lrig3	leucine-rich repeats and immunoglobulin-like domains 3	ENSMUSG00000020105
6,9959	0,94703	8,6281	6,22e-05	0,03624514	74,4441	6,22e-05	1430978_at	Rps25	ribosomal protein S25	ENSMUSG00000009927
5,6788	-0,8919	-5,8052	0,0007042	0,07700568	33,7006	0,0007042	1431084_x_at	1810014B01Rik	RIKEN cDNA 1810014B01 gene	
7,7819	-0,58858	-5,2618	0,001239	0,09238633	27,687	0,001239	1431126_a_at	0610011F06Rik	RIKEN cDNA 0610011F06 gene	ENSMUSG00000025731
7,3603	-2,09719	-5,0905	0,0014925	0,0974672	25,9136	0,0014925	1431197_at	Atl2	atlastin GTPase 2	ENSMUSG00000059811
5,4635	-1,1925	-6,2487	0,0004561	0,06592906	39,0466	0,0004561	1431199_at	Ggnbp1	gametogenetin binding protein 1	ENSMUSG00000048731
8,4576	-0,90112	-5,2805	0,0012144	0,09238633	27,8838	0,0012144	1431335_a_at	Wfdc1	WAP four-disulfide core domain 1	ENSMUSG00000023336
6,1744	-1,03405	-5,8598	0,0006667	0,07559444	34,3371	0,0006667	1431422_a_at	Dusp14	dual specificity phosphatase 14	ENSMUSG00000018648
5,2295	-1,38421	-6,128	0,0005122	0,068751	37,5518	0,0005122	1431572_at	2310015K22Rik	RIKEN cDNA 2310015K22 gene	
11,5811	-0,8785	-5,7427	0,0007501	0,07777006	32,9782	0,0007501	1432016_a_at	Idh3a	isocitrate dehydrogenase 3 (NAD+) alpha	ENSMUSG00000032279
7,7247	-2,13068	-11,4519	9,9e-06	0,02177611	131,1459	9,9e-06	1432107_at	Smco1	single-pass membrane protein with coiled-coil domains 1	ENSMUSG00000046345
8,5221	-1,27104	-7,0885	0,0002126	0,05327145	50,2472	0,0002126	1432420_a_at	2310002L09Rik	RIKEN cDNA 2310002L09 gene	ENSMUSG00000028396
6,003	-1,24394	-8,2336	8,36e-05	0,0405623	67,7918	8,36e-05	1432562_at	Sox6os	SRY (sex determining region Y)-box 6, opposite strand	
9,5494	0,74476	6,8764	0,000256	0,05620733	47,2854	0,000256	1433428_x_at	Tgm2	transglutaminase 2, C polypeptide	ENSMUSG00000037820
5,8059	-1,45982	-6,0988	0,0005269	0,06893485	37,1949	0,0005269	1433487_at	Clcn3	chloride channel 3	ENSMUSG00000004319
9,244	-0,83954	-7,4884	0,0001515	0,04745242	56,0755	0,0001515	1433509_s_at	Reep1	receptor accessory protein 1	ENSMUSG00000052852
8,8907	-0,89315	-8,5898	6,4e-05	0,03624514	73,7848	6,4e-05	1433544_at	Stradb	STE20-related kinase adaptor beta	ENSMUSG00000026027
8,1041	-0,86676	-5,1451	0,001406	0,09528875	26,472	0,001406	1433545_s_at	Acad11	acyl-Coenzyme A dehydrogenase family, member 11	ENSMUSG00000090150
4,923	0,74592	5,3032	0,0011853	0,09169575	28,1237	0,0011853	1433653_at	Fam20a	family with sequence similarity 20, member A	ENSMUSG00000020614
7,2275	-0,96815	-5,8363	0,0006825	0,07581895	34,063	0,0006825	1433657_at	Fam78a	family with sequence similarity 78, member A	ENSMUSG00000050592
7,7266	0,91785	5,4091	0,0010591	0,08813234	29,2584	0,0010591	1433675_at	Snhg1	small nucleolar RNA host gene (non-protein coding) 1	
11,5392	-0,85321	-6,3254	0,0004241	0,06464066	40,0101	0,0004241	1433720_s_at	Chchd10	coiled-coil-helix-coiled-coil-helix domain containing 10	ENSMUSG00000049422
6,3454	-1,02076	-6,283	0,0004415	0,06503948	39,476	0,0004415	1433727_at	Glb1l2	galactosidase, beta 1-like 2	ENSMUSG00000036395
5,0978	-1,36136	-9,2359	4,02e-05	0,03318715	85,301	4,02e-05	1433728_at	Glb1l2	galactosidase, beta 1-like 2	ENSMUSG00000036395
5,8056	0,87875	5,7531	0,0007422	0,07732036	33,098	0,0007422	1433756_at	S100pbp	S100P binding protein	ENSMUSG00000040928
7,3123	0,91019	7,3022	0,0001771	0,05022664	53,322	0,0001771	1433857_at	Fat1	FAT tumor suppressor homolog 1 (Drosophila)	ENSMUSG00000070047
7,4175	0,70433	5,8776	0,000655	0,07501668	34,5463	0,000655	1433895_at	Tmem127	transmembrane protein 127	ENSMUSG00000034850
8,998	0,76776	5,2121	0,0013072	0,09358413	27,1664	0,0013072	1433908_a_at	Cttn	cortactin	ENSMUSG00000031078
9,9084	-0,94852	-5,2589	0,0012429	0,09238633	27,6563	0,0012429	1434008_at	Scn4b	sodium channel, type IV, beta	ENSMUSG00000046480
10,8617	-0,68175	-6,0615	0,0005464	0,06917096	36,7416	0,0005464	1434057_at	Ndufb6	NADH dehydrogenase (ubiquinone) 1 beta subcomplex, 6	ENSMUSG00000071014
8,3178	-0,89222	-5,565	0,0008998	0,08330284	30,9692	0,0008998	1434135_at	B3galnt2	UDP-GalNAc:betaGlcNAc beta 1,3-galactosaminyltransferase, polypeptide 2	ENSMUSG00000039242
9,381	-1,1557	-6,1368	0,0005078	0,068751	37,6601	0,0005078	1434340_at	Uqcr10	ubiquinol-cytochrome c reductase, complex III subunit X	ENSMUSG00000059534
8,1289	-2,4216	-10,0106	2,39e-05	0,02856769	100,2119	2,39e-05	1434449_at	Aqp4	aquaporin 4	ENSMUSG00000024411
10,4886	0,7294	7,2684	0,0001822	0,05040791	52,829	0,0001822	1434503_s_at			
8,0167	-0,81433	-5,6316	0,0008401	0,08056539	31,7147	0,0008401	1434516_at	Pstk	phosphoseryl-tRNA kinase	ENSMUSG00000063179
7,6399	-1,02614	-7,9129	0,0001074	0,04291729	62,6135	0,0001074	1434537_at	Slco3a1	solute carrier organic anion transporter family, member 3a1	ENSMUSG00000025790
7,6067	-0,83372	-6,3501	0,0004143	0,06420727	40,3243	0,0004143	1434553_at	Tmem56	transmembrane protein 56	ENSMUSG00000028132
6,7231	-1,10059	-10,9495	1,33e-05	0,0224951	119,8926	1,33e-05	1434592_at	Slc16a10	solute carrier family 16 (monocarboxylic acid transporters), member 10	ENSMUSG00000019838
6,5813	0,95838	5,1361	0,0014199	0,09573654	26,379	0,0014199	1434606_at	Erbb3	v-erb-b2 erythroblastic leukemia viral oncogene homolog 3 (avian)	ENSMUSG00000018166
7,9042	-0,91521	-6,2299	0,0004644	0,06596037	38,8119	0,0004644	1434611_at	Rnf123	ring finger protein 123	ENSMUSG00000041528
7,1189	0,80669	5,4529	0,0010114	0,08630513	29,7338	0,0010114	1434620_s_at	Fam13b	family with sequence similarity 13, member B	ENSMUSG00000036501
8,6995	0,74127	6,0876	0,0005326	0,06893485	37,0594	0,0005326	1434642_at	Hsd17b11	hydroxysteroid (17-beta) dehydrogenase 11	ENSMUSG00000029311
6,5369	-2,0478	-7,8414	0,0001137	0,04382096	61,4878	0,0001137	1434647_at	Egflam	EGF-like, fibronectin type III and laminin G domains	ENSMUSG00000042961
11,8935	-1,0652	-5,8014	0,0007069	0,07700568	33,6568	0,0007069	1434722_at	Ampd1	adenosine monophosphate deaminase 1	ENSMUSG00000070385
7,9115	-0,89571	-5,6087	0,0008601	0,08106004	31,4572	0,0008601	1434738_at	Tarsl2	threonyl-tRNA synthetase-like 2	ENSMUSG00000030515
6,1963	0,94411	5,2523	0,0012519	0,09238633	27,5863	0,0012519	1434740_at	Scarf2	scavenger receptor class F, member 2	ENSMUSG00000012017
6,4555	0,88173	5,5949	0,0008725	0,08163633	31,3027	0,0008725	1434754_at	Rap1gap2	RAP1 GTPase activating protein 2	ENSMUSG00000038807
4,9307	0,71283	5,6456	0,0008281	0,08056539	31,873	0,0008281	1434788_at	Fzd3	frizzled homolog 3 (Drosophila)	ENSMUSG00000007989
5,3481	0,74347	5,0292	0,0015969	0,09986454	25,2932	0,0015969	1434809_at	Arhgap28	Rho GTPase activating protein 28	ENSMUSG00000024043
8,4886	0,80938	5,7851	0,0007186	0,07718855	33,467	0,0007186	1434828_at	Fam102b	family with sequence similarity 102, member B	ENSMUSG00000040339
8,6309	-0,82062	-5,3395	0,0011403	0,09022542	28,5098	0,0011403	1434918_at	Sox6	SRY (sex determining region Y)-box 6	ENSMUSG00000051910
8,2883	-0,90219	-5,2094	0,0013112	0,09370052	27,1376	0,0013112	1434934_at	Atpaf1	ATP synthase mitochondrial F1 complex assembly factor 1	ENSMUSG00000028710
7,6615	-0,95882	-6,2185	0,0004695	0,06596037	38,6694	0,0004695	1435081_at	Sypl	synaptophysin-like protein	ENSMUSG00000020570
8,6706	-0,9716	-5,0298	0,0015959	0,09986454	25,2987	0,0015959	1435127_a_at	Osgepl1	O-sialoglycoprotein endopeptidase-like 1	ENSMUSG00000026096
9,7494	-1,02223	-7,1835	0,0001959	0,05115001	51,6031	0,0001959	1435148_at	Atp1b2	ATPase, Na+/K+ transporting, beta 2 polypeptide	ENSMUSG00000041329
6,884	0,90894	6,8088	0,0002719	0,05625977	46,3599	0,0002719	1435222_at	Foxp1	forkhead box P1	ENSMUSG00000030067
8,2001	-0,96669	-6,2205	0,0004685	0,06596037	38,6952	0,0004685	1435228_at	BC023829	cDNA sequence BC023829	ENSMUSG00000073139
5,707	0,63697	5,4854	0,0009776	0,08521466	30,0893	0,0009776	1435253_at	Rab11b	RAB11B, member RAS oncogene family	ENSMUSG00000077450
8,1637	-1,14545	-8,7276	5,78e-05	0,03620661	76,1702	5,78e-05	1435261_at	Tmtc1	transmembrane and tetratricopeptide repeat containing 1	ENSMUSG00000030306
6,6369	0,9157	6,7212	0,0002942	0,05719513	45,1741	0,0002942	1435284_at	Rtn4	reticulon 4	ENSMUSG00000020458
6,0895	0,69051	5,2138	0,001305	0,09358413	27,1832	0,001305	1435337_at	Tshz3	teashirt zinc finger family member 3	ENSMUSG00000021217
8,0941	-0,74107	-6,3567	0,0004117	0,06420727	40,4079	0,0004117	1435339_at	Kctd15	potassium channel tetramerisation domain containing 15	ENSMUSG00000030499
7,2634	0,93013	5,8017	0,0007067	0,07700568	33,6591	0,0007067	1435341_at	Ppig	peptidyl-prolyl isomerase G (cyclophilin G)	ENSMUSG00000042133
6,5479	0,82254	5,4442	0,0010207	0,08669557	29,639	0,0010207	1435343_at	Dock10	dedicator of cytokinesis 10	ENSMUSG00000038608
6,3611	-1,21259	-6,067	0,0005434	0,06917096	36,8089	0,0005434	1435384_at			
8,392	0,73387	5,5727	0,0008927	0,08301252	31,0549	0,0008927	1435394_s_at	Rhoc	ras homolog gene family, member C	ENSMUSG00000002233
8,4432	-1,13705	-10,6475	1,6e-05	0,02330734	113,3691	1,6e-05	1435417_at	AI464131	expressed sequence AI464131	ENSMUSG00000046312
5,8662	0,72288	5,4357	0,0010299	0,08693904	29,5463	0,0010299	1435498_at	Arfip2	ADP-ribosylation factor interacting protein 2	ENSMUSG00000030881
7,0268	-0,84212	-5,8428	0,0006782	0,07577554	34,1379	0,0006782	1435551_at	Fhod3	formin homology 2 domain containing 3	ENSMUSG00000034295
5,2645	-1,37658	-6,2547	0,0004535	0,06592906	39,1208	0,0004535	1435574_at			
7,6628	-0,90834	-5,5174	0,0009454	0,08493884	30,4418	0,0009454	1435716_x_at			
8,46	0,8437	6,4538	0,0003759	0,06224958	41,6518	0,0003759	1435777_at	Itpripl2	inositol 1,4,5-triphosphate receptor interacting protein-like 2	ENSMUSG00000095115
8,6132	-0,95748	-6,0855	0,0005337	0,06893485	37,0335	0,0005337	1435787_at	Ppm1l	protein phosphatase 1 (formerly 2C)-like	ENSMUSG00000027784
11,1684	0,64721	5,1444	0,0014071	0,09528875	26,4645	0,0014071	1435898_x_at	Gdi2	guanosine diphosphate (GDP) dissociation inhibitor 2	ENSMUSG00000021218
5,1052	-1,17559	-5,5347	0,0009286	0,08409741	30,6328	0,0009286	1435911_s_at	Slc2a12	solute carrier family 2 (facilitated glucose transporter), member 12	ENSMUSG00000037490
6,4018	0,63641	5,6439	0,0008296	0,08056539	31,8531	0,0008296	1435985_at			
10,7753	0,7901	7,6462	0,0001331	0,04592696	58,465	0,0001331	1436016_x_at	Gdi2	guanosine diphosphate (GDP) dissociation inhibitor 2	ENSMUSG00000021218
8,1798	0,94228	8,4225	7,25e-05	0,03858099	70,9393	7,25e-05	1436029_at			
6,3438	0,93338	5,324	0,0011593	0,0910867	28,3447	0,0011593	1436051_at	Myo5a	myosin VA	ENSMUSG00000034593
6,2837	-0,9352	-5,9333	0,0006197	0,07335642	35,2041	0,0006197	1436168_at	C730029A08Rik	RIKEN cDNA C730029A08 gene	
6,7876	-0,95312	-5,1724	0,0013649	0,09440576	26,7532	0,0013649	1436187_at	1110054M08Rik	RIKEN cDNA 1110054M08 gene	
8,3468	-1,00882	-5,3424	0,0011367	0,09010072	28,5413	0,0011367	1436344_at	C2cd2	C2 calcium-dependent domain containing 2	ENSMUSG00000045975
9,0035	-0,73556	-5,0319	0,0015921	0,09986454	25,3201	0,0015921	1436367_at	Ptprb	protein tyrosine phosphatase, receptor type, B	ENSMUSG00000020154
6,6423	-1,17795	-5,2193	0,0012972	0,09345787	27,2409	0,0012972	1436387_at			
6,79	0,59386	5,6102	0,0008588	0,08106004	31,4747	0,0008588	1436389_at			
7,3945	-1,34462	-6,8564	0,0002606	0,05620733	47,0108	0,0002606	1436440_at	Slc25a12	solute carrier family 25 (mitochondrial carrier, Aralar), member 12	ENSMUSG00000027010
7,5333	-1,68242	-7,2254	0,000189	0,05104548	52,2061	0,000189	1436501_at	Mtus1	mitochondrial tumor suppressor 1	ENSMUSG00000045636
6,6413	-1,46955	-5,7519	0,0007431	0,07732036	33,0843	0,0007431	1436502_at	Mtus1	mitochondrial tumor suppressor 1	ENSMUSG00000045636
4,239	0,70457	5,1868	0,0013437	0,09410089	26,9026	0,0013437	1436524_at	4833438C02Rik	RIKEN cDNA 4833438C02 gene	
7,9784	0,66368	5,5656	0,0008992	0,08330284	30,9762	0,0008992	1436900_x_at	Leprot	leptin receptor overlapping transcript	ENSMUSG00000035212
6,9228	0,93457	8,7707	5,6e-05	0,0359682	76,9249	5,6e-05	1436907_at	Nav1	neuron navigator 1	ENSMUSG00000009418
12,3974	-0,70873	-6,7927	0,0002759	0,05633803	46,1406	0,0002759	1436990_s_at	Chchd10	coiled-coil-helix-coiled-coil-helix domain containing 10	ENSMUSG00000049422
5,0872	-1,52236	-7,1817	0,0001962	0,05115001	51,577	0,0001962	1437025_at	Cd28	CD28 antigen	ENSMUSG00000026012
8,2991	-2,50919	-6,8585	0,0002602	0,05620733	47,0394	0,0002602	1437030_at	Plcd4	phospholipase C, delta 4	ENSMUSG00000026173
7,4639	-1,11178	-7,7805	0,0001194	0,04498241	60,5362	0,0001194	1437064_at	Ar	androgen receptor	ENSMUSG00000046532
8,2061	-0,89493	-5,3542	0,0011225	0,08991798	28,6675	0,0011225	1437077_at	Dcun1d2	DCN1, defective in cullin neddylation 1, domain containing 2 (S. cerevisiae)	ENSMUSG00000038506
6,261	0,69111	5,1207	0,001444	0,09577098	26,2216	0,001444	1437092_at	Clip4	CAP-GLY domain containing linker protein family, member 4	ENSMUSG00000024059
9,3709	0,83747	5,3934	0,0010768	0,08862337	29,089	0,0010768	1437099_x_at	Hnrnpf	heterogeneous nuclear ribonucleoprotein F	ENSMUSG00000042079
7,681	0,68009	5,1705	0,0013677	0,09440576	26,7338	0,0013677	1437220_x_at	Psmd13	proteasome (prosome, macropain) 26S subunit, non-ATPase, 13	ENSMUSG00000025487
9,1743	0,74537	6,2245	0,0004667	0,06596037	38,7449	0,0004667	1437277_x_at	Tgm2	transglutaminase 2, C polypeptide	ENSMUSG00000037820
9,0462	0,59475	5,0846	0,0015022	0,09759446	25,8536	0,0015022	1437342_x_at	Pttg1ip	pituitary tumor-transforming 1 interacting protein	ENSMUSG00000009291
9,3113	-1,19145	-6,3632	0,0004092	0,06420727	40,4906	0,0004092	1437363_at	Homer1	homer homolog 1 (Drosophila)	ENSMUSG00000007617
3,8318	0,92491	5,6462	0,0008276	0,08056539	31,8795	0,0008276	1437482_at	Tecrl	trans-2,3-enoyl-CoA reductase-like	ENSMUSG00000049537
4,2147	0,9478	5,1333	0,0014242	0,09573654	26,3509	0,0014242	1437568_at	Mmp16	matrix metallopeptidase 16	ENSMUSG00000028226
9,6269	0,84167	5,9661	0,0005999	0,07253677	35,5948	0,0005999	1437688_x_at	Atp6ap2	ATPase, H+ transporting, lysosomal accessory protein 2	ENSMUSG00000031007
6,5726	0,79214	6,128	0,0005122	0,068751	37,552	0,0005122	1437724_x_at	Pitpnm1	phosphatidylinositol transfer protein, membrane-associated 1	c(ENSMUSG00000024851, ENSMUSG00000097096)
7,6929	0,95215	6,9884	0,000232	0,05434538	48,8376	0,000232	1437868_at	Fam46a	family with sequence similarity 46, member A	ENSMUSG00000032265
4,1765	0,97713	5,2066	0,0013151	0,09370052	27,1087	0,0013151	1437967_at	Ccdc141	coiled-coil domain containing 141	ENSMUSG00000044033
9,2617	0,66346	5,0239	0,0016064	0,09986454	25,2391	0,0016064	1438001_x_at	Reep5	receptor accessory protein 5	ENSMUSG00000005873
8,1052	-0,95452	-6,604	0,0003273	0,05809988	43,613	0,0003273	1438030_at	Rasgrp3	RAS, guanyl releasing protein 3	ENSMUSG00000071042
5,2919	0,95314	6,7376	0,0002899	0,05684294	45,3955	0,0002899	1438046_at	AU019823	expressed sequence AU019823	ENSMUSG00000059820
5,8861	-0,58632	-5,3777	0,0010949	0,08885733	28,9193	0,0010949	1438048_at	Myct1	myc target 1	ENSMUSG00000046916
10,9324	0,94826	5,7125	0,0007735	0,07871657	32,6321	0,0007735	1438118_x_at	Vim	vimentin	ENSMUSG00000026728
7,4859	0,85089	5,1965	0,0013296	0,09399275	27,0032	0,0013296	1438233_at	Fam178a	family with sequence similarity 178, member A	ENSMUSG00000036097
9,8558	-0,70504	-5,1245	0,001438	0,09573654	26,2607	0,001438	1438292_x_at	Adk	adenosine kinase	ENSMUSG00000039197
8,8615	-0,80678	-6,8279	0,0002673	0,05624186	46,6208	0,0002673	1438317_a_at			
9,8204	0,89518	5,0947	0,0014857	0,09725004	25,9562	0,0014857	1438368_a_at	Matr3	matrin 3	ENSMUSG00000037236
8,8291	-0,84422	-6,4682	0,0003709	0,06221349	41,8376	0,0003709	1438422_at	Lrrc20	leucine rich repeat containing 20	ENSMUSG00000037151
5,9833	-1,08275	-6,0593	0,0005475	0,06917096	36,7148	0,0005475	1438483_at	Nos1	nitric oxide synthase 1, neuronal	ENSMUSG00000029361
9,9715	0,78125	5,0487	0,0015628	0,09906059	25,4896	0,0015628	1438629_x_at	Grn	granulin	ENSMUSG00000034708
6,2979	-2,0213	-8,171	8,78e-05	0,0408075	66,7652	8,78e-05	1438639_x_at	Exoc3l2	exocyst complex component 3-like 2	ENSMUSG00000011263
10,1127	-0,78362	-5,3959	0,0010741	0,0885879	29,1153	0,0010741	1438678_at	1500011K16Rik	RIKEN cDNA 1500011K16 gene	ENSMUSG00000051319
5,741	-1,71286	-6,1155	0,0005184	0,06893485	37,3994	0,0005184	1438720_at	9330159F19Rik	RIKEN cDNA 9330159F19 gene	ENSMUSG00000004360
8,4067	-0,86122	-5,5182	0,0009446	0,08493884	30,451	0,0009446	1438759_x_at	Adi1	acireductone dioxygenase 1	ENSMUSG00000020629
7,9406	-2,21576	-5,8309	0,0006863	0,07605059	33,9988	0,0006863	1439029_at	Gpt2	glutamic pyruvate transaminase (alanine aminotransferase) 2	ENSMUSG00000031700
6,6573	-1,29483	-6,1753	0,0004893	0,0676954	38,1344	0,0004893	1439096_at	Ddo	D-aspartate oxidase	ENSMUSG00000063428
6,6357	0,82569	5,3154	0,0011699	0,09128774	28,2535	0,0011699	1439189_at	Fnip2	folliculin interacting protein 2	ENSMUSG00000061175
5,7172	0,89724	7,5387	0,0001453	0,04681796	56,8321	0,0001453	1439349_at	Sbno2	strawberry notch homolog 2 (Drosophila)	ENSMUSG00000035673
9,0862	0,84386	5,2642	0,001236	0,09238633	27,7113	0,001236	1439456_x_at	Atp6ap2	ATPase, H+ transporting, lysosomal accessory protein 2	ENSMUSG00000031007
7,4903	-1,95783	-9,8	2,75e-05	0,0287866	96,0408	2,75e-05	1439491_at	Lrrc38	leucine rich repeat containing 38	c(ENSMUSG00000028584, ENSMUSG00000097351)
3,2686	0,94438	6,3003	0,0004343	0,06464066	39,6934	0,0004343	1439556_at	Ncam1	neural cell adhesion molecule 1	ENSMUSG00000039542
5,6749	-1,87792	-6,395	0,0003972	0,06382234	40,8957	0,0003972	1439617_s_at	Pck1	phosphoenolpyruvate carboxykinase 1, cytosolic	ENSMUSG00000027513
7,8606	-0,83467	-5,4938	0,000969	0,08521466	30,1817	0,000969	1439662_at	Homer1	homer homolog 1 (Drosophila)	ENSMUSG00000007617
7,0787	-2,07662	-15,8236	1,2e-06	0,00844934	250,3878	1,2e-06	1439669_at	6430571L13Rik	RIKEN cDNA 6430571L13 gene	ENSMUSG00000037977
5,0136	0,6838	6,0537	0,0005505	0,06919637	36,647	0,0005505	1439705_at			
6,5106	-1,16263	-6,3025	0,0004334	0,06464066	39,7212	0,0004334	1439848_at	Bves	blood vessel epicardial substance	ENSMUSG00000071317
5,3787	-1,04996	-7,4959	0,0001506	0,04745242	56,1884	0,0001506	1439855_at	Tmtc1	transmembrane and tetratricopeptide repeat containing 1	ENSMUSG00000030306
7,1032	-0,94391	-6,5999	0,0003285	0,05809988	43,559	0,0003285	1439859_at	9630033F20Rik	RIKEN cDNA 9630033F20 gene	ENSMUSG00000038028
5,9589	0,80697	5,7081	0,0007769	0,07871657	32,5824	0,0007769	1439901_at			
5,4934	-0,90428	-8,1951	8,61e-05	0,0408075	67,1601	8,61e-05	1439936_at	BE949265	cDNA sequence BE949265	
4,6856	0,61285	5,2962	0,0011942	0,09190737	28,05	0,0011942	1439948_at	BC046401	cDNA sequence BC046401	
6,4314	-1,4331	-6,9084	0,0002489	0,05620733	47,7256	0,0002489	1440084_at			
3,7255	-1,0273	-6,6997	0,0003	0,05738029	44,8854	0,0003	1440330_at			
5,8426	-0,78674	-5,16	0,0013834	0,09456304	26,6253	0,0013834	1440569_at	Slc16a10	solute carrier family 16 (monocarboxylic acid transporters), member 10	ENSMUSG00000019838
5,8817	-1,1231	-9,8474	2,66e-05	0,0287866	96,9716	2,66e-05	1440886_at	Cdc37l1	cell division cycle 37-like 1	ENSMUSG00000024780
3,5679	0,61574	5,701	0,0007825	0,07876181	32,5011	0,0007825	1440999_at	Zfp697	zinc finger protein 697	ENSMUSG00000050064
4,3009	-1,33037	-6,8143	0,0002706	0,05624186	46,4349	0,0002706	1441647_at	Gm16364	predicted gene 16364	
7,1479	-1,66818	-6,0857	0,0005336	0,06893485	37,0361	0,0005336	1442001_at	Prkab2	protein kinase, AMP-activated, beta 2 non-catalytic subunit	ENSMUSG00000038205
7,6388	-0,82479	-5,1782	0,0013562	0,09440576	26,8141	0,0013562	1442033_at	C1qtnf9	C1q and tumor necrosis factor related protein 9	ENSMUSG00000071347
6,7071	-1,00666	-7,0215	0,0002254	0,05414147	49,3012	0,0002254	1442537_at			
5,1038	-1,67686	-5,7507	0,000744	0,07732036	33,0701	0,000744	1442707_at	Camk2a	calcium/calmodulin-dependent protein kinase II alpha	ENSMUSG00000024617
8,7438	-1,45798	-6,0057	0,000577	0,07110067	36,0686	0,000577	1443575_at	2310040G24Rik	RIKEN cDNA 2310040G24 gene	
7,8667	-0,83691	-5,3691	0,001105	0,08923163	28,8267	0,001105	1443579_s_at	Deptor	DEP domain containing MTOR-interacting protein	ENSMUSG00000022419
4,5397	0,75983	5,1117	0,0014583	0,09629541	26,1294	0,0014583	1443894_at	Evi2a	ecotropic viral integration site 2a	ENSMUSG00000078771
5,8312	-1,8107	-5,9074	0,0006358	0,07409615	34,8977	0,0006358	1443901_at	C2cd2	C2 calcium-dependent domain containing 2	ENSMUSG00000045975
5,0284	-1,76992	-6,6896	0,0003027	0,05738029	44,7506	0,0003027	1444091_a_at	6430571L13Rik	RIKEN cDNA 6430571L13 gene	ENSMUSG00000037977
5,8822	-1,80894	-7,2614	0,0001833	0,05040791	52,7283	0,0001833	1444178_at	Gm9895	predicted gene 9895	
6,1519	-1,79585	-16,7672	8e-07	0,00707612	281,1397	8e-07	1444307_at			
4,8251	-1,23192	-5,6816	0,0007982	0,0796421	32,2804	0,0007982	1444429_at	Lrtm1	leucine-rich repeats and transmembrane domains 1	ENSMUSG00000045776
10,7317	-1,07247	-5,2133	0,0013056	0,09358413	27,1789	0,0013056	1444504_at	Dhrs7c	dehydrogenase/reductase (SDR family) member 7C	ENSMUSG00000033044
9,7375	-0,89375	-5,639	0,0008337	0,08056539	31,7984	0,0008337	1444643_at	Ckm	creatine kinase, muscle	ENSMUSG00000030399
4,1113	-1,29065	-10,9917	1,3e-05	0,0224951	120,8176	1,3e-05	1444790_at	Hsbp1l1	heat shock factor binding protein 1-like 1	ENSMUSG00000078963
4,759	0,88883	5,046	0,0015676	0,09906059	25,4617	0,0015676	1445377_at			
6,2934	-0,97881	-5,3526	0,0011244	0,08991798	28,6504	0,0011244	1445565_at			
3,876	0,67587	5,0778	0,0015135	0,09779269	25,7845	0,0015135	1446048_at			
4,2198	0,87678	5,859	0,0006672	0,07559444	34,3284	0,0006672	1446636_at	Tns3	tensin 3	ENSMUSG00000020422
7,6981	-2,00301	-7,919	0,0001069	0,04291729	62,7101	0,0001069	1446771_at	Tuba8	tubulin, alpha 8	ENSMUSG00000030137
6,0544	-0,98892	-5,3613	0,0011141	0,08972887	28,7434	0,0011141	1447057_at			
4,7864	0,758	5,2705	0,0012276	0,09238633	27,7779	0,0012276	1447274_at			
5,0611	0,94522	5,0199	0,0016134	0,09995627	25,1994	0,0016134	1447421_at			
8,9501	0,60416	5,063	0,0015384	0,09869893	25,6338	0,0015384	1447800_x_at	Tcn2	transcobalamin 2	ENSMUSG00000020432
7,052	0,9763	5,4031	0,0010659	0,0885321	29,1932	0,0010659	1447830_s_at	Rgs2	regulator of G-protein signaling 2	ENSMUSG00000026360
8,9079	-1,0728	-6,261	0,0004508	0,06587493	39,2005	0,0004508	1447849_s_at	Maf	avian musculoaponeurotic fibrosarcoma (v-maf) AS42 oncogene homolog	ENSMUSG00000055435
6,9507	-1,27629	-10,3037	1,98e-05	0,02796347	106,1659	1,98e-05	1447934_at	9630033F20Rik	RIKEN cDNA 9630033F20 gene	ENSMUSG00000038028
9,9828	-0,75227	-5,922	0,0006267	0,07395371	35,0701	0,0006267	1448100_at	4833439L19Rik	RIKEN cDNA 4833439L19 gene	ENSMUSG00000025871
6,7998	0,8457	6,4421	0,00038	0,06255693	41,5011	0,00038	1448111_at	Ctps2	cytidine 5'-triphosphate synthase 2	ENSMUSG00000031360
7,85	-1,39164	-7,0056	0,0002285	0,05414147	49,0788	0,0002285	1448119_at	Bpgm	2,3-bisphosphoglycerate mutase	ENSMUSG00000038871
7,9262	0,99296	5,7066	0,0007781	0,07871657	32,5648	0,0007781	1448199_at	Ankrd10	ankyrin repeat domain 10	ENSMUSG00000031508
7,9077	-0,56879	-5,1077	0,0014647	0,09640777	26,0882	0,0014647	1448230_at	Usp10	ubiquitin specific peptidase 10	ENSMUSG00000031826
10,1642	-1,11497	-7,5708	0,0001415	0,04592696	57,3164	0,0001415	1448249_at	Gpd1	glycerol-3-phosphate dehydrogenase 1 (soluble)	ENSMUSG00000023019
12,0131	-0,76695	-6,1219	0,0005152	0,06878024	37,4778	0,0005152	1448284_a_at	Ndufc1	NADH dehydrogenase (ubiquinone) 1, subcomplex unknown, 1	ENSMUSG00000037152
11,5756	0,94724	5,3682	0,001106	0,08923163	28,8177	0,001106	1448327_at	Actn2	actinin alpha 2	ENSMUSG00000052374
7,8986	-0,78346	-6,3274	0,0004233	0,06464066	40,0364	0,0004233	1448337_at	Uqcc1	ubiquinol-cytochrome c reductase complex assembly factor 1	ENSMUSG00000005882
5,5226	0,62728	5,478	0,0009851	0,08527725	30,0088	0,0009851	1448395_at	Sfrp1	secreted frizzled-related protein 1	ENSMUSG00000031548
8,1213	0,84592	8,3865	7,45e-05	0,03858099	70,3337	7,45e-05	1448405_a_at	Eid1	EP300 interacting inhibitor of differentiation 1	ENSMUSG00000091337
6,048	-2,08573	-5,699	0,0007841	0,07876181	32,4788	0,0007841	1448424_at	Frzb	frizzled-related protein	ENSMUSG00000027004
7,9505	0,95247	6,5517	0,0003434	0,0597924	42,9247	0,0003434	1448471_a_at	Ctla2a	cytotoxic T lymphocyte-associated protein 2 alpha	ENSMUSG00000044258
10,2524	-2,40221	-5,8958	0,0006432	0,07437886	34,7608	0,0006432	1448484_at	Amd1	S-adenosylmethionine decarboxylase 1	ENSMUSG00000075232
9,3751	-0,72965	-6,0475	0,0005539	0,06919637	36,5721	0,0005539	1448487_at	Lrrfip1	leucine rich repeat (in FLII) interacting protein 1	ENSMUSG00000026305
9,1925	-0,79888	-5,5901	0,0008768	0,08187048	31,2492	0,0008768	1448530_at	Gmpr	guanosine monophosphate reductase	ENSMUSG00000000253
8,2014	-0,78875	-5,273	0,0012243	0,09238633	27,8042	0,0012243	1448563_at			
7,7314	-1,27215	-5,622	0,0008484	0,08072405	31,6073	0,0008484	1448636_at	Myoz1	myozenin 1	ENSMUSG00000068697
8,7476	0,96746	8,1378	9e-05	0,04102091	66,2246	9e-05	1448655_at	Lrp1	low density lipoprotein receptor-related protein 1	ENSMUSG00000040249
5,0462	0,81049	5,7884	0,0007162	0,07718855	33,5061	0,0007162	1448660_at	Arhgdig	Rho GDP dissociation inhibitor (GDI) gamma	ENSMUSG00000073433
8,7158	-0,8908	-5,4862	0,0009767	0,08521466	30,0983	0,0009767	1448740_at	Rangrf	RAN guanine nucleotide release factor	ENSMUSG00000032892
9,2242	-0,75941	-6,0955	0,0005286	0,06893485	37,1548	0,0005286	1448835_at	E2f6	E2F transcription factor 6	ENSMUSG00000057469
6,8049	-1,06058	-6,8226	0,0002686	0,05624186	46,5479	0,0002686	1448918_at	Slco3a1	solute carrier organic anion transporter family, member 3a1	ENSMUSG00000025790
4,5591	-0,75773	-5,1346	0,0014222	0,09573654	26,3641	0,0014222	1448924_at	Tmem186	transmembrane protein 186	ENSMUSG00000043140
5,1835	-0,77167	-5,0601	0,0015433	0,09876135	25,6049	0,0015433	1449076_x_at	Adi1	acireductone dioxygenase 1	ENSMUSG00000020629
11,0746	-0,90884	-7,1467	0,0002022	0,05126355	51,0752	0,0002022	1449398_at	Rpl3l	ribosomal protein L3-like	ENSMUSG00000002500
5,063	0,77093	6,1396	0,0005064	0,068751	37,6952	0,0005064	1449407_at	Ift81	intraflagellar transport 81	ENSMUSG00000029469
6,7515	-1,03291	-9,4442	3,49e-05	0,03144887	89,1937	3,49e-05	1449581_at	Emid1	EMI domain containing 1	ENSMUSG00000034164
7,0477	-0,90713	-5,7348	0,0007561	0,07786159	32,8883	0,0007561	1449592_at	Tcf15	transcription factor 15	ENSMUSG00000068079
8,0307	0,61934	5,1225	0,0014411	0,09573654	26,2401	0,0014411	1449679_s_at	Stx5a	syntaxin 5A	ENSMUSG00000010110
5,8862	-1,24715	-6,508	0,0003575	0,0610759	42,3536	0,0003575	1449834_at	Magix	MAGI family member, X-linked	ENSMUSG00000031147
4,2364	-0,6868	-5,6692	0,0008083	0,08029905	32,1401	0,0008083	1449956_at	Prkce	protein kinase C, epsilon	ENSMUSG00000045038
10,4788	-1,13774	-6,8812	0,000255	0,05620733	47,3504	0,000255	1450017_at	Ccng1	cyclin G1	ENSMUSG00000020326
6,1098	0,81167	7,4748	0,0001532	0,04765798	55,8727	0,0001532	1450047_at	Hs6st2	heparan sulfate 6-O-sulfotransferase 2	ENSMUSG00000062184
7,4048	-1,47102	-8,8943	5,12e-05	0,03554508	79,1083	5,12e-05	1450095_a_at	Acyp1	acylphosphatase 1, erythrocyte (common) type	ENSMUSG00000008822
8,5796	-1,06669	-6,7608	0,0002839	0,05640729	45,7078	0,0002839	1450198_at	Dusp13	dual specificity phosphatase 13	ENSMUSG00000021768
6,2997	-0,6633	-5,2442	0,0012628	0,09245861	27,5013	0,0012628	1450639_at			
6,1058	0,94783	5,7892	0,0007157	0,07718855	33,5144	0,0007157	1450770_at	3632451O06Rik	RIKEN cDNA 3632451O06 gene	ENSMUSG00000036242
3,6443	-0,79098	-5,3825	0,0010893	0,08885191	28,9713	0,0010893	1450912_at	Ms4a1	membrane-spanning 4-domains, subfamily A, member 1	ENSMUSG00000024673
3,9953	-1,40901	-8,1087	9,21e-05	0,0415375	65,7518	9,21e-05	1450940_at	Gdap1	ganglioside-induced differentiation-associated-protein 1	ENSMUSG00000025777
10,7626	-0,94228	-6,9797	0,0002338	0,05434538	48,7158	0,0002338	1450970_at	Got1	glutamate oxaloacetate transaminase 1, soluble	ENSMUSG00000025190
7,0218	-0,84026	-5,3058	0,001182	0,09166396	28,1514	0,001182	1450974_at	Timp4	tissue inhibitor of metalloproteinase 4	ENSMUSG00000030317
7,9314	0,70429	6,3043	0,0004326	0,06464066	39,7439	0,0004326	1450994_at	Rock1	Rho-associated coiled-coil containing protein kinase 1	ENSMUSG00000024290
10,1992	-0,86714	-5,934	0,0006193	0,07335642	35,2126	0,0006193	1451000_at	Tmem126a	transmembrane protein 126A	ENSMUSG00000030615
6,1915	-1,37838	-8,0297	9,8e-05	0,04247919	64,4762	9,8e-05	1451063_at	Stxbp4	syntaxin binding protein 4	ENSMUSG00000020546
8,0796	-0,63573	-5,5024	0,0009603	0,08521466	30,2764	0,0009603	1451136_a_at	Eif2b2	eukaryotic translation initiation factor 2B, subunit 2 beta	ENSMUSG00000004788
10,9083	-1,187	-9,195	4,14e-05	0,03318715	84,5481	4,14e-05	1451149_at	Pgm2	phosphoglucomutase 2	ENSMUSG00000025791
10,2776	-1,64613	-7,3619	0,0001684	0,04904337	54,1975	0,0001684	1451262_a_at	Aimp2	aminoacyl tRNA synthetase complex-interacting multifunctional protein 2	ENSMUSG00000029610
10,4189	-0,88597	-6,605	0,000327	0,05809988	43,626	0,000327	1451296_x_at	Pabpc4	poly(A) binding protein, cytoplasmic 4	ENSMUSG00000011257
8,8197	-0,90656	-5,1031	0,001472	0,09663597	26,0421	0,001472	1451307_at	Mrpl14	mitochondrial ribosomal protein L14	ENSMUSG00000023939
9,3293	-1,33291	-6,2882	0,0004393	0,06503948	39,542	0,0004393	1451322_at	Cmbl	carboxymethylenebutenolidase-like (Pseudomonas)	ENSMUSG00000022235
5,8242	0,65132	5,1536	0,001393	0,09490451	26,5596	0,001393	1451340_at	Arid5a	AT rich interactive domain 5A (MRF1-like)	ENSMUSG00000037447
8,3	-1,24141	-6,4054	0,0003933	0,06365091	41,0289	0,0003933	1451348_at	Deptor	DEP domain containing MTOR-interacting protein	ENSMUSG00000022419
6,6874	-0,75545	-5,188	0,0013419	0,09410089	26,9154	0,0013419	1451433_at	Mfsd3	major facilitator superfamily domain containing 3	ENSMUSG00000019080
5,3992	0,53704	5,0465	0,0015667	0,09906059	25,467	0,0015667	1451439_at	BC027231	cDNA sequence BC027231	ENSMUSG00000036208
7,6432	-1,04652	-6,0234	0,000567	0,07043088	36,2818	0,000567	1451457_at	Sc5d	sterol-C5-desaturase (fungal ERG3, delta-5-desaturase) homolog (S. cerevisae)	ENSMUSG00000032018
10,0926	-0,93162	-6,6797	0,0003055	0,05738029	44,6187	0,0003055	1451488_at	Fitm1	fat storage-inducing transmembrane protein 1	ENSMUSG00000022215
5,4607	-1,27303	-5,3684	0,0011057	0,08923163	28,82	0,0011057	1451489_at	Slc25a35	solute carrier family 25, member 35	ENSMUSG00000018740
10,7676	-0,67694	-5,0706	0,0015255	0,09828858	25,7115	0,0015255	1451504_at	Chchd3	coiled-coil-helix-coiled-coil-helix domain containing 3	ENSMUSG00000053768
8,5867	-0,67802	-5,2251	0,0012891	0,09316916	27,3017	0,0012891	1451508_at	Larp1b	La ribonucleoprotein domain family, member 1B	ENSMUSG00000037814
6,3612	-1,18925	-6,4678	0,0003711	0,06221349	41,8329	0,0003711	1451650_at	Ddo	D-aspartate oxidase	ENSMUSG00000063428
10,1103	-0,81254	-7,3194	0,0001745	0,04997576	53,5743	0,0001745	1451676_at	Drap1	Dr1 associated protein 1 (negative cofactor 2 alpha)	ENSMUSG00000024914
8,703	-0,95488	-6,5627	0,0003399	0,05965215	43,0687	0,0003399	1451678_at	Narf	nuclear prelamin A recognition factor	ENSMUSG00000000056
8,467	-1,66729	-10,1753	2,15e-05	0,02855312	103,5371	2,15e-05	1451707_s_at	Slc41a3	solute carrier family 41, member 3	ENSMUSG00000030089
7,1276	-0,89934	-5,5452	0,0009185	0,08370016	30,7495	0,0009185	1451744_a_at	Ptgr2	prostaglandin reductase 2	ENSMUSG00000072946
10,3288	-0,85812	-7,0057	0,0002285	0,05414147	49,0794	0,0002285	1451751_at	Ddit4l	DNA-damage-inducible transcript 4-like	ENSMUSG00000046818
8,8003	-0,83752	-7,0018	0,0002293	0,05414147	49,0247	0,0002293	1452005_at	Dlat	dihydrolipoamide S-acetyltransferase (E2 component of pyruvate dehydrogenase complex)	ENSMUSG00000000168
5,7379	-0,8259	-6,7895	0,0002767	0,05633803	46,097	0,0002767	1452205_x_at			
11,1353	0,85775	6,24	0,0004599	0,06596037	38,9382	0,0004599	1452217_at	Ahnak	AHNAK nucleoprotein (desmoyokin)	ENSMUSG00000069833
10,8613	-0,78993	-5,9906	0,0005857	0,07197132	35,8867	0,0005857	1452540_a_at			
5,2283	-0,63574	-6,0981	0,0005272	0,06893485	37,1866	0,0005272	1452582_at	Galm	galactose mutarotase	ENSMUSG00000035473
7,971	0,93574	5,1823	0,0013503	0,09440576	26,8558	0,0013503	1452759_s_at	Ppfibp1	PTPRF interacting protein, binding protein 1 (liprin beta 1)	ENSMUSG00000016487
10,5563	-0,99919	-8,5258	6,71e-05	0,03689001	72,6888	6,71e-05	1452800_a_at	Apoo	apolipoprotein O	c(ENSMUSG00000079508, ENSMUSG00000049233)
4,4868	-0,7215	-5,4167	0,0010507	0,08775299	29,3406	0,0010507	1452818_at	Ttf2	transcription termination factor, RNA polymerase II	ENSMUSG00000033222
6,0911	0,59432	5,7361	0,0007551	0,07786159	32,9028	0,0007551	1452836_at	Lpin2	lipin 2	ENSMUSG00000024052
5,1506	-1,58387	-6,696	0,000301	0,05738029	44,837	0,000301	1452913_at	Pcp4l1	Purkinje cell protein 4-like 1	ENSMUSG00000038370
5,4229	-1,01588	-6,6685	0,0003086	0,05738029	44,4689	0,0003086	1452924_at	Fam83d	family with sequence similarity 83, member D	ENSMUSG00000027654
6,6597	-0,66938	-6,3163	0,0004277	0,06464066	39,8951	0,0004277	1453003_at	Sorl1	sortilin-related receptor, LDLR class A repeats-containing	ENSMUSG00000049313
5,1044	-0,75168	-5,6297	0,0008417	0,08056539	31,6934	0,0008417	1453065_at	Aldh5a1	aldhehyde dehydrogenase family 5, subfamily A1	ENSMUSG00000035936
7,3838	-1,14103	-7,2146	0,0001908	0,05112365	52,0509	0,0001908	1453127_at	Ppm1j	protein phosphatase 1J	ENSMUSG00000002228
5,439	0,82073	5,0517	0,0015577	0,09906059	25,5196	0,0015577	1453152_at	Mamdc2	MAM domain containing 2	ENSMUSG00000033207
8,025	-0,95541	-5,9511	0,0006088	0,07303104	35,4162	0,0006088	1453173_at	Akr1b10	aldo-keto reductase family 1, member B10 (aldose reductase)	ENSMUSG00000061758
8,2854	-0,90015	-5,2796	0,0012157	0,09238633	27,8738	0,0012157	1453187_at	Ociad2	OCIA domain containing 2	ENSMUSG00000029153
5,6173	-0,73217	-5,2735	0,0012236	0,09238633	27,8102	0,0012236	1453421_at	Srr	serine racemase	ENSMUSG00000001323
6,9009	-1,85655	-5,4951	0,0009677	0,08521466	30,1962	0,0009677	1453552_at	Plet1os	placenta expressed transcript 1, opposite strand	
6,9952	-2,69115	-12,519	5,5e-06	0,0166095	156,7241	5,5e-06	1453657_at	2310065F04Rik	RIKEN cDNA 2310065F04 gene	ENSMUSG00000087410
7,769	-0,73299	-5,0659	0,0015334	0,0985176	25,6638	0,0015334	1453795_at	Fahd2a	fumarylacetoacetate hydrolase domain containing 2A	ENSMUSG00000027371
7,5855	0,91258	7,3977	0,0001634	0,04848357	54,7254	0,0001634	1454060_a_at	Nras	neuroblastoma ras oncogene	ENSMUSG00000027852
10,9122	-0,68578	-5,022	0,0016098	0,09986454	25,2202	0,0016098	1454137_s_at	Hfe2	hemochromatosis type 2 (juvenile) (human homolog)	ENSMUSG00000038403
8,5904	-0,97634	-7,264	0,0001829	0,05040791	52,7661	0,0001829	1454647_at	Acad11	acyl-Coenzyme A dehydrogenase family, member 11	ENSMUSG00000090150
5,2284	0,90414	5,6078	0,0008609	0,08106004	31,4475	0,0008609	1454703_x_at	Snhg1	small nucleolar RNA host gene (non-protein coding) 1	
6,4571	0,97735	5,4096	0,0010586	0,08813234	29,2639	0,0010586	1454788_at	Arl4c	ADP-ribosylation factor-like 4C	ENSMUSG00000049866
7,4921	-0,96043	-5,3115	0,0011748	0,09151349	28,2118	0,0011748	1454814_s_at			
8,3916	-1,21346	-9,0133	4,71e-05	0,03368589	81,2393	4,71e-05	1454824_s_at	Mtus1	mitochondrial tumor suppressor 1	ENSMUSG00000045636
6,7782	-0,92893	-5,3885	0,0010825	0,08880539	29,0357	0,0010825	1454842_a_at	B3galnt2	UDP-GalNAc:betaGlcNAc beta 1,3-galactosaminyltransferase, polypeptide 2	ENSMUSG00000039242
6,3329	-0,83317	-6,9854	0,0002326	0,05434538	48,7954	0,0002326	1454850_at	Tbc1d10c	TBC1 domain family, member 10c	c(ENSMUSG00000040247, ENSMUSG00000097708)
8,5505	-0,67231	-5,8542	0,0006704	0,07559444	34,2715	0,0006704	1454921_at	Gm561	predicted gene 561	ENSMUSG00000074754
8,7598	-0,59085	-5,1978	0,0013277	0,09399275	27,0174	0,0013277	1454960_at	Smad3	SMAD family member 3	ENSMUSG00000032402
7,9582	-0,72668	-5,4369	0,0010285	0,08693904	29,5604	0,0010285	1454976_at	Sod2	superoxide dismutase 2, mitochondrial	ENSMUSG00000006818
8,8949	-1,15947	-7,4526	0,0001561	0,04788475	55,5415	0,0001561	1455061_a_at	Acaa2	acetyl-Coenzyme A acyltransferase 2 (mitochondrial 3-oxoacyl-Coenzyme A thiolase)	ENSMUSG00000036880
7,692	0,75099	5,2568	0,0012457	0,09238633	27,6343	0,0012457	1455157_a_at	Piezo1	piezo-type mechanosensitive ion channel component 1	ENSMUSG00000014444
4,5509	0,67006	5,0253	0,0016038	0,09986454	25,2535	0,0016038	1455218_at	Ccp110	centriolar coiled coil protein 110	ENSMUSG00000033904
7,5104	-0,76316	-6,1006	0,000526	0,06893485	37,2171	0,000526	1455282_x_at	Alas1	aminolevulinic acid synthase 1	ENSMUSG00000032786
7,0882	0,6471	5,7061	0,0007785	0,07871657	32,5597	0,0007785	1455311_at			
8,2516	-0,88546	-6,5116	0,0003563	0,0610759	42,4011	0,0003563	1455320_at	Nampt	nicotinamide phosphoribosyltransferase	ENSMUSG00000020572
4,9857	0,70714	5,3329	0,0011482	0,09069417	28,4403	0,0011482	1455447_at	D430019H16Rik	RIKEN cDNA D430019H16 gene	ENSMUSG00000094910
4,5591	-0,83915	-5,1655	0,0013751	0,09453736	26,6826	0,0013751	1455501_at	Slc2a12	solute carrier family 2 (facilitated glucose transporter), member 12	ENSMUSG00000037490
6,1611	0,98525	7,3415	0,0001713	0,04952077	53,898	0,0001713	1455518_at	Zdhhc18	zinc finger, DHHC domain containing 18	ENSMUSG00000037553
6,1272	-0,95585	-5,6587	0,0008171	0,08056539	32,0206	0,0008171	1455619_at	BC062258	cDNA sequence BC062258	
6,8172	-1,00851	-6,02	0,000569	0,07043088	36,24	0,000569	1455690_at			
5,4249	-0,96104	-5,6514	0,0008232	0,08056539	31,9378	0,0008232	1455706_at	Stxbp4	syntaxin binding protein 4	ENSMUSG00000020546
9,5075	-1,06504	-5,4814	0,0009817	0,08521466	30,0454	0,0009817	1455794_at	Smtnl2	smoothelin-like 2	ENSMUSG00000045667
7,2819	0,70788	5,1938	0,0013335	0,09410089	26,9753	0,0013335	1455809_x_at	Ric8	resistance to inhibitors of cholinesterase 8 homolog (C. elegans)	ENSMUSG00000025485
8,4863	0,94311	5,5267	0,0009363	0,08445464	30,5448	0,0009363	1455819_at	Ptbp3	polypyrimidine tract binding protein 3	ENSMUSG00000028382
6,9085	0,77412	6,0641	0,000545	0,06917096	36,7733	0,000545	1455839_at	Uggt1	UDP-glucose glycoprotein glucosyltransferase 1	ENSMUSG00000037470
8,3294	0,66049	5,3801	0,0010921	0,08885733	28,9456	0,0010921	1455900_x_at	Tgm2	transglutaminase 2, C polypeptide	ENSMUSG00000037820
6,1047	0,62515	5,9529	0,0006078	0,07303104	35,4368	0,0006078	1455943_at	Zfp451	zinc finger protein 451	ENSMUSG00000042197
4,5612	0,88166	6,4513	0,0003768	0,06224958	41,6199	0,0003768	1456326_at	Fndc3c1	fibronectin type III domain containing 3C1	ENSMUSG00000033737
2,835	0,68629	5,6188	0,0008512	0,08082206	31,571	0,0008512	1456344_at	Tnc	tenascin C	ENSMUSG00000028364
5,8675	-1,60077	-7,4344	0,0001585	0,04828718	55,2708	0,0001585	1456397_at	Cdh4	cadherin 4	ENSMUSG00000000305
4,9076	-0,9204	-5,2451	0,0012616	0,09245861	27,511	0,0012616	1456495_s_at	Osbpl6	oxysterol binding protein-like 6	ENSMUSG00000042359
7,586	0,67161	5,4933	0,0009695	0,08521466	30,1759	0,0009695	1456528_x_at	Ncl	nucleolin	ENSMUSG00000026234
10,4488	0,74925	6,741	0,000289	0,05684294	45,4407	0,000289	1456581_x_at	Gdi2	guanosine diphosphate (GDP) dissociation inhibitor 2	ENSMUSG00000021218
7,0036	0,86161	7,1681	0,0001985	0,05118533	51,3817	0,0001985	1456586_x_at	Mvp	major vault protein	ENSMUSG00000030681
11,1915	-0,7319	-6,6657	0,0003094	0,05738029	44,4316	0,0003094	1456616_a_at	Bsg	basigin	ENSMUSG00000023175
5,6666	0,67253	5,2362	0,0012737	0,09285073	27,418	0,0012737	1456667_at	Htt	huntingtin	ENSMUSG00000029104
5,9753	0,88574	7,0662	0,0002168	0,05401328	49,931	0,0002168	1456796_at	Snai3	snail homolog 3 (Drosophila)	ENSMUSG00000006587
6,3673	-1,0741	-6,0831	0,000535	0,06893485	37,0043	0,000535	1456838_at	Lingo3	leucine rich repeat and Ig domain containing 3	ENSMUSG00000051067
7,5738	-0,64932	-5,3189	0,0011656	0,09122692	28,2906	0,0011656	1456888_at	Pfkfb4	6-phosphofructo-2-kinase/fructose-2,6-biphosphatase 4	ENSMUSG00000025648
8,5787	-1,1619	-6,3086	0,0004308	0,06464066	39,799	0,0004308	1457311_at	Camk2a	calcium/calmodulin-dependent protein kinase II alpha	ENSMUSG00000024617
7,0126	-0,66407	-5,1907	0,001338	0,09410089	26,9431	0,001338	1457676_at	Tirap	toll-interleukin 1 receptor (TIR) domain-containing adaptor protein	ENSMUSG00000032041
5,8043	-1,52826	-8,2632	8,18e-05	0,04016	68,2812	8,18e-05	1457881_at	Osbpl6	oxysterol binding protein-like 6	ENSMUSG00000042359
6,9024	-1,87736	-9,8545	2,65e-05	0,0287866	97,1103	2,65e-05	1458081_at			
9,8727	-0,93036	-5,1324	0,0014256	0,09573654	26,3417	0,0014256	1458087_at	Stac3	SH3 and cysteine rich domain 3	ENSMUSG00000040287
4,9792	-2,30503	-9,1651	4,23e-05	0,03318715	83,9987	4,23e-05	1458456_x_at	6430571L13Rik	RIKEN cDNA 6430571L13 gene	ENSMUSG00000037977
3,7341	0,83053	5,8562	0,0006691	0,07559444	34,2947	0,0006691	1458578_at			
6,6127	-1,08738	-5,4873	0,0009756	0,08521466	30,1108	0,0009756	1458587_at	2310047D07Rik	RIKEN cDNA 2310047D07 gene	
4,4725	0,79994	5,8217	0,0006926	0,07656477	33,892	0,0006926	1459409_at			
8,504	0,63256	5,5065	0,0009562	0,08521466	30,3218	0,0009562	1459866_x_at	Cyfip1	cytoplasmic FMR1 interacting protein 1	ENSMUSG00000030447
5,7106	-0,89505	-5,2341	0,0012766	0,09286718	27,3955	0,0012766	1460122_at	Tmem41b	transmembrane protein 41B	ENSMUSG00000047554
9,5462	-0,91353	-6,6847	0,0003041	0,05738029	44,6848	0,0003041	1460194_at	Phyh	phytanoyl-CoA hydroxylase	ENSMUSG00000026664
6,9174	0,88373	5,108	0,0014642	0,09640777	26,0917	0,0014642	1460210_at	Pkd1	polycystic kidney disease 1 homolog	ENSMUSG00000032855
11,5235	-0,7579	-5,2199	0,0012964	0,09345787	27,2471	0,0012964	1460256_at	Car3	carbonic anhydrase 3	ENSMUSG00000027559
6,48	-1,20708	-5,2027	0,0013207	0,09375407	27,0678	0,0013207	1460314_s_at			
5,1857	-0,56836	-5,1896	0,0013395	0,09410089	26,9321	0,0013395	1460407_at	Spib	Spi-B transcription factor (Spi-1/PU.1 related)	ENSMUSG00000008193
7,4344	0,79673	5,4231	0,0010436	0,08748399	29,4103	0,0010436	1460556_at	Micall1	microtubule associated monooxygenase, calponin and LIM domain containing -like 1	ENSMUSG00000033039
8,0328	0,5533	5,1597	0,0013838	0,09456304	26,6224	0,0013838	1460692_at	Ehmt2	euchromatic histone lysine N-methyltransferase 2	ENSMUSG00000013787
5,7253	-0,85717	-8,0829	9,4e-05	0,04192721	65,333	9,4e-05	1460713_at	Dnph1	2'-deoxynucleoside 5'-phosphate N-hydrolase 1	ENSMUSG00000040658
6,5647	-0,79239	-6,4515	0,0003767	0,06224958	41,6219	0,0003767	1460742_at	Alg3	asparagine-linked glycosylation 3 (alpha-1,3-mannosyltransferase)	ENSMUSG00000033809
